          10 PROCESSORS WORKING

         
 *******************************************************************************
 *                                                                             *
 *                               CRYSTAL14                                     *
 *                      public : 1.0.4 - Feb 23rd, 2016                        *
 *                       HTTP://WWW.CRYSTAL.UNITO.IT                           *
 *                                                                             *
 *                              MAIN AUTHORS                                   *
 *                                                                             *
 *  R. DOVESI(1,11), V.R. SAUNDERS(2), C. ROETTI(1,11), R. ORLANDO(1,11),      *
 *  C.M. ZICOVICH-WILSON(1,3), F. PASCALE(4), B. CIVALLERI(1,11),              *
 *  K. DOLL(5), N.M. HARRISON(2,6), I. J. BUSH(7), Ph. D'ARCO(8),              *
 *  M. LLUNELL(9), M. CAUSA'(10), Y. NOEL(8)                                   *
 *                                                                             *
 *        CONTRIBUTIONS TO THE CURRENT RELEASE HAVE BEEN GIVEN BY              *
 *                                                                             *
 *  L. MASCHIO(1,11), S. CASASSA(1,11), A. ERBA(1,11), M. FERRABONE(1,11),     *
 *  M. DE LA PIERRE(1,11), M. FERRERO(1,11), V. LACIVITA(1,11),                *
 *  J. BAIMA(1,11), E. ALBANESE(1,11), M.F. PEINTINGER(12), R. BAST(13),       *
 *  M. RERAT(14), B. KIRTMAN(15), R. DEMICHELIS(1,16)                          *
 *                                                                             *
 * (1) THEORETICAL CHEMISTRY GROUP - UNIVERSITA' DI TORINO - TORINO (ITALY)    *
 *     http://www.crystal.unito.it                                             *
 * (2) COMPUTATIONAL SCIENCE & ENGINEERING DEPARTMENT - STFC DARESBURY (UK)    *
 *     http://www.stfc.ac.uk/CSE/randd/cmg/CRYSTAL/25806.aspx                  *
 * (3) UNIVERSIDAD AUTONOMA DEL ESTADO DE MORELOS - CUERNAVACA (MEXICO)        *
 * (4) UNIVERSITE' DE LORRAINE - NANCY (FRANCE)                                *
 * (5) UNIVERSITAET ULM - ULM (GERMANY); (6) IMPERIAL COLLEGE - LONDON (UK)    *
 * (7) NAG - OXFORD (UK); (8) UPMC - SORBONNE UNIVERSITES - PARIS (FRANCE)     *
 * (9) UNIVERSIDAD DE BARCELONA - BARCELONA (SPAIN)                            *
 *(10) UNIVERSITA' DI NAPOLI "FEDERICO II" - NAPOLI (ITALY)                    *
 *(11) NIS - NANOSTRUCTURED INTERFACES AND SURFACES - TORINO (ITALY)           *
 *(12) MPI FUER CHEMISCHE ENERGIEKONVERSION - MUELHEIM AN DER RUHR (GERMANY)   *
 *(13) UNIVERSITY OF STOCKHOLM - STOCKHOLM (SWEDEN)                            *
 *(14) UNIVERSITE' DE PAU ET DES PAYS DE L'ADOUR - PAU (FRANCE)                *
 *(15) UNIVERSITY OF CALIFORNIA SANTA BARBARA - SANTA BARBARA (USA)            *
 *(16) CURTIN UNIVERSITY - PERTH (AUSTRALIA)                                   *
 *                                                                             *
 ********************************************************************************
 EEEEEEEEEE STARTING  DATE 18 05 2022 TIME 13:50:01.3
 DRY-ICE                                                                         

 CRYSTAL CALCULATION
 (INPUT ACCORDING TO THE INTERNATIONAL TABLES FOR X-RAY CRYSTALLOGRAPHY)
 CRYSTAL FAMILY                       :  TRICLINIC   
 CRYSTAL CLASS  (GROTH - 1921)        :  TRICLINIC PEDIAL                     

 SPACE GROUP (NONCENTROSYMMETRIC)     :  P 1             

 LATTICE PARAMETERS  (ANGSTROMS AND DEGREES) - CONVENTIONAL CELL
        A           B           C        ALPHA        BETA       GAMMA
     5.63000     5.63000     5.63000    90.00000    90.00000    90.00000


 NUMBER OF IRREDUCIBLE ATOMS IN THE CONVENTIONAL CELL:   12

 INPUT COORDINATES

 ATOM AT. N.              COORDINATES
   1   6     0.000000000000E+00  0.000000000000E+00  0.000000000000E+00
   2   8     1.300000000000E-01  9.000000000000E-02  1.400000000000E-01
   3   8    -1.200000000000E-01 -1.200000000000E-01 -1.200000000000E-01
   4   6     5.000000000000E-01  2.000000000000E-02  4.900000000000E-01
   5   8     3.600000000000E-01 -9.000000000000E-02 -3.500000000000E-01
   6   8    -4.200000000000E-01  1.200000000000E-01  3.600000000000E-01
   7   6     4.800000000000E-01  5.000000000000E-01  1.000000000000E-02
   8   8    -4.200000000000E-01  3.800000000000E-01 -1.400000000000E-01
   9   8     3.900000000000E-01 -3.900000000000E-01  1.400000000000E-01
  10   6    -2.000000000000E-02  5.000000000000E-01  4.900000000000E-01
  11   8    -1.500000000000E-01 -3.900000000000E-01  4.100000000000E-01
  12   8     1.200000000000E-01  3.800000000000E-01 -3.800000000000E-01

 *******************************************************************************

 << INFORMATION >>: FROM NOW ON, ALL COORDINATES REFER TO THE PRIMITIVE CELL

 *******************************************************************************

 LATTICE PARAMETERS  (ANGSTROMS AND DEGREES) - PRIMITIVE CELL
       A          B          C        ALPHA      BETA     GAMMA        VOLUME
    5.63000    5.63000    5.63000    90.00000  90.00000  90.00000    178.453547

 COORDINATES OF THE EQUIVALENT ATOMS (FRACTIONAL UNITS)

 N. ATOM EQUIV AT. N.          X                  Y                  Z

   1   1   1    6 C     0.00000000000E+00  0.00000000000E+00  0.00000000000E+00

   2   2   1    8 O     1.30000000000E-01  9.00000000000E-02  1.40000000000E-01

   3   3   1    8 O    -1.20000000000E-01 -1.20000000000E-01 -1.20000000000E-01

   4   4   1    6 C    -5.00000000000E-01  2.00000000000E-02  4.90000000000E-01

   5   5   1    8 O     3.60000000000E-01 -9.00000000000E-02 -3.50000000000E-01

   6   6   1    8 O    -4.20000000000E-01  1.20000000000E-01  3.60000000000E-01

   7   7   1    6 C     4.80000000000E-01 -5.00000000000E-01  1.00000000000E-02

   8   8   1    8 O    -4.20000000000E-01  3.80000000000E-01 -1.40000000000E-01

   9   9   1    8 O     3.90000000000E-01 -3.90000000000E-01  1.40000000000E-01

  10  10   1    6 C    -2.00000000000E-02 -5.00000000000E-01  4.90000000000E-01

  11  11   1    8 O    -1.50000000000E-01 -3.90000000000E-01  4.10000000000E-01

  12  12   1    8 O     1.20000000000E-01  3.80000000000E-01 -3.80000000000E-01

 NUMBER OF SYMMETRY OPERATORS         :    1
 *******************************************************************************
 * GEOMETRY EDITING - INPUT COORDINATES ARE GIVEN IN ANGSTROM         
 *******************************************************************************

 GCALCO - MAX INDICES DIRECT LATTICE VECTOR    14    14    14
 NO.OF VECTORS CREATED 6999 STARS  120 RMAX   126.33300 BOHR

 GEOMETRY FOR WAVE FUNCTION - DIMENSIONALITY OF THE SYSTEM    3
 (NON PERIODIC DIRECTION: LATTICE PARAMETER FORMALLY SET TO 500)
 *******************************************************************************
 LATTICE PARAMETERS (ANGSTROMS AND DEGREES) - BOHR = 0.5291772083 ANGSTROM
 PRIMITIVE CELL - CENTRING CODE 1/0 VOLUME=   178.453547 - DENSITY  1.637 g/cm^3
         A              B              C           ALPHA      BETA       GAMMA 
     5.63000000     5.63000000     5.63000000    90.000000  90.000000  90.000000
 *******************************************************************************
 ATOMS IN THE ASYMMETRIC UNIT   12 - ATOMS IN THE UNIT CELL:   12
     ATOM              X/A                 Y/B                 Z/C    
 *******************************************************************************
   1 T   6 C     0.000000000000E+00  0.000000000000E+00  0.000000000000E+00
   2 T   8 O     1.300000000000E-01  9.000000000000E-02  1.400000000000E-01
   3 T   8 O    -1.200000000000E-01 -1.200000000000E-01 -1.200000000000E-01
   4 T   6 C     5.000000000000E-01  2.000000000000E-02  4.900000000000E-01
   5 T   8 O     3.600000000000E-01 -9.000000000000E-02 -3.500000000000E-01
   6 T   8 O    -4.200000000000E-01  1.200000000000E-01  3.600000000000E-01
   7 T   6 C     4.800000000000E-01  5.000000000000E-01  1.000000000000E-02
   8 T   8 O    -4.200000000000E-01  3.800000000000E-01 -1.400000000000E-01
   9 T   8 O     3.900000000000E-01 -3.900000000000E-01  1.400000000000E-01
  10 T   6 C    -2.000000000000E-02  5.000000000000E-01  4.900000000000E-01
  11 T   8 O    -1.500000000000E-01 -3.900000000000E-01  4.100000000000E-01
  12 T   8 O     1.200000000000E-01  3.800000000000E-01 -3.800000000000E-01

 T = ATOM BELONGING TO THE ASYMMETRIC UNIT

 ****    1 SYMMOPS - TRANSLATORS IN FRACTIONAL UNITS
 **** MATRICES AND TRANSLATORS IN THE CRYSTALLOGRAPHIC REFERENCE FRAME
   V INV                    ROTATION MATRICES                   TRANSLATORS
   1   1  1.00  0.00  0.00  0.00  1.00  0.00  0.00  0.00  1.00  0.00  0.00  0.00

 DIRECT LATTICE VECTORS CARTESIAN COMPONENTS (ANGSTROM)
          X                    Y                    Z
   0.563000000000E+01   0.344738073960E-15   0.000000000000E+00
   0.000000000000E+00   0.563000000000E+01   0.000000000000E+00
   0.344738073960E-15   0.344738073960E-15   0.563000000000E+01


 CARTESIAN COORDINATES - PRIMITIVE CELL
 *******************************************************************************
 *      ATOM          X(ANGSTROM)         Y(ANGSTROM)         Z(ANGSTROM)
 *******************************************************************************
    1     6 C     0.000000000000E+00  0.000000000000E+00  0.000000000000E+00
    2     8 O     7.319000000000E-01  5.067000000000E-01  7.882000000000E-01
    3     8 O    -6.756000000000E-01 -6.756000000000E-01 -6.756000000000E-01
    4     6 C     2.815000000000E+00  1.126000000000E-01  2.758700000000E+00
    5     8 O     2.026800000000E+00 -5.067000000000E-01 -1.970500000000E+00
    6     8 O    -2.364600000000E+00  6.756000000000E-01  2.026800000000E+00
    7     6 C     2.702400000000E+00  2.815000000000E+00  5.630000000000E-02
    8     8 O    -2.364600000000E+00  2.139400000000E+00 -7.882000000000E-01
    9     8 O     2.195700000000E+00 -2.195700000000E+00  7.882000000000E-01
   10     6 C    -1.126000000000E-01  2.815000000000E+00  2.758700000000E+00
   11     8 O    -8.445000000000E-01 -2.195700000000E+00  2.308300000000E+00
   12     8 O     6.756000000000E-01  2.139400000000E+00 -2.139400000000E+00

 *******************************************************************************
 STARTING BASIS SET HANDLING 
 *******************************************************************************

 Loading internal basis set: POB-TZVP            

 Please cite in your publication:
 Peintinger, M. F., Oliveira, D. V. and Bredow, T. (2013), Consistent Gaussian b
 asis sets of triple-zeta valence with polarization quality for solid-state calc
 ulations. J. Comput. Chem., 34: 451–459. doi: 10.1002/jcc.23153              
                    

 *******************************************************************************
 LOCAL ATOMIC FUNCTIONS BASIS SET
 *******************************************************************************
   ATOM   X(AU)   Y(AU)   Z(AU)  N. TYPE  EXPONENT  S COEF   P COEF   D/F/G COEF
 *******************************************************************************
   1 C    0.000   0.000   0.000
                                  1 S  
                                         1.358E+04 2.225E-04 0.000E+00 0.000E+00
                                         2.035E+03 1.723E-03 0.000E+00 0.000E+00
                                         4.632E+02 8.926E-03 0.000E+00 0.000E+00
                                         1.312E+02 3.573E-02 0.000E+00 0.000E+00
                                         4.285E+01 1.108E-01 0.000E+00 0.000E+00
                                         1.558E+01 2.430E-01 0.000E+00 0.000E+00
                                  2 S  
                                         6.207E+00 4.144E-01 0.000E+00 0.000E+00
                                         2.576E+00 2.374E-01 0.000E+00 0.000E+00
                                  3 S  
                                         4.941E-01 1.000E+00 0.000E+00 0.000E+00
                                  4 S  
                                         1.644E-01 1.000E+00 0.000E+00 0.000E+00
                             5-   7 P  
                                         3.470E+01 0.000E+00 5.333E-03 0.000E+00
                                         7.958E+00 0.000E+00 3.586E-02 0.000E+00
                                         2.378E+00 0.000E+00 1.422E-01 0.000E+00
                                         8.143E-01 0.000E+00 3.427E-01 0.000E+00
                             8-  10 P  
                                         5.662E-01 0.000E+00 1.000E+00 0.000E+00
                            11-  13 P  
                                         2.674E-01 0.000E+00 1.000E+00 0.000E+00
                            14-  18 D  
                                         8.792E-01 0.000E+00 0.000E+00 1.000E+00
   2 O    1.383   0.958   1.489
                                 19 S  
                                         2.703E+04 2.173E-04 0.000E+00 0.000E+00
                                         4.052E+03 1.684E-03 0.000E+00 0.000E+00
                                         9.223E+02 8.740E-03 0.000E+00 0.000E+00
                                         2.612E+02 3.524E-02 0.000E+00 0.000E+00
                                         8.535E+01 1.115E-01 0.000E+00 0.000E+00
                                         3.104E+01 2.559E-01 0.000E+00 0.000E+00
                                 20 S  
                                         1.226E+01 3.977E-01 0.000E+00 0.000E+00
                                         4.999E+00 2.463E-01 0.000E+00 0.000E+00
                                 21 S  
                                         8.479E-01 1.000E+00 0.000E+00 0.000E+00
                                 22 S  
                                         1.851E-01 1.000E+00 0.000E+00 0.000E+00
                            23-  25 P  
                                         6.327E+01 0.000E+00 6.069E-03 0.000E+00
                                         1.463E+01 0.000E+00 4.191E-02 0.000E+00
                                         4.450E+00 0.000E+00 1.615E-01 0.000E+00
                                         1.528E+00 0.000E+00 3.571E-01 0.000E+00
                            26-  28 P  
                                         5.490E-01 0.000E+00 1.000E+00 0.000E+00
                            29-  31 P  
                                         1.824E-01 0.000E+00 1.000E+00 0.000E+00
                            32-  36 D  
                                         5.000E-01 0.000E+00 0.000E+00 1.000E+00
   3 O   -1.277  -1.277  -1.277
   4 C    5.320   0.213   5.213
   5 O    3.830  -0.958  -3.724
   6 O   -4.468   1.277   3.830
   7 C    5.107   5.320   0.106
   8 O   -4.468   4.043  -1.489
   9 O    4.149  -4.149   1.489
  10 C   -0.213   5.320   5.213
  11 O   -1.596  -4.149   4.362
  12 O    1.277   4.043  -4.043

 *******************************************************************************
 FINISHED BASIS SET HANDLING 
 *******************************************************************************

 INFORMATION **** SET_MPP **** PCRYSTAL CALCULATION
 INFORMATION **** READM2 **** NEW DEFAULT: FOCK/KS MATRIX MIXING SET TO 30 %
 INFORMATION **** READM2 **** NEW DEFAULT: FULL DIRECT SCF MODE
 INFORMATION **** READM2 **** NEW DEFAULT: COULOMB BIPOLAR BUFFER SET TO 32 Mb
 INFORMATION **** READM2 **** NEW DEFAULT: EXCHANGE BIPOLAR BUFFER SET TO 32 Mb

 *******************************************************************************
 NEW DEFAULT: DFT INTEGRATION GRID INCREASED TO XLGRID
 NEW DEFAULT: LEVEL SHIFTER 6 0
 IF THE SYSTEM IS A METAL USE KEYWORD NOSHIFT
 *******************************************************************************

 *******************************************************************************
 N. OF ATOMS PER CELL        12  COULOMB OVERLAP TOL         (T1) 10**   -6
 NUMBER OF SHELLS            96  COULOMB PENETRATION TOL     (T2) 10**   -6
 NUMBER OF AO               216  EXCHANGE OVERLAP TOL        (T3) 10**   -6
 N. OF ELECTRONS PER CELL    88  EXCHANGE PSEUDO OVP (F(G))  (T4) 10**   -6
 CORE ELECTRONS PER CELL     24  EXCHANGE PSEUDO OVP (P(G))  (T5) 10**  -12
 N. OF SYMMETRY OPERATORS     1  POLE ORDER IN MONO ZONE                  4
 *******************************************************************************
 TYPE OF CALCULATION :  RESTRICTED CLOSED SHELL
 KOHN-SHAM HAMILTONIAN

 (EXCHANGE)[CORRELATION] FUNCTIONAL:(BECKE 88)[LEE-YANG-PARR]

 NON-LOCAL WEIGHTING FACTOR (EXCHANGE) =           0.9000
 NON-LOCAL WEIGHTING FACTOR [CORRELATION] =        0.8100

 HYBRID EXCHANGE - PERCENTAGE OF FOCK EXCHANGE    20.0000
 EIGENVALUE LEVEL SHIFTING OF  0.600 HARTREE

 CAPPA:IS1  8;IS2  8;IS3  8; K PTS MONK NET 260; SYMMOPS:K SPACE   2;G SPACE   1

 *******************************************************************************
 MAX NUMBER OF SCF CYCLES      50  CONVERGENCE ON DELTAP        10**-16
 WEIGHT OF F(I) IN F(I+1)      30% CONVERGENCE ON ENERGY        10**- 6
 EIGENVALUE LEVEL SHIFTING OF  0.600 HARTREE
 SHRINK. FACT.(MONKH.)    8  8  8  NUMBER OF K POINTS IN THE IBZ    260
 SHRINKING FACTOR(GILAT NET)    8  NUMBER OF K POINTS(GILAT NET)    260
 *******************************************************************************
 *** K POINTS COORDINATES (OBLIQUE COORDINATES IN UNITS OF IS =  8)
   1-R(  0  0  0)   2-C(  1  0  0)   3-C(  2  0  0)   4-C(  3  0  0)
   5-R(  4  0  0)   6-C(  0  1  0)   7-C(  1  1  0)   8-C(  2  1  0)
   9-C(  3  1  0)  10-C(  4  1  0)  11-C(  5  1  0)  12-C(  6  1  0)
  13-C(  7  1  0)  14-C(  0  2  0)  15-C(  1  2  0)  16-C(  2  2  0)
  17-C(  3  2  0)  18-C(  4  2  0)  19-C(  5  2  0)  20-C(  6  2  0)
  21-C(  7  2  0)  22-C(  0  3  0)  23-C(  1  3  0)  24-C(  2  3  0)
  25-C(  3  3  0)  26-C(  4  3  0)  27-C(  5  3  0)  28-C(  6  3  0)
  29-C(  7  3  0)  30-R(  0  4  0)  31-C(  1  4  0)  32-C(  2  4  0)
  33-C(  3  4  0)  34-R(  4  4  0)  35-C(  0  0  1)  36-C(  1  0  1)
  37-C(  2  0  1)  38-C(  3  0  1)  39-C(  4  0  1)  40-C(  5  0  1)
  41-C(  6  0  1)  42-C(  7  0  1)  43-C(  0  1  1)  44-C(  1  1  1)
  45-C(  2  1  1)  46-C(  3  1  1)  47-C(  4  1  1)  48-C(  5  1  1)
  49-C(  6  1  1)  50-C(  7  1  1)  51-C(  0  2  1)  52-C(  1  2  1)
  53-C(  2  2  1)  54-C(  3  2  1)  55-C(  4  2  1)  56-C(  5  2  1)
  57-C(  6  2  1)  58-C(  7  2  1)  59-C(  0  3  1)  60-C(  1  3  1)
  61-C(  2  3  1)  62-C(  3  3  1)  63-C(  4  3  1)  64-C(  5  3  1)
  65-C(  6  3  1)  66-C(  7  3  1)  67-C(  0  4  1)  68-C(  1  4  1)
  69-C(  2  4  1)  70-C(  3  4  1)  71-C(  4  4  1)  72-C(  5  4  1)
  73-C(  6  4  1)  74-C(  7  4  1)  75-C(  0  5  1)  76-C(  1  5  1)
  77-C(  2  5  1)  78-C(  3  5  1)  79-C(  4  5  1)  80-C(  5  5  1)
  81-C(  6  5  1)  82-C(  7  5  1)  83-C(  0  6  1)  84-C(  1  6  1)
  85-C(  2  6  1)  86-C(  3  6  1)  87-C(  4  6  1)  88-C(  5  6  1)
  89-C(  6  6  1)  90-C(  7  6  1)  91-C(  0  7  1)  92-C(  1  7  1)
  93-C(  2  7  1)  94-C(  3  7  1)  95-C(  4  7  1)  96-C(  5  7  1)
  97-C(  6  7  1)  98-C(  7  7  1)  99-C(  0  0  2) 100-C(  1  0  2)
 101-C(  2  0  2) 102-C(  3  0  2) 103-C(  4  0  2) 104-C(  5  0  2)
 105-C(  6  0  2) 106-C(  7  0  2) 107-C(  0  1  2) 108-C(  1  1  2)
 109-C(  2  1  2) 110-C(  3  1  2) 111-C(  4  1  2) 112-C(  5  1  2)
 113-C(  6  1  2) 114-C(  7  1  2) 115-C(  0  2  2) 116-C(  1  2  2)
 117-C(  2  2  2) 118-C(  3  2  2) 119-C(  4  2  2) 120-C(  5  2  2)
 121-C(  6  2  2) 122-C(  7  2  2) 123-C(  0  3  2) 124-C(  1  3  2)
 125-C(  2  3  2) 126-C(  3  3  2) 127-C(  4  3  2) 128-C(  5  3  2)
 129-C(  6  3  2) 130-C(  7  3  2) 131-C(  0  4  2) 132-C(  1  4  2)
 133-C(  2  4  2) 134-C(  3  4  2) 135-C(  4  4  2) 136-C(  5  4  2)
 137-C(  6  4  2) 138-C(  7  4  2) 139-C(  0  5  2) 140-C(  1  5  2)
 141-C(  2  5  2) 142-C(  3  5  2) 143-C(  4  5  2) 144-C(  5  5  2)
 145-C(  6  5  2) 146-C(  7  5  2) 147-C(  0  6  2) 148-C(  1  6  2)
 149-C(  2  6  2) 150-C(  3  6  2) 151-C(  4  6  2) 152-C(  5  6  2)
 153-C(  6  6  2) 154-C(  7  6  2) 155-C(  0  7  2) 156-C(  1  7  2)
 157-C(  2  7  2) 158-C(  3  7  2) 159-C(  4  7  2) 160-C(  5  7  2)
 161-C(  6  7  2) 162-C(  7  7  2) 163-C(  0  0  3) 164-C(  1  0  3)
 165-C(  2  0  3) 166-C(  3  0  3) 167-C(  4  0  3) 168-C(  5  0  3)
 169-C(  6  0  3) 170-C(  7  0  3) 171-C(  0  1  3) 172-C(  1  1  3)
 173-C(  2  1  3) 174-C(  3  1  3) 175-C(  4  1  3) 176-C(  5  1  3)
 177-C(  6  1  3) 178-C(  7  1  3) 179-C(  0  2  3) 180-C(  1  2  3)
 181-C(  2  2  3) 182-C(  3  2  3) 183-C(  4  2  3) 184-C(  5  2  3)
 185-C(  6  2  3) 186-C(  7  2  3) 187-C(  0  3  3) 188-C(  1  3  3)
 189-C(  2  3  3) 190-C(  3  3  3) 191-C(  4  3  3) 192-C(  5  3  3)
 193-C(  6  3  3) 194-C(  7  3  3) 195-C(  0  4  3) 196-C(  1  4  3)
 197-C(  2  4  3) 198-C(  3  4  3) 199-C(  4  4  3) 200-C(  5  4  3)
 201-C(  6  4  3) 202-C(  7  4  3) 203-C(  0  5  3) 204-C(  1  5  3)
 205-C(  2  5  3) 206-C(  3  5  3) 207-C(  4  5  3) 208-C(  5  5  3)
 209-C(  6  5  3) 210-C(  7  5  3) 211-C(  0  6  3) 212-C(  1  6  3)
 213-C(  2  6  3) 214-C(  3  6  3) 215-C(  4  6  3) 216-C(  5  6  3)
 217-C(  6  6  3) 218-C(  7  6  3) 219-C(  0  7  3) 220-C(  1  7  3)
 221-C(  2  7  3) 222-C(  3  7  3) 223-C(  4  7  3) 224-C(  5  7  3)
 225-C(  6  7  3) 226-C(  7  7  3) 227-R(  0  0  4) 228-C(  1  0  4)
 229-C(  2  0  4) 230-C(  3  0  4) 231-R(  4  0  4) 232-C(  0  1  4)
 233-C(  1  1  4) 234-C(  2  1  4) 235-C(  3  1  4) 236-C(  4  1  4)
 237-C(  5  1  4) 238-C(  6  1  4) 239-C(  7  1  4) 240-C(  0  2  4)
 241-C(  1  2  4) 242-C(  2  2  4) 243-C(  3  2  4) 244-C(  4  2  4)
 245-C(  5  2  4) 246-C(  6  2  4) 247-C(  7  2  4) 248-C(  0  3  4)
 249-C(  1  3  4) 250-C(  2  3  4) 251-C(  3  3  4) 252-C(  4  3  4)
 253-C(  5  3  4) 254-C(  6  3  4) 255-C(  7  3  4) 256-R(  0  4  4)
 257-C(  1  4  4) 258-C(  2  4  4) 259-C(  3  4  4) 260-R(  4  4  4)

 DIRECT LATTICE VECTORS COMPON. (A.U.)     RECIP. LATTICE VECTORS COMPON. (A.U.) 
        X            Y            Z              X            Y            Z
   10.6391581    0.0000000    0.0000000      0.5905717    0.0000000   -0.0000000
    0.0000000   10.6391581    0.0000000     -0.0000000    0.5905717   -0.0000000
    0.0000000    0.0000000   10.6391581      0.0000000    0.0000000    0.5905717

 DISK SPACE FOR EIGENVECTORS (FTN 10)    23887872 REALS

 SYMMETRY ADAPTION OF THE BLOCH FUNCTIONS DISABLED
 TTTTTTTTTTTTTTTTTTTTTTTTTTTTTT gordsh1     TELAPSE        0.54 TCPU        0.11

 MATRIX SIZE: P(G)  228838, F(G)   40550, P(G) IRR  115619, F(G) IRR   40922
 MAX G-VECTOR INDEX FOR 1- AND 2-ELECTRON INTEGRALS  81

 TTTTTTTTTTTTTTTTTTTTTTTTTTTTTT INPUT       TELAPSE        0.56 TCPU        0.13

 NEIGHBORS OF THE NON-EQUIVALENT ATOMS

 N = NUMBER OF NEIGHBORS AT DISTANCE R
    ATOM  N     R/ANG      R/AU   NEIGHBORS (ATOM LABELS AND CELL INDICES)
   1 C    1     1.1702     2.2113    3 O    0 0 0
   1 C    1     1.1890     2.2469    2 O    0 0 0
   1 C    1     2.8719     5.4270    5 O    0 0 0
   1 C    1     3.1001     5.8583   12 O    0 0 0
   1 C    1     3.1868     6.0222    6 O    0 0 0
   1 C    1     3.2037     6.0540    9 O    0 0 0

   2 O    1     1.1890     2.2469    1 C    0 0 0
   2 O    1     2.3498     4.4405    3 O    0 0 0
   2 O    1     2.8251     5.3387    6 O    1 0 0
   2 O    1     2.8944     5.4696    4 C    0 0 0
   2 O    1     3.0734     5.8079    9 O    0 0 0
   2 O    1     3.1220     5.8997    7 C    0 0 0

   3 O    1     1.1702     2.2113    1 C    0 0 0
   3 O    1     2.3498     4.4405    2 O    0 0 0
   3 O    1     3.0014     5.6718    5 O    0 0 0
   3 O    1     3.0563     5.7756   11 O    0 0-1
   3 O    1     3.1169     5.8901   10 C    0-1-1
   3 O    1     3.1653     5.9816    4 C   -1 0-1

   4 C    1     1.0274     1.9415    6 O    1 0 0
   4 C    1     1.3477     2.5467    5 O    0 0 1
   4 C    1     2.8944     5.4696    2 O    0 0 0
   4 C    1     2.9411     5.5579    8 O    1 0 1
   4 C    1     3.0365     5.7382   12 O    0 0 1
   4 C    1     3.0682     5.7981   11 O    1 0 0

   5 O    1     1.3477     2.5467    4 C    0 0-1
   5 O    1     2.3659     4.4710    6 O    1 0-1
   5 O    1     2.8719     5.4270    1 C    0 0 0
   5 O    1     2.9759     5.6237   12 O    0 0 0
   5 O    1     3.0014     5.6718    3 O    0 0 0
   5 O    1     3.1453     5.9437    7 C    0-1 0

   6 O    1     1.0274     1.9415    4 C   -1 0 0
   6 O    1     2.3659     4.4710    5 O   -1 0 1
   6 O    1     2.8251     5.3387    2 O   -1 0 0
   6 O    1     2.9626     5.5985    7 C   -1 0 0
   6 O    1     3.1623     5.9759   11 O    0 1 0
   6 O    2     3.1728     5.9958    8 O    0 0 0    8 O    0 0 1

   7 C    1     1.0844     2.0492    9 O    0 1 0
   7 C    1     1.2193     2.3041    8 O    1 0 0
   7 C    1     2.9626     5.5985    6 O    1 0 0
   7 C    1     3.0636     5.7893   12 O    0 0 0
   7 C    1     3.1220     5.8997    2 O    0 0 0
   7 C    1     3.1296     5.9141   11 O    1 1 0

   8 O    1     1.2193     2.3041    7 C   -1 0 0
   8 O    1     2.3035     4.3530    9 O   -1 1 0
   8 O    1     2.9211     5.5201   12 O   -1 0 0
   8 O    1     2.9411     5.5579    4 C   -1 0-1
   8 O    1     3.1412     5.9360   10 C    0 0-1
   8 O    1     3.1518     5.9560    5 O   -1 0 0

   9 O    1     1.0844     2.0492    7 C    0-1 0
   9 O    1     2.3035     4.3530    8 O    1-1 0
   9 O    1     3.0030     5.6748   11 O    1 0 0
   9 O    1     3.0734     5.8079    2 O    0 0 0
   9 O    2     3.0975     5.8535    4 C    0 0 0   10 C    0-1 0
   9 O    1     3.2037     6.0540    1 C    0 0 0

  10 C    1     1.0593     2.0017   11 O    0 1 0
  10 C    1     1.2702     2.4003   12 O    0 0 1
  10 C    1     3.0975     5.8535    9 O    0 1 0
  10 C    1     3.1169     5.8901    3 O    0 1 1
  10 C    1     3.1412     5.9360    8 O    0 0 1
  10 C    1     3.1503     5.9532    2 O    0 0 0

  11 O    1     1.0593     2.0017   10 C    0-1 0
  11 O    1     2.3206     4.3853   12 O    0-1 1
  11 O    1     3.0030     5.6748    9 O   -1 0 0
  11 O    1     3.0563     5.7756    3 O    0 0 1
  11 O    1     3.0682     5.7981    4 C   -1 0 0
  11 O    1     3.1296     5.9141    7 C   -1-1 0

  12 O    1     1.2702     2.4003   10 C    0 0-1
  12 O    1     2.3206     4.3853   11 O    0 1-1
  12 O    1     2.9211     5.5201    8 O    1 0 0
  12 O    1     2.9759     5.6237    5 O    0 0 0
  12 O    1     3.0365     5.7382    4 C    0 0-1
  12 O    1     3.0636     5.7893    7 C    0 0 0


 SYMMETRY ALLOWED INTERNAL DEGREE(S) OF FREEDOM:  33
 TTTTTTTTTTTTTTTTTTTTTTTTTTTTTT SYMM        TELAPSE        0.57 TCPU        0.14
 TTTTTTTTTTTTTTTTTTTTTTTTTTTTTT INT_SCREEN  TELAPSE        0.57 TCPU        0.14
 INFORMATION **** EXCBUF **** EXCH. BIPO BUFFER: WORDS USED =      771426

 DFT PARAMETERS

     ATOM       ELECTRONS   NET CHARGE   R(ANGSTROM)
   1   6  C       6.0000      0.0000     0.77000000
   2   8  O       8.0000      0.0000     0.74000000

 SIZE OF GRID=     422895
 TTTTTTTTTTTTTTTTTTTTTTTTTTTTTT MAKE_GRID2  TELAPSE        1.05 TCPU        0.62
 BECKE WEIGHT FUNCTION
 RADSAFE =     2.00
 TOLERANCES - DENSITY:10**- 6; POTENTIAL:10**- 9; GRID WGT:10**-14

 RADIAL INTEGRATION  - INTERVALS (POINTS,UPPER LIMIT):            1( 75,  4.0*R)

 ANGULAR INTEGRATION - INTERVALS (ACCURACY LEVEL [N. POINTS] UPPER LIMIT):
  1(  4[  86]   0.2)  2(  8[ 194]   0.5)  3( 12[ 350]   0.9)  4( 16[ 974]   3.5)
  5( 12[ 350]9999.0)
 TTTTTTTTTTTTTTTTTTTTTTTTTTTTTT INT_CALC    TELAPSE        1.09 TCPU        0.66
 EEEEEEEEEE INT_CALC TERMINATION  DATE 18 05 2022 TIME 13:50:01.9

 *******************************************************************************
 DRY-ICE                                                                         
 CRYSTAL - SCF - TYPE OF CALCULATION :  RESTRICTED CLOSED SHELL
 *******************************************************************************

 CAPPA:IS1  8;IS2  8;IS3  8; K PTS MONK NET 260; SYMMOPS:K SPACE   2;G SPACE   1

 TTTTTTTTTTTTTTTTTTTTTTTTTTTTTT SDIK        TELAPSE        1.47 TCPU        0.98

 AAAAAAAAAAAAAAAAAAAAAAAAAAAAAAAAAAAAAAAAAAAAAAAAAAAAAAAAAAAAAAAAAAAAAAAAAAAAAAA
         ATOMIC WAVEFUNCTION(S)


 NUCLEAR CHARGE  6.0  SYMMETRY SPECIES            S    P
 N. ELECTRONS    6.0  NUMBER OF PRIMITIVE GTOS   10    6
                      NUMBER OF CONTRACTED GTOS   4    3
                      NUMBER OF CLOSED SHELLS     2    0
                      OPEN SHELL OCCUPATION       0    2

  ZNUC SCFIT  TOTAL HF ENERGY   KINETIC ENERGY   VIRIAL THEOREM ACCURACY
   6.0  10   -3.766702350E+01  3.783137943E+01 -1.995655566E+00  1.6E-06

 NUCLEAR CHARGE  8.0  SYMMETRY SPECIES            S    P
 N. ELECTRONS    8.0  NUMBER OF PRIMITIVE GTOS   10    6
                      NUMBER OF CONTRACTED GTOS   4    3
                      NUMBER OF CLOSED SHELLS     2    0
                      OPEN SHELL OCCUPATION       0    4

  ZNUC SCFIT  TOTAL HF ENERGY   KINETIC ENERGY   VIRIAL THEOREM ACCURACY
   8.0  13   -7.479377997E+01  7.483473100E+01 -1.999452780E+00  5.0E-06

 AAAAAAAAAAAAAAAAAAAAAAAAAAAAAAAAAAAAAAAAAAAAAAAAAAAAAAAAAAAAAAAAAAAAAAAAAAAAAAA

 CHARGE NORMALIZATION FACTOR   1.00000000
 TOTAL ATOMIC CHARGES:
   6.0000000   8.0000000   8.0000000   6.0000000   8.0000000   8.0000000
   6.0000000   8.0000000   8.0000000   6.0000000   8.0000000   8.0000000
 TTTTTTTTTTTTTTTTTTTTTTTTTTTTTT MOQGAD      TELAPSE        1.55 TCPU        1.05
 TTTTTTTTTTTTTTTTTTTTTTTTTTTTTT SHELLX2     TELAPSE       21.30 TCPU       20.75
 TTTTTTTTTTTTTTTTTTTTTTTTTTTTTT MONMO3      TELAPSE       21.47 TCPU       20.92
 NUMERICALLY INTEGRATED DENSITY     87.9999738809
 TTTTTTTTTTTTTTTTTTTTTTTTTTTTTT NUMDFT      TELAPSE       22.60 TCPU       22.04
 CYC   0 ETOT(AU) -7.563331898756E+02 DETOT -7.56E+02 tst  0.00E+00 PX  1.00E+00
 TTTTTTTTTTTTTTTTTTTTTTTTTTTTTT FDIK        TELAPSE       28.21 TCPU       27.51
 INSULATING STATE
 TOP OF VALENCE BANDS -    BAND     44; K  227; EIG -3.7702460E-01 AU
 TOP OF VALENCE BANDS -    BAND     44; K    1; EIG -3.7754166E-01 AU
 BOTTOM OF VIRTUAL BANDS - BAND     45; K    1; EIG -6.3034522E-02 AU
 TTTTTTTTTTTTTTTTTTTTTTTTTTTTTT PDIG        TELAPSE       28.50 TCPU       27.81
 CHARGE NORMALIZATION FACTOR   1.00000000
 TOTAL ATOMIC CHARGES:
   4.5595682   8.7368490   8.7024782   4.6006729   8.9592380   8.4401758
   4.6252661   8.8128885   8.5644301   4.6142926   8.5106012   8.8735394
 TTTTTTTTTTTTTTTTTTTTTTTTTTTTTT MOQGAD      TELAPSE       28.51 TCPU       27.82
 TTTTTTTTTTTTTTTTTTTTTTTTTTTTTT SHELLX2     TELAPSE       49.44 TCPU       48.69
 TTTTTTTTTTTTTTTTTTTTTTTTTTTTTT MONMO3      TELAPSE       49.61 TCPU       48.86
 NUMERICALLY INTEGRATED DENSITY     87.9999796242
 TTTTTTTTTTTTTTTTTTTTTTTTTTTTTT NUMDFT      TELAPSE       53.01 TCPU       52.25
 CYC   1 ETOT(AU) -7.536701994177E+02 DETOT  2.66E+00 tst  0.00E+00 PX  1.00E+00
 TTTTTTTTTTTTTTTTTTTTTTTTTTTTTT FDIK        TELAPSE       55.43 TCPU       54.66
 INSULATING STATE
 TOP OF VALENCE BANDS -    BAND     44; K  227; EIG -2.4318625E-01 AU
 TOP OF VALENCE BANDS -    BAND     44; K    1; EIG -2.4397917E-01 AU
 BOTTOM OF VIRTUAL BANDS - BAND     45; K    1; EIG -2.6851458E-02 AU
 TTTTTTTTTTTTTTTTTTTTTTTTTTTTTT PDIG        TELAPSE       55.69 TCPU       54.92
 CHARGE NORMALIZATION FACTOR   1.00000000
 TOTAL ATOMIC CHARGES:
   5.0588401   8.4954860   8.4471709   5.0929437   8.6909297   8.2134879
   5.0848582   8.5745778   8.3439490   5.1008907   8.2843739   8.6124921
 TTTTTTTTTTTTTTTTTTTTTTTTTTTTTT MOQGAD      TELAPSE       55.69 TCPU       54.92
 TTTTTTTTTTTTTTTTTTTTTTTTTTTTTT SHELLX2     TELAPSE       76.62 TCPU       75.80
 TTTTTTTTTTTTTTTTTTTTTTTTTTTTTT MONMO3      TELAPSE       76.80 TCPU       75.97
 NUMERICALLY INTEGRATED DENSITY     87.9999769554
 TTTTTTTTTTTTTTTTTTTTTTTTTTTTTT NUMDFT      TELAPSE       80.19 TCPU       79.36
 CYC   2 ETOT(AU) -7.540384641119E+02 DETOT -3.68E-01 tst  1.23E-02 PX  1.29E-01
 TTTTTTTTTTTTTTTTTTTTTTTTTTTTTT FDIK        TELAPSE       82.43 TCPU       81.57
 INSULATING STATE
 TOP OF VALENCE BANDS -    BAND     44; K  227; EIG -3.0694635E-01 AU
 TOP OF VALENCE BANDS -    BAND     44; K    1; EIG -3.0742793E-01 AU
 BOTTOM OF VIRTUAL BANDS - BAND     45; K    1; EIG -2.3803498E-02 AU
 TTTTTTTTTTTTTTTTTTTTTTTTTTTTTT PDIG        TELAPSE       82.69 TCPU       81.83
 CHARGE NORMALIZATION FACTOR   1.00000000
 TOTAL ATOMIC CHARGES:
   5.0581408   8.4953313   8.4489707   5.1003342   8.6670834   8.2290992
   5.0803326   8.5674299   8.3553429   5.0980773   8.2990756   8.6007821
 TTTTTTTTTTTTTTTTTTTTTTTTTTTTTT MOQGAD      TELAPSE       82.70 TCPU       81.84
 TTTTTTTTTTTTTTTTTTTTTTTTTTTTTT SHELLX2     TELAPSE      103.64 TCPU      102.72
 TTTTTTTTTTTTTTTTTTTTTTTTTTTTTT MONMO3      TELAPSE      103.81 TCPU      102.89
 NUMERICALLY INTEGRATED DENSITY     87.9999768693
 TTTTTTTTTTTTTTTTTTTTTTTTTTTTTT NUMDFT      TELAPSE      107.20 TCPU      106.27
 CYC   3 ETOT(AU) -7.540520954290E+02 DETOT -1.36E-02 tst  1.42E-04 PX  3.30E-02
 TTTTTTTTTTTTTTTTTTTTTTTTTTTTTT FDIK        TELAPSE      110.79 TCPU      108.41
 INSULATING STATE
 TOP OF VALENCE BANDS -    BAND     44; K  227; EIG -3.2001465E-01 AU
 TOP OF VALENCE BANDS -    BAND     44; K    1; EIG -3.2044426E-01 AU
 BOTTOM OF VIRTUAL BANDS - BAND     45; K    1; EIG -2.1604629E-02 AU
 TTTTTTTTTTTTTTTTTTTTTTTTTTTTTT PDIG        TELAPSE      111.04 TCPU      108.67
 CHARGE NORMALIZATION FACTOR   1.00000000
 TOTAL ATOMIC CHARGES:
   5.0082715   8.5195245   8.4748001   5.0524749   8.6860478   8.2579156
   5.0313404   8.5896212   8.3819060   5.0483014   8.3269325   8.6228640
 TTTTTTTTTTTTTTTTTTTTTTTTTTTTTT MOQGAD      TELAPSE      111.05 TCPU      108.67
 TTTTTTTTTTTTTTTTTTTTTTTTTTTTTT SHELLX2     TELAPSE      131.97 TCPU      129.54
 TTTTTTTTTTTTTTTTTTTTTTTTTTTTTT MONMO3      TELAPSE      132.14 TCPU      129.71
 NUMERICALLY INTEGRATED DENSITY     87.9999770684
 TTTTTTTTTTTTTTTTTTTTTTTTTTTTTT NUMDFT      TELAPSE      135.54 TCPU      133.09
 CYC   4 ETOT(AU) -7.540567876616E+02 DETOT -4.69E-03 tst  4.98E-05 PX  2.43E-02
 TTTTTTTTTTTTTTTTTTTTTTTTTTTTTT FDIK        TELAPSE      137.69 TCPU      135.24
 INSULATING STATE
 TOP OF VALENCE BANDS -    BAND     44; K  227; EIG -3.1353339E-01 AU
 TOP OF VALENCE BANDS -    BAND     44; K    1; EIG -3.1399944E-01 AU
 BOTTOM OF VIRTUAL BANDS - BAND     45; K    1; EIG -1.9593303E-02 AU
 TTTTTTTTTTTTTTTTTTTTTTTTTTTTTT PDIG        TELAPSE      137.94 TCPU      135.49
 CHARGE NORMALIZATION FACTOR   1.00000000
 TOTAL ATOMIC CHARGES:
   5.0110773   8.5182531   8.4733725   5.0554728   8.6808922   8.2599362
   5.0321901   8.5874853   8.3831811   5.0508000   8.3282752   8.6190643
 TTTTTTTTTTTTTTTTTTTTTTTTTTTTTT MOQGAD      TELAPSE      137.95 TCPU      135.50
 TTTTTTTTTTTTTTTTTTTTTTTTTTTTTT SHELLX2     TELAPSE      158.88 TCPU      156.37
 TTTTTTTTTTTTTTTTTTTTTTTTTTTTTT MONMO3      TELAPSE      159.05 TCPU      156.54
 NUMERICALLY INTEGRATED DENSITY     87.9999770227
 TTTTTTTTTTTTTTTTTTTTTTTTTTTTTT NUMDFT      TELAPSE      162.44 TCPU      159.92
 CYC   5 ETOT(AU) -7.540570673756E+02 DETOT -2.80E-04 tst  1.06E-05 PX  5.79E-03
 TTTTTTTTTTTTTTTTTTTTTTTTTTTTTT FDIK        TELAPSE      164.77 TCPU      162.24
 INSULATING STATE
 TOP OF VALENCE BANDS -    BAND     44; K  227; EIG -3.1351592E-01 AU
 TOP OF VALENCE BANDS -    BAND     44; K    1; EIG -3.1397320E-01 AU
 BOTTOM OF VIRTUAL BANDS - BAND     45; K    1; EIG -1.9498557E-02 AU
 TTTTTTTTTTTTTTTTTTTTTTTTTTTTTT PDIG        TELAPSE      165.02 TCPU      162.50
 CHARGE NORMALIZATION FACTOR   1.00000000
 TOTAL ATOMIC CHARGES:
   5.0161019   8.5156794   8.4709613   5.0609731   8.6766213   8.2586255
   5.0366144   8.5846292   8.3816211   5.0557825   8.3267321   8.6156582
 TTTTTTTTTTTTTTTTTTTTTTTTTTTTTT MOQGAD      TELAPSE      165.03 TCPU      162.50
 TTTTTTTTTTTTTTTTTTTTTTTTTTTTTT SHELLX2     TELAPSE      185.96 TCPU      183.38
 TTTTTTTTTTTTTTTTTTTTTTTTTTTTTT MONMO3      TELAPSE      186.13 TCPU      183.55
 NUMERICALLY INTEGRATED DENSITY     87.9999769851
 TTTTTTTTTTTTTTTTTTTTTTTTTTTTTT NUMDFT      TELAPSE      189.54 TCPU      186.95
 CYC   6 ETOT(AU) -7.540571313168E+02 DETOT -6.39E-05 tst  5.09E-06 PX  1.52E-03
 TTTTTTTTTTTTTTTTTTTTTTTTTTTTTT FDIK        TELAPSE      191.57 TCPU      188.97
 INSULATING STATE
 TOP OF VALENCE BANDS -    BAND     44; K  227; EIG -3.1472921E-01 AU
 TOP OF VALENCE BANDS -    BAND     44; K    1; EIG -3.1517798E-01 AU
 BOTTOM OF VIRTUAL BANDS - BAND     45; K    1; EIG -1.9703158E-02 AU
 TTTTTTTTTTTTTTTTTTTTTTTTTTTTTT PDIG        TELAPSE      191.82 TCPU      189.22
 CHARGE NORMALIZATION FACTOR   1.00000000
 TOTAL ATOMIC CHARGES:
   5.0157140   8.5157715   8.4712579   5.0607948   8.6764494   8.2589550
   5.0362919   8.5846737   8.3818927   5.0554014   8.3270115   8.6157861
 TTTTTTTTTTTTTTTTTTTTTTTTTTTTTT MOQGAD      TELAPSE      191.83 TCPU      189.23
 TTTTTTTTTTTTTTTTTTTTTTTTTTTTTT SHELLX2     TELAPSE      212.75 TCPU      210.09
 TTTTTTTTTTTTTTTTTTTTTTTTTTTTTT MONMO3      TELAPSE      212.92 TCPU      210.26
 NUMERICALLY INTEGRATED DENSITY     87.9999769827
 TTTTTTTTTTTTTTTTTTTTTTTTTTTTTT NUMDFT      TELAPSE      216.30 TCPU      213.64
 CYC   7 ETOT(AU) -7.540571527576E+02 DETOT -2.14E-05 tst  1.17E-06 PX  1.36E-03
 TTTTTTTTTTTTTTTTTTTTTTTTTTTTTT FDIK        TELAPSE      218.27 TCPU      215.59
 INSULATING STATE
 TOP OF VALENCE BANDS -    BAND     44; K  227; EIG -3.1487714E-01 AU
 TOP OF VALENCE BANDS -    BAND     44; K    1; EIG -3.1532671E-01 AU
 BOTTOM OF VIRTUAL BANDS - BAND     45; K    1; EIG -1.9745621E-02 AU
 TTTTTTTTTTTTTTTTTTTTTTTTTTTTTT PDIG        TELAPSE      218.52 TCPU      215.85
 CHARGE NORMALIZATION FACTOR   1.00000000
 TOTAL ATOMIC CHARGES:
   5.0152877   8.5159452   8.4715085   5.0604121   8.6764181   8.2593614
   5.0358158   8.5848009   8.3822385   5.0549494   8.3273720   8.6158904
 TTTTTTTTTTTTTTTTTTTTTTTTTTTTTT MOQGAD      TELAPSE      218.53 TCPU      215.85
 TTTTTTTTTTTTTTTTTTTTTTTTTTTTTT SHELLX2     TELAPSE      239.46 TCPU      236.72
 TTTTTTTTTTTTTTTTTTTTTTTTTTTTTT MONMO3      TELAPSE      239.63 TCPU      236.89
 NUMERICALLY INTEGRATED DENSITY     87.9999769816
 TTTTTTTTTTTTTTTTTTTTTTTTTTTTTT NUMDFT      TELAPSE      243.04 TCPU      240.29
 CYC   8 ETOT(AU) -7.540571587992E+02 DETOT -6.04E-06 tst  5.57E-07 PX  8.37E-04
 TTTTTTTTTTTTTTTTTTTTTTTTTTTTTT FDIK        TELAPSE      244.94 TCPU      242.19
 INSULATING STATE
 TOP OF VALENCE BANDS -    BAND     44; K  227; EIG -3.1486186E-01 AU
 TOP OF VALENCE BANDS -    BAND     44; K    1; EIG -3.1531200E-01 AU
 BOTTOM OF VIRTUAL BANDS - BAND     45; K    1; EIG -1.9754849E-02 AU
 TTTTTTTTTTTTTTTTTTTTTTTTTTTTTT PDIG        TELAPSE      245.20 TCPU      242.44
 CHARGE NORMALIZATION FACTOR   1.00000000
 TOTAL ATOMIC CHARGES:
   5.0153646   8.5158812   8.4714945   5.0605176   8.6761895   8.2594796
   5.0358252   8.5847186   8.3823113   5.0550009   8.3274538   8.6157631
 TTTTTTTTTTTTTTTTTTTTTTTTTTTTTT MOQGAD      TELAPSE      245.20 TCPU      242.45
 TTTTTTTTTTTTTTTTTTTTTTTTTTTTTT SHELLX2     TELAPSE      266.14 TCPU      263.33
 TTTTTTTTTTTTTTTTTTTTTTTTTTTTTT MONMO3      TELAPSE      266.31 TCPU      263.50
 NUMERICALLY INTEGRATED DENSITY     87.9999769790
 TTTTTTTTTTTTTTTTTTTTTTTTTTTTTT NUMDFT      TELAPSE      269.72 TCPU      266.90
 CYC   9 ETOT(AU) -7.540571602862E+02 DETOT -1.49E-06 tst  3.04E-07 PX  4.39E-04
 TTTTTTTTTTTTTTTTTTTTTTTTTTTTTT FDIK        TELAPSE      271.59 TCPU      268.76
 INSULATING STATE
 TOP OF VALENCE BANDS -    BAND     44; K  227; EIG -3.1491751E-01 AU
 TOP OF VALENCE BANDS -    BAND     44; K    1; EIG -3.1536738E-01 AU
 BOTTOM OF VIRTUAL BANDS - BAND     45; K    1; EIG -1.9769855E-02 AU
 TTTTTTTTTTTTTTTTTTTTTTTTTTTTTT PDIG        TELAPSE      271.85 TCPU      269.01
 CHARGE NORMALIZATION FACTOR   1.00000000
 TOTAL ATOMIC CHARGES:
   5.0153975   8.5158478   8.4714927   5.0605550   8.6760836   8.2595473
   5.0358299   8.5846797   8.3823450   5.0550141   8.3274934   8.6157140
 TTTTTTTTTTTTTTTTTTTTTTTTTTTTTT MOQGAD      TELAPSE      271.85 TCPU      269.02
 TTTTTTTTTTTTTTTTTTTTTTTTTTTTTT SHELLX2     TELAPSE      292.78 TCPU      289.89
 TTTTTTTTTTTTTTTTTTTTTTTTTTTTTT MONMO3      TELAPSE      292.95 TCPU      290.06
 NUMERICALLY INTEGRATED DENSITY     87.9999769774
 TTTTTTTTTTTTTTTTTTTTTTTTTTTTTT NUMDFT      TELAPSE      296.34 TCPU      293.44
 CYC  10 ETOT(AU) -7.540571608540E+02 DETOT -5.68E-07 tst  1.36E-07 PX  2.92E-04
 TTTTTTTTTTTTTTTTTTTTTTTTTTTTTT FDIK        TELAPSE      300.26 TCPU      295.34
 INSULATING STATE
 TOP OF VALENCE BANDS -    BAND     44; K  227; EIG -3.1495366E-01 AU
 TOP OF VALENCE BANDS -    BAND     44; K    1; EIG -3.1540353E-01 AU
 BOTTOM OF VIRTUAL BANDS - BAND     45; K    1; EIG -1.9780401E-02 AU
 TTTTTTTTTTTTTTTTTTTTTTTTTTTTTT PDIG        TELAPSE      300.51 TCPU      295.60
 CHARGE NORMALIZATION FACTOR   1.00000000
 TOTAL ATOMIC CHARGES:
   5.0153787   8.5158456   8.4715113   5.0605353   8.6760445   8.2596067
   5.0358050   8.5846741   8.3823750   5.0549843   8.3275330   8.6157064
 TTTTTTTTTTTTTTTTTTTTTTTTTTTTTT MOQGAD      TELAPSE      300.52 TCPU      295.60
 TTTTTTTTTTTTTTTTTTTTTTTTTTTTTT SHELLX2     TELAPSE      321.44 TCPU      316.46
 +++ ENERGIES IN A.U. +++
 ::: EXT EL-POLE                                  -7.9806610024711E+02
 ::: EXT EL-SPHEROPOLE                             9.8448463423719E+00
 ::: BIELET ZONE E-E                               1.0084139551768E+03
 ::: TOTAL E-E                                     2.2019270127203E+02
 ::: TOTAL E-N + N-E                              -1.5096015116610E+03
 ::: TOTAL N-N                                    -1.4375193351166E+02
 ::: KINETIC ENERGY                                7.5182775994592E+02
 ::: PSEUDO TOTAL   ENERGY                        -6.8133298395470E+02
 ::: VIRIAL COEFFICIENT                            1.0491883246811E+00
 TTTTTTTTTTTTTTTTTTTTTTTTTTTTTT MONMO3      TELAPSE      321.61 TCPU      316.63
 NUMERICALLY INTEGRATED DENSITY     87.9999769766
 TTTTTTTTTTTTTTTTTTTTTTTTTTTTTT NUMDFT      TELAPSE      325.00 TCPU      320.02
 CYC  11 ETOT(AU) -7.540571611008E+02 DETOT -2.47E-07 tst  6.15E-08 PX  2.92E-04

 == SCF ENDED - CONVERGENCE ON ENERGY      E(AU) -7.5405716110075E+02 CYCLES  11


 ENERGY EXPRESSION=HARTREE+FOCK EXCH*0.20000+(BECKE      EXCH)*0.80000+LYP        CORR


 TOTAL ENERGY(DFT)(AU)( 11) -7.5405716110075E+02 DE-2.5E-07 tester 6.2E-08
 TTTTTTTTTTTTTTTTTTTTTTTTTTTTTT EDFT        TELAPSE      325.00 TCPU      320.02
 EIGENVECTORS IN FORTRAN UNIT 10
 TTTTTTTTTTTTTTTTTTTTTTTTTTTTTT END         TELAPSE      325.29 TCPU      320.27
 EEEEEEEEEE TERMINATION  DATE 18 05 2022 TIME 13:55:26.1
NODE    0 CPU TIME =       320.272
NODE    1 CPU TIME =       320.369
NODE    2 CPU TIME =       320.168
NODE    3 CPU TIME =       320.250
NODE    4 CPU TIME =       320.228
NODE    5 CPU TIME =       319.887
NODE    6 CPU TIME =       320.288
NODE    7 CPU TIME =       320.393
NODE    8 CPU TIME =       320.295
NODE    9 CPU TIME =       320.227
    TOTAL CPU TIME =      3202.377
