          10 PROCESSORS WORKING

         
 *******************************************************************************
 *                                                                             *
 *                               CRYSTAL14                                     *
 *                      public : 1.0.4 - Feb 23rd, 2016                        *
 *                       HTTP://WWW.CRYSTAL.UNITO.IT                           *
 *                                                                             *
 *                              MAIN AUTHORS                                   *
 *                                                                             *
 *  R. DOVESI(1,11), V.R. SAUNDERS(2), C. ROETTI(1,11), R. ORLANDO(1,11),      *
 *  C.M. ZICOVICH-WILSON(1,3), F. PASCALE(4), B. CIVALLERI(1,11),              *
 *  K. DOLL(5), N.M. HARRISON(2,6), I. J. BUSH(7), Ph. D'ARCO(8),              *
 *  M. LLUNELL(9), M. CAUSA'(10), Y. NOEL(8)                                   *
 *                                                                             *
 *        CONTRIBUTIONS TO THE CURRENT RELEASE HAVE BEEN GIVEN BY              *
 *                                                                             *
 *  L. MASCHIO(1,11), S. CASASSA(1,11), A. ERBA(1,11), M. FERRABONE(1,11),     *
 *  M. DE LA PIERRE(1,11), M. FERRERO(1,11), V. LACIVITA(1,11),                *
 *  J. BAIMA(1,11), E. ALBANESE(1,11), M.F. PEINTINGER(12), R. BAST(13),       *
 *  M. RERAT(14), B. KIRTMAN(15), R. DEMICHELIS(1,16)                          *
 *                                                                             *
 * (1) THEORETICAL CHEMISTRY GROUP - UNIVERSITA' DI TORINO - TORINO (ITALY)    *
 *     http://www.crystal.unito.it                                             *
 * (2) COMPUTATIONAL SCIENCE & ENGINEERING DEPARTMENT - STFC DARESBURY (UK)    *
 *     http://www.stfc.ac.uk/CSE/randd/cmg/CRYSTAL/25806.aspx                  *
 * (3) UNIVERSIDAD AUTONOMA DEL ESTADO DE MORELOS - CUERNAVACA (MEXICO)        *
 * (4) UNIVERSITE' DE LORRAINE - NANCY (FRANCE)                                *
 * (5) UNIVERSITAET ULM - ULM (GERMANY); (6) IMPERIAL COLLEGE - LONDON (UK)    *
 * (7) NAG - OXFORD (UK); (8) UPMC - SORBONNE UNIVERSITES - PARIS (FRANCE)     *
 * (9) UNIVERSIDAD DE BARCELONA - BARCELONA (SPAIN)                            *
 *(10) UNIVERSITA' DI NAPOLI "FEDERICO II" - NAPOLI (ITALY)                    *
 *(11) NIS - NANOSTRUCTURED INTERFACES AND SURFACES - TORINO (ITALY)           *
 *(12) MPI FUER CHEMISCHE ENERGIEKONVERSION - MUELHEIM AN DER RUHR (GERMANY)   *
 *(13) UNIVERSITY OF STOCKHOLM - STOCKHOLM (SWEDEN)                            *
 *(14) UNIVERSITE' DE PAU ET DES PAYS DE L'ADOUR - PAU (FRANCE)                *
 *(15) UNIVERSITY OF CALIFORNIA SANTA BARBARA - SANTA BARBARA (USA)            *
 *(16) CURTIN UNIVERSITY - PERTH (AUSTRALIA)                                   *
 *                                                                             *
 ********************************************************************************
 EEEEEEEEEE STARTING  DATE 18 05 2022 TIME 13:11:57.0
 DRY-ICE                                                                         

 CRYSTAL CALCULATION
 (INPUT ACCORDING TO THE INTERNATIONAL TABLES FOR X-RAY CRYSTALLOGRAPHY)
 CRYSTAL FAMILY                       :  TRICLINIC   
 CRYSTAL CLASS  (GROTH - 1921)        :  TRICLINIC PEDIAL                     

 SPACE GROUP (NONCENTROSYMMETRIC)     :  P 1             

 LATTICE PARAMETERS  (ANGSTROMS AND DEGREES) - CONVENTIONAL CELL
        A           B           C        ALPHA        BETA       GAMMA
     5.63000     5.63000     5.63000    90.00000    90.00000    90.00000


 NUMBER OF IRREDUCIBLE ATOMS IN THE CONVENTIONAL CELL:   12

 INPUT COORDINATES

 ATOM AT. N.              COORDINATES
   1   6     0.000000000000E+00  0.000000000000E+00  0.000000000000E+00
   2   8     1.100000000000E-01  1.100000000000E-01  1.400000000000E-01
   3   8    -1.000000000000E-01 -1.400000000000E-01 -1.200000000000E-01
   4   6     5.000000000000E-01  2.000000000000E-02  4.900000000000E-01
   5   8     3.500000000000E-01 -1.100000000000E-01 -3.700000000000E-01
   6   8    -3.700000000000E-01  1.300000000000E-01  4.100000000000E-01
   7   6     4.800000000000E-01  5.000000000000E-01  1.000000000000E-02
   8   8    -4.100000000000E-01  3.600000000000E-01 -1.500000000000E-01
   9   8     3.500000000000E-01 -3.900000000000E-01  1.300000000000E-01
  10   6    -2.000000000000E-02  5.000000000000E-01  4.900000000000E-01
  11   8    -1.300000000000E-01 -4.100000000000E-01  3.900000000000E-01
  12   8     8.000000000000E-02  3.800000000000E-01 -3.600000000000E-01

 *******************************************************************************

 << INFORMATION >>: FROM NOW ON, ALL COORDINATES REFER TO THE PRIMITIVE CELL

 *******************************************************************************

 LATTICE PARAMETERS  (ANGSTROMS AND DEGREES) - PRIMITIVE CELL
       A          B          C        ALPHA      BETA     GAMMA        VOLUME
    5.63000    5.63000    5.63000    90.00000  90.00000  90.00000    178.453547

 COORDINATES OF THE EQUIVALENT ATOMS (FRACTIONAL UNITS)

 N. ATOM EQUIV AT. N.          X                  Y                  Z

   1   1   1    6 C     0.00000000000E+00  0.00000000000E+00  0.00000000000E+00

   2   2   1    8 O     1.10000000000E-01  1.10000000000E-01  1.40000000000E-01

   3   3   1    8 O    -1.00000000000E-01 -1.40000000000E-01 -1.20000000000E-01

   4   4   1    6 C    -5.00000000000E-01  2.00000000000E-02  4.90000000000E-01

   5   5   1    8 O     3.50000000000E-01 -1.10000000000E-01 -3.70000000000E-01

   6   6   1    8 O    -3.70000000000E-01  1.30000000000E-01  4.10000000000E-01

   7   7   1    6 C     4.80000000000E-01 -5.00000000000E-01  1.00000000000E-02

   8   8   1    8 O    -4.10000000000E-01  3.60000000000E-01 -1.50000000000E-01

   9   9   1    8 O     3.50000000000E-01 -3.90000000000E-01  1.30000000000E-01

  10  10   1    6 C    -2.00000000000E-02 -5.00000000000E-01  4.90000000000E-01

  11  11   1    8 O    -1.30000000000E-01 -4.10000000000E-01  3.90000000000E-01

  12  12   1    8 O     8.00000000000E-02  3.80000000000E-01 -3.60000000000E-01

 NUMBER OF SYMMETRY OPERATORS         :    1
 *******************************************************************************
 * GEOMETRY EDITING - INPUT COORDINATES ARE GIVEN IN ANGSTROM         
 *******************************************************************************

 GCALCO - MAX INDICES DIRECT LATTICE VECTOR    14    14    14
 NO.OF VECTORS CREATED 6999 STARS  120 RMAX   126.33300 BOHR

 GEOMETRY FOR WAVE FUNCTION - DIMENSIONALITY OF THE SYSTEM    3
 (NON PERIODIC DIRECTION: LATTICE PARAMETER FORMALLY SET TO 500)
 *******************************************************************************
 LATTICE PARAMETERS (ANGSTROMS AND DEGREES) - BOHR = 0.5291772083 ANGSTROM
 PRIMITIVE CELL - CENTRING CODE 1/0 VOLUME=   178.453547 - DENSITY  1.637 g/cm^3
         A              B              C           ALPHA      BETA       GAMMA 
     5.63000000     5.63000000     5.63000000    90.000000  90.000000  90.000000
 *******************************************************************************
 ATOMS IN THE ASYMMETRIC UNIT   12 - ATOMS IN THE UNIT CELL:   12
     ATOM              X/A                 Y/B                 Z/C    
 *******************************************************************************
   1 T   6 C     0.000000000000E+00  0.000000000000E+00  0.000000000000E+00
   2 T   8 O     1.100000000000E-01  1.100000000000E-01  1.400000000000E-01
   3 T   8 O    -1.000000000000E-01 -1.400000000000E-01 -1.200000000000E-01
   4 T   6 C     5.000000000000E-01  2.000000000000E-02  4.900000000000E-01
   5 T   8 O     3.500000000000E-01 -1.100000000000E-01 -3.700000000000E-01
   6 T   8 O    -3.700000000000E-01  1.300000000000E-01  4.100000000000E-01
   7 T   6 C     4.800000000000E-01  5.000000000000E-01  1.000000000000E-02
   8 T   8 O    -4.100000000000E-01  3.600000000000E-01 -1.500000000000E-01
   9 T   8 O     3.500000000000E-01 -3.900000000000E-01  1.300000000000E-01
  10 T   6 C    -2.000000000000E-02  5.000000000000E-01  4.900000000000E-01
  11 T   8 O    -1.300000000000E-01 -4.100000000000E-01  3.900000000000E-01
  12 T   8 O     8.000000000000E-02  3.800000000000E-01 -3.600000000000E-01

 T = ATOM BELONGING TO THE ASYMMETRIC UNIT

 ****    1 SYMMOPS - TRANSLATORS IN FRACTIONAL UNITS
 **** MATRICES AND TRANSLATORS IN THE CRYSTALLOGRAPHIC REFERENCE FRAME
   V INV                    ROTATION MATRICES                   TRANSLATORS
   1   1  1.00  0.00  0.00  0.00  1.00  0.00  0.00  0.00  1.00  0.00  0.00  0.00

 DIRECT LATTICE VECTORS CARTESIAN COMPONENTS (ANGSTROM)
          X                    Y                    Z
   0.563000000000E+01   0.344738073960E-15   0.000000000000E+00
   0.000000000000E+00   0.563000000000E+01   0.000000000000E+00
   0.344738073960E-15   0.344738073960E-15   0.563000000000E+01


 CARTESIAN COORDINATES - PRIMITIVE CELL
 *******************************************************************************
 *      ATOM          X(ANGSTROM)         Y(ANGSTROM)         Z(ANGSTROM)
 *******************************************************************************
    1     6 C     0.000000000000E+00  0.000000000000E+00  0.000000000000E+00
    2     8 O     6.193000000000E-01  6.193000000000E-01  7.882000000000E-01
    3     8 O    -5.630000000000E-01 -7.882000000000E-01 -6.756000000000E-01
    4     6 C     2.815000000000E+00  1.126000000000E-01  2.758700000000E+00
    5     8 O     1.970500000000E+00 -6.193000000000E-01 -2.083100000000E+00
    6     8 O    -2.083100000000E+00  7.319000000000E-01  2.308300000000E+00
    7     6 C     2.702400000000E+00  2.815000000000E+00  5.630000000000E-02
    8     8 O    -2.308300000000E+00  2.026800000000E+00 -8.445000000000E-01
    9     8 O     1.970500000000E+00 -2.195700000000E+00  7.319000000000E-01
   10     6 C    -1.126000000000E-01  2.815000000000E+00  2.758700000000E+00
   11     8 O    -7.319000000000E-01 -2.308300000000E+00  2.195700000000E+00
   12     8 O     4.504000000000E-01  2.139400000000E+00 -2.026800000000E+00

 *******************************************************************************
 STARTING BASIS SET HANDLING 
 *******************************************************************************

 Loading internal basis set: POB-TZVP            

 Please cite in your publication:
 Peintinger, M. F., Oliveira, D. V. and Bredow, T. (2013), Consistent Gaussian b
 asis sets of triple-zeta valence with polarization quality for solid-state calc
 ulations. J. Comput. Chem., 34: 451–459. doi: 10.1002/jcc.23153              
                    

 *******************************************************************************
 LOCAL ATOMIC FUNCTIONS BASIS SET
 *******************************************************************************
   ATOM   X(AU)   Y(AU)   Z(AU)  N. TYPE  EXPONENT  S COEF   P COEF   D/F/G COEF
 *******************************************************************************
   1 C    0.000   0.000   0.000
                                  1 S  
                                         1.358E+04 2.225E-04 0.000E+00 0.000E+00
                                         2.035E+03 1.723E-03 0.000E+00 0.000E+00
                                         4.632E+02 8.926E-03 0.000E+00 0.000E+00
                                         1.312E+02 3.573E-02 0.000E+00 0.000E+00
                                         4.285E+01 1.108E-01 0.000E+00 0.000E+00
                                         1.558E+01 2.430E-01 0.000E+00 0.000E+00
                                  2 S  
                                         6.207E+00 4.144E-01 0.000E+00 0.000E+00
                                         2.576E+00 2.374E-01 0.000E+00 0.000E+00
                                  3 S  
                                         4.941E-01 1.000E+00 0.000E+00 0.000E+00
                                  4 S  
                                         1.644E-01 1.000E+00 0.000E+00 0.000E+00
                             5-   7 P  
                                         3.470E+01 0.000E+00 5.333E-03 0.000E+00
                                         7.958E+00 0.000E+00 3.586E-02 0.000E+00
                                         2.378E+00 0.000E+00 1.422E-01 0.000E+00
                                         8.143E-01 0.000E+00 3.427E-01 0.000E+00
                             8-  10 P  
                                         5.662E-01 0.000E+00 1.000E+00 0.000E+00
                            11-  13 P  
                                         2.674E-01 0.000E+00 1.000E+00 0.000E+00
                            14-  18 D  
                                         8.792E-01 0.000E+00 0.000E+00 1.000E+00
   2 O    1.170   1.170   1.489
                                 19 S  
                                         2.703E+04 2.173E-04 0.000E+00 0.000E+00
                                         4.052E+03 1.684E-03 0.000E+00 0.000E+00
                                         9.223E+02 8.740E-03 0.000E+00 0.000E+00
                                         2.612E+02 3.524E-02 0.000E+00 0.000E+00
                                         8.535E+01 1.115E-01 0.000E+00 0.000E+00
                                         3.104E+01 2.559E-01 0.000E+00 0.000E+00
                                 20 S  
                                         1.226E+01 3.977E-01 0.000E+00 0.000E+00
                                         4.999E+00 2.463E-01 0.000E+00 0.000E+00
                                 21 S  
                                         8.479E-01 1.000E+00 0.000E+00 0.000E+00
                                 22 S  
                                         1.851E-01 1.000E+00 0.000E+00 0.000E+00
                            23-  25 P  
                                         6.327E+01 0.000E+00 6.069E-03 0.000E+00
                                         1.463E+01 0.000E+00 4.191E-02 0.000E+00
                                         4.450E+00 0.000E+00 1.615E-01 0.000E+00
                                         1.528E+00 0.000E+00 3.571E-01 0.000E+00
                            26-  28 P  
                                         5.490E-01 0.000E+00 1.000E+00 0.000E+00
                            29-  31 P  
                                         1.824E-01 0.000E+00 1.000E+00 0.000E+00
                            32-  36 D  
                                         5.000E-01 0.000E+00 0.000E+00 1.000E+00
   3 O   -1.064  -1.489  -1.277
   4 C    5.320   0.213   5.213
   5 O    3.724  -1.170  -3.936
   6 O   -3.936   1.383   4.362
   7 C    5.107   5.320   0.106
   8 O   -4.362   3.830  -1.596
   9 O    3.724  -4.149   1.383
  10 C   -0.213   5.320   5.213
  11 O   -1.383  -4.362   4.149
  12 O    0.851   4.043  -3.830

 *******************************************************************************
 FINISHED BASIS SET HANDLING 
 *******************************************************************************

 INFORMATION **** SET_MPP **** PCRYSTAL CALCULATION
 INFORMATION **** READM2 **** NEW DEFAULT: FOCK/KS MATRIX MIXING SET TO 30 %
 INFORMATION **** READM2 **** NEW DEFAULT: FULL DIRECT SCF MODE
 INFORMATION **** READM2 **** NEW DEFAULT: COULOMB BIPOLAR BUFFER SET TO 32 Mb
 INFORMATION **** READM2 **** NEW DEFAULT: EXCHANGE BIPOLAR BUFFER SET TO 32 Mb

 *******************************************************************************
 NEW DEFAULT: DFT INTEGRATION GRID INCREASED TO XLGRID
 NEW DEFAULT: LEVEL SHIFTER 6 0
 IF THE SYSTEM IS A METAL USE KEYWORD NOSHIFT
 *******************************************************************************

 *******************************************************************************
 N. OF ATOMS PER CELL        12  COULOMB OVERLAP TOL         (T1) 10**   -6
 NUMBER OF SHELLS            96  COULOMB PENETRATION TOL     (T2) 10**   -6
 NUMBER OF AO               216  EXCHANGE OVERLAP TOL        (T3) 10**   -6
 N. OF ELECTRONS PER CELL    88  EXCHANGE PSEUDO OVP (F(G))  (T4) 10**   -6
 CORE ELECTRONS PER CELL     24  EXCHANGE PSEUDO OVP (P(G))  (T5) 10**  -12
 N. OF SYMMETRY OPERATORS     1  POLE ORDER IN MONO ZONE                  4
 *******************************************************************************
 TYPE OF CALCULATION :  RESTRICTED CLOSED SHELL
 KOHN-SHAM HAMILTONIAN

 (EXCHANGE)[CORRELATION] FUNCTIONAL:(BECKE 88)[LEE-YANG-PARR]

 NON-LOCAL WEIGHTING FACTOR (EXCHANGE) =           0.9000
 NON-LOCAL WEIGHTING FACTOR [CORRELATION] =        0.8100

 HYBRID EXCHANGE - PERCENTAGE OF FOCK EXCHANGE    20.0000
 EIGENVALUE LEVEL SHIFTING OF  0.600 HARTREE

 CAPPA:IS1  8;IS2  8;IS3  8; K PTS MONK NET 260; SYMMOPS:K SPACE   2;G SPACE   1

 *******************************************************************************
 MAX NUMBER OF SCF CYCLES      50  CONVERGENCE ON DELTAP        10**-16
 WEIGHT OF F(I) IN F(I+1)      30% CONVERGENCE ON ENERGY        10**- 6
 EIGENVALUE LEVEL SHIFTING OF  0.600 HARTREE
 SHRINK. FACT.(MONKH.)    8  8  8  NUMBER OF K POINTS IN THE IBZ    260
 SHRINKING FACTOR(GILAT NET)    8  NUMBER OF K POINTS(GILAT NET)    260
 *******************************************************************************
 *** K POINTS COORDINATES (OBLIQUE COORDINATES IN UNITS OF IS =  8)
   1-R(  0  0  0)   2-C(  1  0  0)   3-C(  2  0  0)   4-C(  3  0  0)
   5-R(  4  0  0)   6-C(  0  1  0)   7-C(  1  1  0)   8-C(  2  1  0)
   9-C(  3  1  0)  10-C(  4  1  0)  11-C(  5  1  0)  12-C(  6  1  0)
  13-C(  7  1  0)  14-C(  0  2  0)  15-C(  1  2  0)  16-C(  2  2  0)
  17-C(  3  2  0)  18-C(  4  2  0)  19-C(  5  2  0)  20-C(  6  2  0)
  21-C(  7  2  0)  22-C(  0  3  0)  23-C(  1  3  0)  24-C(  2  3  0)
  25-C(  3  3  0)  26-C(  4  3  0)  27-C(  5  3  0)  28-C(  6  3  0)
  29-C(  7  3  0)  30-R(  0  4  0)  31-C(  1  4  0)  32-C(  2  4  0)
  33-C(  3  4  0)  34-R(  4  4  0)  35-C(  0  0  1)  36-C(  1  0  1)
  37-C(  2  0  1)  38-C(  3  0  1)  39-C(  4  0  1)  40-C(  5  0  1)
  41-C(  6  0  1)  42-C(  7  0  1)  43-C(  0  1  1)  44-C(  1  1  1)
  45-C(  2  1  1)  46-C(  3  1  1)  47-C(  4  1  1)  48-C(  5  1  1)
  49-C(  6  1  1)  50-C(  7  1  1)  51-C(  0  2  1)  52-C(  1  2  1)
  53-C(  2  2  1)  54-C(  3  2  1)  55-C(  4  2  1)  56-C(  5  2  1)
  57-C(  6  2  1)  58-C(  7  2  1)  59-C(  0  3  1)  60-C(  1  3  1)
  61-C(  2  3  1)  62-C(  3  3  1)  63-C(  4  3  1)  64-C(  5  3  1)
  65-C(  6  3  1)  66-C(  7  3  1)  67-C(  0  4  1)  68-C(  1  4  1)
  69-C(  2  4  1)  70-C(  3  4  1)  71-C(  4  4  1)  72-C(  5  4  1)
  73-C(  6  4  1)  74-C(  7  4  1)  75-C(  0  5  1)  76-C(  1  5  1)
  77-C(  2  5  1)  78-C(  3  5  1)  79-C(  4  5  1)  80-C(  5  5  1)
  81-C(  6  5  1)  82-C(  7  5  1)  83-C(  0  6  1)  84-C(  1  6  1)
  85-C(  2  6  1)  86-C(  3  6  1)  87-C(  4  6  1)  88-C(  5  6  1)
  89-C(  6  6  1)  90-C(  7  6  1)  91-C(  0  7  1)  92-C(  1  7  1)
  93-C(  2  7  1)  94-C(  3  7  1)  95-C(  4  7  1)  96-C(  5  7  1)
  97-C(  6  7  1)  98-C(  7  7  1)  99-C(  0  0  2) 100-C(  1  0  2)
 101-C(  2  0  2) 102-C(  3  0  2) 103-C(  4  0  2) 104-C(  5  0  2)
 105-C(  6  0  2) 106-C(  7  0  2) 107-C(  0  1  2) 108-C(  1  1  2)
 109-C(  2  1  2) 110-C(  3  1  2) 111-C(  4  1  2) 112-C(  5  1  2)
 113-C(  6  1  2) 114-C(  7  1  2) 115-C(  0  2  2) 116-C(  1  2  2)
 117-C(  2  2  2) 118-C(  3  2  2) 119-C(  4  2  2) 120-C(  5  2  2)
 121-C(  6  2  2) 122-C(  7  2  2) 123-C(  0  3  2) 124-C(  1  3  2)
 125-C(  2  3  2) 126-C(  3  3  2) 127-C(  4  3  2) 128-C(  5  3  2)
 129-C(  6  3  2) 130-C(  7  3  2) 131-C(  0  4  2) 132-C(  1  4  2)
 133-C(  2  4  2) 134-C(  3  4  2) 135-C(  4  4  2) 136-C(  5  4  2)
 137-C(  6  4  2) 138-C(  7  4  2) 139-C(  0  5  2) 140-C(  1  5  2)
 141-C(  2  5  2) 142-C(  3  5  2) 143-C(  4  5  2) 144-C(  5  5  2)
 145-C(  6  5  2) 146-C(  7  5  2) 147-C(  0  6  2) 148-C(  1  6  2)
 149-C(  2  6  2) 150-C(  3  6  2) 151-C(  4  6  2) 152-C(  5  6  2)
 153-C(  6  6  2) 154-C(  7  6  2) 155-C(  0  7  2) 156-C(  1  7  2)
 157-C(  2  7  2) 158-C(  3  7  2) 159-C(  4  7  2) 160-C(  5  7  2)
 161-C(  6  7  2) 162-C(  7  7  2) 163-C(  0  0  3) 164-C(  1  0  3)
 165-C(  2  0  3) 166-C(  3  0  3) 167-C(  4  0  3) 168-C(  5  0  3)
 169-C(  6  0  3) 170-C(  7  0  3) 171-C(  0  1  3) 172-C(  1  1  3)
 173-C(  2  1  3) 174-C(  3  1  3) 175-C(  4  1  3) 176-C(  5  1  3)
 177-C(  6  1  3) 178-C(  7  1  3) 179-C(  0  2  3) 180-C(  1  2  3)
 181-C(  2  2  3) 182-C(  3  2  3) 183-C(  4  2  3) 184-C(  5  2  3)
 185-C(  6  2  3) 186-C(  7  2  3) 187-C(  0  3  3) 188-C(  1  3  3)
 189-C(  2  3  3) 190-C(  3  3  3) 191-C(  4  3  3) 192-C(  5  3  3)
 193-C(  6  3  3) 194-C(  7  3  3) 195-C(  0  4  3) 196-C(  1  4  3)
 197-C(  2  4  3) 198-C(  3  4  3) 199-C(  4  4  3) 200-C(  5  4  3)
 201-C(  6  4  3) 202-C(  7  4  3) 203-C(  0  5  3) 204-C(  1  5  3)
 205-C(  2  5  3) 206-C(  3  5  3) 207-C(  4  5  3) 208-C(  5  5  3)
 209-C(  6  5  3) 210-C(  7  5  3) 211-C(  0  6  3) 212-C(  1  6  3)
 213-C(  2  6  3) 214-C(  3  6  3) 215-C(  4  6  3) 216-C(  5  6  3)
 217-C(  6  6  3) 218-C(  7  6  3) 219-C(  0  7  3) 220-C(  1  7  3)
 221-C(  2  7  3) 222-C(  3  7  3) 223-C(  4  7  3) 224-C(  5  7  3)
 225-C(  6  7  3) 226-C(  7  7  3) 227-R(  0  0  4) 228-C(  1  0  4)
 229-C(  2  0  4) 230-C(  3  0  4) 231-R(  4  0  4) 232-C(  0  1  4)
 233-C(  1  1  4) 234-C(  2  1  4) 235-C(  3  1  4) 236-C(  4  1  4)
 237-C(  5  1  4) 238-C(  6  1  4) 239-C(  7  1  4) 240-C(  0  2  4)
 241-C(  1  2  4) 242-C(  2  2  4) 243-C(  3  2  4) 244-C(  4  2  4)
 245-C(  5  2  4) 246-C(  6  2  4) 247-C(  7  2  4) 248-C(  0  3  4)
 249-C(  1  3  4) 250-C(  2  3  4) 251-C(  3  3  4) 252-C(  4  3  4)
 253-C(  5  3  4) 254-C(  6  3  4) 255-C(  7  3  4) 256-R(  0  4  4)
 257-C(  1  4  4) 258-C(  2  4  4) 259-C(  3  4  4) 260-R(  4  4  4)

 DIRECT LATTICE VECTORS COMPON. (A.U.)     RECIP. LATTICE VECTORS COMPON. (A.U.) 
        X            Y            Z              X            Y            Z
   10.6391581    0.0000000    0.0000000      0.5905717    0.0000000   -0.0000000
    0.0000000   10.6391581    0.0000000     -0.0000000    0.5905717   -0.0000000
    0.0000000    0.0000000   10.6391581      0.0000000    0.0000000    0.5905717

 DISK SPACE FOR EIGENVECTORS (FTN 10)    23887872 REALS

 SYMMETRY ADAPTION OF THE BLOCH FUNCTIONS DISABLED
 TTTTTTTTTTTTTTTTTTTTTTTTTTTTTT gordsh1     TELAPSE        0.57 TCPU        0.09

 MATRIX SIZE: P(G)  228440, F(G)   40447, P(G) IRR  115420, F(G) IRR   40819
 MAX G-VECTOR INDEX FOR 1- AND 2-ELECTRON INTEGRALS  81

 TTTTTTTTTTTTTTTTTTTTTTTTTTTTTT INPUT       TELAPSE        0.58 TCPU        0.09

 NEIGHBORS OF THE NON-EQUIVALENT ATOMS

 N = NUMBER OF NEIGHBORS AT DISTANCE R
    ATOM  N     R/ANG      R/AU   NEIGHBORS (ATOM LABELS AND CELL INDICES)
   1 C    1     1.1783     2.2266    2 O    0 0 0
   1 C    1     1.1810     2.2317    3 O    0 0 0
   1 C    1     2.9335     5.5436    5 O    0 0 0
   1 C    1     2.9812     5.6337   12 O    0 0 0
   1 C    1     3.0397     5.7442    9 O    0 0 0
   1 C    1     3.1858     6.0203    8 O    0 0 0

   2 O    1     1.1783     2.2266    1 C    0 0 0
   2 O    1     2.3498     4.4405    3 O    0 0 0
   2 O    1     2.9934     5.6568    4 C    0 0 0
   2 O    1     3.0397     5.7442   10 C    0 0 0
   2 O    1     3.1026     5.8631    6 O    0 0 0
   2 O    1     3.1139     5.8843    7 C    0 0 0

   3 O    1     1.1810     2.2317    1 C    0 0 0
   3 O    1     2.3498     4.4405    2 O    0 0 0
   3 O    1     2.9031     5.4861    5 O    0 0 0
   3 O    1     3.0219     5.7106   10 C    0-1-1
   3 O    1     3.1543     5.9608   11 O    0 0-1
   3 O    1     3.1868     6.0222   12 O    0-1 0

   4 C    1     1.0593     2.0017    6 O    1 0 0
   4 C    1     1.3675     2.5842    5 O    0 0 1
   4 C    1     2.8335     5.3546    8 O    1 0 1
   4 C    1     2.9934     5.6568    2 O    0 0 0
   4 C    1     3.1858     6.0203    9 O    0 0 0
   4 C    1     3.2268     6.0978   12 O    0 0 1

   5 O    1     1.3675     2.5842    4 C    0 0-1
   5 O    1     2.4176     4.5686    6 O    1 0-1
   5 O    1     2.9031     5.4861    3 O    0 0 0
   5 O    1     2.9335     5.5436    1 C    0 0 0
   5 O    1     3.1276     5.9102   10 C    0-1-1
   5 O    1     3.1503     5.9532   12 O    0 0 0

   6 O    1     1.0593     2.0017    4 C   -1 0 0
   6 O    1     2.4176     4.5686    5 O   -1 0 1
   6 O    1     2.8043     5.2993    8 O    0 0 1
   6 O    1     2.9026     5.4851   10 C    0 0 0
   6 O    1     2.9233     5.5242   11 O    0 1 0
   6 O    1     3.1026     5.8631    2 O    0 0 0

   7 C    1     1.1729     2.2164    9 O    0 1 0
   7 C    1     1.3477     2.5467    8 O    1 0 0
   7 C    1     3.1072     5.8718   11 O    1 1 0
   7 C    1     3.1139     5.8843    2 O    0 0 0
   7 C    1     3.1412     5.9360   12 O    0 0 0
   7 C    1     3.1518     5.9560    5 O    0 1 0

   8 O    1     1.3477     2.5467    7 C   -1 0 0
   8 O    1     2.5084     4.7401    9 O   -1 1 0
   8 O    1     2.8043     5.2993    6 O    0 0-1
   8 O    1     2.8335     5.3546    4 C   -1 0-1
   8 O    1     3.0035     5.6758   12 O    0 0 0
   8 O    1     3.0904     5.8399   10 C    0 0-1

   9 O    1     1.1729     2.2164    7 C    0-1 0
   9 O    1     2.5084     4.7401    8 O    1-1 0
   9 O    1     2.9717     5.6156   10 C    0-1 0
   9 O    1     3.0397     5.7442    1 C    0 0 0
   9 O    1     3.0754     5.8117   11 O    0 0 0
   9 O    2     3.1230     5.9016    2 O    0 0 0    2 O    0-1 0

  10 C    1     0.9784     1.8489   11 O    0 1 0
  10 C    1     1.2193     2.3041   12 O    0 0 1
  10 C    1     2.9026     5.4851    6 O    0 0 0
  10 C    1     2.9717     5.6156    9 O    0 1 0
  10 C    1     3.0219     5.7106    3 O    0 1 1
  10 C    1     3.0397     5.7442    2 O    0 0 0

  11 O    1     0.9784     1.8489   10 C    0-1 0
  11 O    1     2.1856     4.1301   12 O    0-1 1
  11 O    1     2.9233     5.5242    6 O    0-1 0
  11 O    1     3.0754     5.8117    9 O    0 0 0
  11 O    1     3.1072     5.8718    7 C   -1-1 0
  11 O    1     3.1543     5.9608    3 O    0 0 1

  12 O    1     1.2193     2.3041   10 C    0 0-1
  12 O    1     2.1856     4.1301   11 O    0 1-1
  12 O    1     2.9812     5.6337    1 C    0 0 0
  12 O    1     3.0035     5.6758    8 O    0 0 0
  12 O    1     3.1072     5.8718    8 O    1 0 0
  12 O    1     3.1412     5.9360    7 C    0 0 0


 SYMMETRY ALLOWED INTERNAL DEGREE(S) OF FREEDOM:  33
 TTTTTTTTTTTTTTTTTTTTTTTTTTTTTT SYMM        TELAPSE        0.58 TCPU        0.10
 TTTTTTTTTTTTTTTTTTTTTTTTTTTTTT INT_SCREEN  TELAPSE        0.58 TCPU        0.10
 INFORMATION **** EXCBUF **** EXCH. BIPO BUFFER: WORDS USED =      769140

 DFT PARAMETERS

     ATOM       ELECTRONS   NET CHARGE   R(ANGSTROM)
   1   6  C       6.0000      0.0000     0.77000000
   2   8  O       8.0000      0.0000     0.74000000

 SIZE OF GRID=     422991
 TTTTTTTTTTTTTTTTTTTTTTTTTTTTTT MAKE_GRID2  TELAPSE        1.06 TCPU        0.58
 BECKE WEIGHT FUNCTION
 RADSAFE =     2.00
 TOLERANCES - DENSITY:10**- 6; POTENTIAL:10**- 9; GRID WGT:10**-14

 RADIAL INTEGRATION  - INTERVALS (POINTS,UPPER LIMIT):            1( 75,  4.0*R)

 ANGULAR INTEGRATION - INTERVALS (ACCURACY LEVEL [N. POINTS] UPPER LIMIT):
  1(  4[  86]   0.2)  2(  8[ 194]   0.5)  3( 12[ 350]   0.9)  4( 16[ 974]   3.5)
  5( 12[ 350]9999.0)
 TTTTTTTTTTTTTTTTTTTTTTTTTTTTTT INT_CALC    TELAPSE        1.10 TCPU        0.62
 EEEEEEEEEE INT_CALC TERMINATION  DATE 18 05 2022 TIME 13:11:57.6

 *******************************************************************************
 DRY-ICE                                                                         
 CRYSTAL - SCF - TYPE OF CALCULATION :  RESTRICTED CLOSED SHELL
 *******************************************************************************

 CAPPA:IS1  8;IS2  8;IS3  8; K PTS MONK NET 260; SYMMOPS:K SPACE   2;G SPACE   1

 TTTTTTTTTTTTTTTTTTTTTTTTTTTTTT SDIK        TELAPSE        1.47 TCPU        0.94

 AAAAAAAAAAAAAAAAAAAAAAAAAAAAAAAAAAAAAAAAAAAAAAAAAAAAAAAAAAAAAAAAAAAAAAAAAAAAAAA
         ATOMIC WAVEFUNCTION(S)


 NUCLEAR CHARGE  6.0  SYMMETRY SPECIES            S    P
 N. ELECTRONS    6.0  NUMBER OF PRIMITIVE GTOS   10    6
                      NUMBER OF CONTRACTED GTOS   4    3
                      NUMBER OF CLOSED SHELLS     2    0
                      OPEN SHELL OCCUPATION       0    2

  ZNUC SCFIT  TOTAL HF ENERGY   KINETIC ENERGY   VIRIAL THEOREM ACCURACY
   6.0  10   -3.766702350E+01  3.783137943E+01 -1.995655566E+00  1.6E-06

 NUCLEAR CHARGE  8.0  SYMMETRY SPECIES            S    P
 N. ELECTRONS    8.0  NUMBER OF PRIMITIVE GTOS   10    6
                      NUMBER OF CONTRACTED GTOS   4    3
                      NUMBER OF CLOSED SHELLS     2    0
                      OPEN SHELL OCCUPATION       0    4

  ZNUC SCFIT  TOTAL HF ENERGY   KINETIC ENERGY   VIRIAL THEOREM ACCURACY
   8.0  13   -7.479377997E+01  7.483473100E+01 -1.999452780E+00  5.0E-06

 AAAAAAAAAAAAAAAAAAAAAAAAAAAAAAAAAAAAAAAAAAAAAAAAAAAAAAAAAAAAAAAAAAAAAAAAAAAAAAA

 CHARGE NORMALIZATION FACTOR   1.00000000
 TOTAL ATOMIC CHARGES:
   6.0000000   8.0000000   8.0000000   6.0000000   8.0000000   8.0000000
   6.0000000   8.0000000   8.0000000   6.0000000   8.0000000   8.0000000
 TTTTTTTTTTTTTTTTTTTTTTTTTTTTTT MOQGAD      TELAPSE        1.50 TCPU        0.97
 TTTTTTTTTTTTTTTTTTTTTTTTTTTTTT SHELLX2     TELAPSE       21.28 TCPU       20.70
 TTTTTTTTTTTTTTTTTTTTTTTTTTTTTT MONMO3      TELAPSE       21.46 TCPU       20.87
 NUMERICALLY INTEGRATED DENSITY     87.9999971177
 TTTTTTTTTTTTTTTTTTTTTTTTTTTTTT NUMDFT      TELAPSE       22.57 TCPU       21.98
 CYC   0 ETOT(AU) -7.561249507166E+02 DETOT -7.56E+02 tst  0.00E+00 PX  1.00E+00
 TTTTTTTTTTTTTTTTTTTTTTTTTTTTTT FDIK        TELAPSE       28.04 TCPU       27.42
 INSULATING STATE
 TOP OF VALENCE BANDS -    BAND     44; K  227; EIG -3.7158269E-01 AU
 TOP OF VALENCE BANDS -    BAND     44; K    1; EIG -3.7274722E-01 AU
 BOTTOM OF VIRTUAL BANDS - BAND     45; K    1; EIG -7.6936124E-02 AU
 TTTTTTTTTTTTTTTTTTTTTTTTTTTTTT PDIG        TELAPSE       28.31 TCPU       27.70
 CHARGE NORMALIZATION FACTOR   1.00000000
 TOTAL ATOMIC CHARGES:
   4.5434756   8.7249850   8.7337668   4.5579852   8.9607620   8.4791151
   4.4287912   8.9129904   8.6516944   4.7521202   8.3994491   8.8548648
 TTTTTTTTTTTTTTTTTTTTTTTTTTTTTT MOQGAD      TELAPSE       28.32 TCPU       27.70
 TTTTTTTTTTTTTTTTTTTTTTTTTTTTTT SHELLX2     TELAPSE       49.23 TCPU       48.57
 TTTTTTTTTTTTTTTTTTTTTTTTTTTTTT MONMO3      TELAPSE       49.40 TCPU       48.74
 NUMERICALLY INTEGRATED DENSITY     87.9999983825
 TTTTTTTTTTTTTTTTTTTTTTTTTTTTTT NUMDFT      TELAPSE       52.84 TCPU       52.16
 CYC   1 ETOT(AU) -7.535610017799E+02 DETOT  2.56E+00 tst  0.00E+00 PX  1.00E+00
 TTTTTTTTTTTTTTTTTTTTTTTTTTTTTT FDIK        TELAPSE       55.25 TCPU       54.54
 INSULATING STATE
 TOP OF VALENCE BANDS -    BAND     44; K  227; EIG -2.4804534E-01 AU
 TOP OF VALENCE BANDS -    BAND     44; K    1; EIG -2.4960773E-01 AU
 BOTTOM OF VIRTUAL BANDS - BAND     45; K  227; EIG -7.6399077E-02 AU
 BOTTOM OF VIRTUAL BANDS - BAND     45; K    1; EIG -7.5491407E-02 AU
 TTTTTTTTTTTTTTTTTTTTTTTTTTTTTT PDIG        TELAPSE       55.50 TCPU       54.79
 CHARGE NORMALIZATION FACTOR   1.00000000
 TOTAL ATOMIC CHARGES:
   5.0353232   8.4944585   8.4757514   5.0946431   8.6686037   8.2336327
   5.0416193   8.5820539   8.3720578   5.1416312   8.2100819   8.6501432
 TTTTTTTTTTTTTTTTTTTTTTTTTTTTTT MOQGAD      TELAPSE       55.51 TCPU       54.80
 TTTTTTTTTTTTTTTTTTTTTTTTTTTTTT SHELLX2     TELAPSE       76.45 TCPU       75.68
 TTTTTTTTTTTTTTTTTTTTTTTTTTTTTT MONMO3      TELAPSE       76.62 TCPU       75.85
 NUMERICALLY INTEGRATED DENSITY     87.9999987658
 TTTTTTTTTTTTTTTTTTTTTTTTTTTTTT NUMDFT      TELAPSE       80.00 TCPU       79.23
 CYC   2 ETOT(AU) -7.539578032465E+02 DETOT -3.97E-01 tst  1.80E-02 PX  1.56E-01
 TTTTTTTTTTTTTTTTTTTTTTTTTTTTTT FDIK        TELAPSE       82.26 TCPU       81.47
 INSULATING STATE
 TOP OF VALENCE BANDS -    BAND     44; K  220; EIG -3.1105512E-01 AU
 TOP OF VALENCE BANDS -    BAND     44; K    1; EIG -3.1244303E-01 AU
 BOTTOM OF VIRTUAL BANDS - BAND     45; K    1; EIG -5.9279925E-02 AU
 TTTTTTTTTTTTTTTTTTTTTTTTTTTTTT PDIG        TELAPSE       82.52 TCPU       81.73
 CHARGE NORMALIZATION FACTOR   1.00000000
 TOTAL ATOMIC CHARGES:
   5.0381725   8.4918419   8.4760316   5.1016482   8.6448128   8.2507087
   5.0499440   8.5676940   8.3805185   5.1342196   8.2259615   8.6384468
 TTTTTTTTTTTTTTTTTTTTTTTTTTTTTT MOQGAD      TELAPSE       82.53 TCPU       81.74
 TTTTTTTTTTTTTTTTTTTTTTTTTTTTTT SHELLX2     TELAPSE      103.46 TCPU      102.62
 TTTTTTTTTTTTTTTTTTTTTTTTTTTTTT MONMO3      TELAPSE      103.64 TCPU      102.79
 NUMERICALLY INTEGRATED DENSITY     87.9999985421
 TTTTTTTTTTTTTTTTTTTTTTTTTTTTTT NUMDFT      TELAPSE      107.04 TCPU      106.19
 CYC   3 ETOT(AU) -7.539747530092E+02 DETOT -1.69E-02 tst  1.22E-04 PX  4.01E-02
 TTTTTTTTTTTTTTTTTTTTTTTTTTTTTT FDIK        TELAPSE      109.20 TCPU      108.34
 INSULATING STATE
 TOP OF VALENCE BANDS -    BAND     44; K  164; EIG -3.2435094E-01 AU
 TOP OF VALENCE BANDS -    BAND     44; K    1; EIG -3.2566670E-01 AU
 BOTTOM OF VIRTUAL BANDS - BAND     45; K    1; EIG -5.1387025E-02 AU
 TTTTTTTTTTTTTTTTTTTTTTTTTTTTTT PDIG        TELAPSE      109.45 TCPU      108.59
 CHARGE NORMALIZATION FACTOR   1.00000000
 TOTAL ATOMIC CHARGES:
   4.9900952   8.5141694   8.5016455   5.0518278   8.6654826   8.2801784
   4.9951518   8.5948252   8.4092723   5.0878904   8.2540960   8.6553655
 TTTTTTTTTTTTTTTTTTTTTTTTTTTTTT MOQGAD      TELAPSE      109.46 TCPU      108.60
 TTTTTTTTTTTTTTTTTTTTTTTTTTTTTT SHELLX2     TELAPSE      130.37 TCPU      129.46
 TTTTTTTTTTTTTTTTTTTTTTTTTTTTTT MONMO3      TELAPSE      130.54 TCPU      129.63
 NUMERICALLY INTEGRATED DENSITY     87.9999984052
 TTTTTTTTTTTTTTTTTTTTTTTTTTTTTT NUMDFT      TELAPSE      133.93 TCPU      133.01
 CYC   4 ETOT(AU) -7.539797943534E+02 DETOT -5.04E-03 tst  5.76E-05 PX  2.75E-02
 TTTTTTTTTTTTTTTTTTTTTTTTTTTTTT FDIK        TELAPSE      136.06 TCPU      135.13
 INSULATING STATE
 TOP OF VALENCE BANDS -    BAND     44; K  164; EIG -3.1785832E-01 AU
 TOP OF VALENCE BANDS -    BAND     44; K    1; EIG -3.1921976E-01 AU
 BOTTOM OF VIRTUAL BANDS - BAND     45; K    1; EIG -4.8374977E-02 AU
 TTTTTTTTTTTTTTTTTTTTTTTTTTTTTT PDIG        TELAPSE      136.32 TCPU      135.39
 CHARGE NORMALIZATION FACTOR   1.00000000
 TOTAL ATOMIC CHARGES:
   4.9924674   8.5134649   8.5000449   5.0571676   8.6595129   8.2808429
   5.0037038   8.5884014   8.4075098   5.0860112   8.2580389   8.6528343
 TTTTTTTTTTTTTTTTTTTTTTTTTTTTTT MOQGAD      TELAPSE      136.33 TCPU      135.39
 TTTTTTTTTTTTTTTTTTTTTTTTTTTTTT SHELLX2     TELAPSE      157.24 TCPU      156.25
 TTTTTTTTTTTTTTTTTTTTTTTTTTTTTT MONMO3      TELAPSE      157.41 TCPU      156.42
 NUMERICALLY INTEGRATED DENSITY     87.9999984045
 TTTTTTTTTTTTTTTTTTTTTTTTTTTTTT NUMDFT      TELAPSE      160.80 TCPU      159.80
 CYC   5 ETOT(AU) -7.539801940274E+02 DETOT -4.00E-04 tst  1.26E-05 PX  6.83E-03
 TTTTTTTTTTTTTTTTTTTTTTTTTTTTTT FDIK        TELAPSE      162.84 TCPU      161.84
 INSULATING STATE
 TOP OF VALENCE BANDS -    BAND     44; K  164; EIG -3.1785693E-01 AU
 TOP OF VALENCE BANDS -    BAND     44; K    1; EIG -3.1921268E-01 AU
 BOTTOM OF VIRTUAL BANDS - BAND     45; K    1; EIG -4.8197674E-02 AU
 TTTTTTTTTTTTTTTTTTTTTTTTTTTTTT PDIG        TELAPSE      163.10 TCPU      162.09
 CHARGE NORMALIZATION FACTOR   1.00000000
 TOTAL ATOMIC CHARGES:
   4.9975116   8.5109043   8.4975826   5.0633640   8.6548696   8.2792975
   5.0102241   8.5842691   8.4052782   5.0900017   8.2568518   8.6498454
 TTTTTTTTTTTTTTTTTTTTTTTTTTTTTT MOQGAD      TELAPSE      163.10 TCPU      162.10
 TTTTTTTTTTTTTTTTTTTTTTTTTTTTTT SHELLX2     TELAPSE      184.03 TCPU      182.97
 TTTTTTTTTTTTTTTTTTTTTTTTTTTTTT MONMO3      TELAPSE      184.20 TCPU      183.14
 NUMERICALLY INTEGRATED DENSITY     87.9999984017
 TTTTTTTTTTTTTTTTTTTTTTTTTTTTTT NUMDFT      TELAPSE      187.60 TCPU      186.53
 CYC   6 ETOT(AU) -7.539802732378E+02 DETOT -7.92E-05 tst  5.78E-06 PX  1.84E-03
 TTTTTTTTTTTTTTTTTTTTTTTTTTTTTT FDIK        TELAPSE      189.63 TCPU      188.56
 INSULATING STATE
 TOP OF VALENCE BANDS -    BAND     44; K  164; EIG -3.1904845E-01 AU
 TOP OF VALENCE BANDS -    BAND     44; K    1; EIG -3.2040341E-01 AU
 BOTTOM OF VIRTUAL BANDS - BAND     45; K    1; EIG -4.8346628E-02 AU
 TTTTTTTTTTTTTTTTTTTTTTTTTTTTTT PDIG        TELAPSE      189.89 TCPU      188.81
 CHARGE NORMALIZATION FACTOR   1.00000000
 TOTAL ATOMIC CHARGES:
   4.9972331   8.5108328   8.4979118   5.0630387   8.6547572   8.2797602
   5.0092397   8.5847673   8.4058543   5.0899698   8.2569723   8.6496628
 TTTTTTTTTTTTTTTTTTTTTTTTTTTTTT MOQGAD      TELAPSE      189.89 TCPU      188.82
 TTTTTTTTTTTTTTTTTTTTTTTTTTTTTT SHELLX2     TELAPSE      210.82 TCPU      209.68
 TTTTTTTTTTTTTTTTTTTTTTTTTTTTTT MONMO3      TELAPSE      210.99 TCPU      209.85
 NUMERICALLY INTEGRATED DENSITY     87.9999983916
 TTTTTTTTTTTTTTTTTTTTTTTTTTTTTT NUMDFT      TELAPSE      214.38 TCPU      213.24
 CYC   7 ETOT(AU) -7.539803031697E+02 DETOT -2.99E-05 tst  1.13E-06 PX  1.56E-03
 TTTTTTTTTTTTTTTTTTTTTTTTTTTTTT FDIK        TELAPSE      216.32 TCPU      215.17
 INSULATING STATE
 TOP OF VALENCE BANDS -    BAND     44; K  164; EIG -3.1917433E-01 AU
 TOP OF VALENCE BANDS -    BAND     44; K    1; EIG -3.2053141E-01 AU
 BOTTOM OF VIRTUAL BANDS - BAND     45; K    1; EIG -4.8366741E-02 AU
 TTTTTTTTTTTTTTTTTTTTTTTTTTTTTT PDIG        TELAPSE      216.61 TCPU      215.45
 CHARGE NORMALIZATION FACTOR   1.00000000
 TOTAL ATOMIC CHARGES:
   4.9968169   8.5109974   8.4981500   5.0627197   8.6547090   8.2801443
   5.0089200   8.5848284   8.4061624   5.0894708   8.2573555   8.6497258
 TTTTTTTTTTTTTTTTTTTTTTTTTTTTTT MOQGAD      TELAPSE      216.61 TCPU      215.46
 TTTTTTTTTTTTTTTTTTTTTTTTTTTTTT SHELLX2     TELAPSE      237.46 TCPU      236.25
 TTTTTTTTTTTTTTTTTTTTTTTTTTTTTT MONMO3      TELAPSE      237.63 TCPU      236.42
 NUMERICALLY INTEGRATED DENSITY     87.9999983874
 TTTTTTTTTTTTTTTTTTTTTTTTTTTTTT NUMDFT      TELAPSE      241.01 TCPU      239.79
 CYC   8 ETOT(AU) -7.539803116161E+02 DETOT -8.45E-06 tst  5.94E-07 PX  7.88E-04
 TTTTTTTTTTTTTTTTTTTTTTTTTTTTTT FDIK        TELAPSE      242.88 TCPU      241.65
 INSULATING STATE
 TOP OF VALENCE BANDS -    BAND     44; K  164; EIG -3.1915529E-01 AU
 TOP OF VALENCE BANDS -    BAND     44; K    1; EIG -3.2051254E-01 AU
 BOTTOM OF VIRTUAL BANDS - BAND     45; K    1; EIG -4.8366201E-02 AU
 TTTTTTTTTTTTTTTTTTTTTTTTTTTTTT PDIG        TELAPSE      243.13 TCPU      241.90
 CHARGE NORMALIZATION FACTOR   1.00000000
 TOTAL ATOMIC CHARGES:
   4.9968829   8.5109521   8.4981233   5.0629075   8.6544364   8.2802384
   5.0091783   8.5845842   8.4061756   5.0893985   8.2574783   8.6496446
 TTTTTTTTTTTTTTTTTTTTTTTTTTTTTT MOQGAD      TELAPSE      243.14 TCPU      241.91
 TTTTTTTTTTTTTTTTTTTTTTTTTTTTTT SHELLX2     TELAPSE      263.97 TCPU      262.69
 TTTTTTTTTTTTTTTTTTTTTTTTTTTTTT MONMO3      TELAPSE      264.14 TCPU      262.86
 NUMERICALLY INTEGRATED DENSITY     87.9999983860
 TTTTTTTTTTTTTTTTTTTTTTTTTTTTTT NUMDFT      TELAPSE      267.54 TCPU      266.25
 CYC   9 ETOT(AU) -7.539803142556E+02 DETOT -2.64E-06 tst  3.36E-07 PX  4.43E-04
 TTTTTTTTTTTTTTTTTTTTTTTTTTTTTT FDIK        TELAPSE      269.43 TCPU      268.13
 INSULATING STATE
 TOP OF VALENCE BANDS -    BAND     44; K  164; EIG -3.1921127E-01 AU
 TOP OF VALENCE BANDS -    BAND     44; K    1; EIG -3.2056862E-01 AU
 BOTTOM OF VIRTUAL BANDS - BAND     45; K    1; EIG -4.8371095E-02 AU
 TTTTTTTTTTTTTTTTTTTTTTTTTTTTTT PDIG        TELAPSE      269.68 TCPU      268.38
 CHARGE NORMALIZATION FACTOR   1.00000000
 TOTAL ATOMIC CHARGES:
   4.9969248   8.5109097   8.4981179   5.0629803   8.6543141   8.2802953
   5.0092343   8.5845168   8.4062035   5.0893767   8.2575332   8.6495934
 TTTTTTTTTTTTTTTTTTTTTTTTTTTTTT MOQGAD      TELAPSE      269.69 TCPU      268.39
 TTTTTTTTTTTTTTTTTTTTTTTTTTTTTT SHELLX2     TELAPSE      290.54 TCPU      289.18
 TTTTTTTTTTTTTTTTTTTTTTTTTTTTTT MONMO3      TELAPSE      290.72 TCPU      289.35
 NUMERICALLY INTEGRATED DENSITY     87.9999983849
 TTTTTTTTTTTTTTTTTTTTTTTTTTTTTT NUMDFT      TELAPSE      294.10 TCPU      292.73
 CYC  10 ETOT(AU) -7.539803153675E+02 DETOT -1.11E-06 tst  1.52E-07 PX  3.16E-04
 TTTTTTTTTTTTTTTTTTTTTTTTTTTTTT FDIK        TELAPSE      296.01 TCPU      294.64
 INSULATING STATE
 TOP OF VALENCE BANDS -    BAND     44; K  164; EIG -3.1924658E-01 AU
 TOP OF VALENCE BANDS -    BAND     44; K    1; EIG -3.2060426E-01 AU
 BOTTOM OF VIRTUAL BANDS - BAND     45; K    1; EIG -4.8375461E-02 AU
 TTTTTTTTTTTTTTTTTTTTTTTTTTTTTT PDIG        TELAPSE      296.27 TCPU      294.89
 CHARGE NORMALIZATION FACTOR   1.00000000
 TOTAL ATOMIC CHARGES:
   4.9969116   8.5109029   8.4981332   5.0629695   8.6542696   8.2803561
   5.0092077   8.5845020   8.4062549   5.0893408   8.2575728   8.6495789
 TTTTTTTTTTTTTTTTTTTTTTTTTTTTTT MOQGAD      TELAPSE      296.28 TCPU      294.90
 TTTTTTTTTTTTTTTTTTTTTTTTTTTTTT SHELLX2     TELAPSE      317.12 TCPU      315.68
 TTTTTTTTTTTTTTTTTTTTTTTTTTTTTT MONMO3      TELAPSE      317.29 TCPU      315.85
 NUMERICALLY INTEGRATED DENSITY     87.9999983841
 TTTTTTTTTTTTTTTTTTTTTTTTTTTTTT NUMDFT      TELAPSE      320.68 TCPU      319.24
 CYC  11 ETOT(AU) -7.539803158495E+02 DETOT -4.82E-07 tst  7.26E-08 PX  2.24E-04
 TTTTTTTTTTTTTTTTTTTTTTTTTTTTTT FDIK        TELAPSE      322.54 TCPU      321.09
 INSULATING STATE
 TOP OF VALENCE BANDS -    BAND     44; K  164; EIG -3.1926060E-01 AU
 TOP OF VALENCE BANDS -    BAND     44; K    1; EIG -3.2061848E-01 AU
 BOTTOM OF VIRTUAL BANDS - BAND     45; K    1; EIG -4.8378585E-02 AU
 TTTTTTTTTTTTTTTTTTTTTTTTTTTTTT PDIG        TELAPSE      322.80 TCPU      321.34
 CHARGE NORMALIZATION FACTOR   1.00000000
 TOTAL ATOMIC CHARGES:
   4.9968999   8.5109026   8.4981422   5.0629625   8.6542366   8.2803997
   5.0091987   8.5844821   8.4062901   5.0893139   8.2576017   8.6495701
 TTTTTTTTTTTTTTTTTTTTTTTTTTTTTT MOQGAD      TELAPSE      322.81 TCPU      321.35
 TTTTTTTTTTTTTTTTTTTTTTTTTTTTTT SHELLX2     TELAPSE      343.66 TCPU      342.15
 +++ ENERGIES IN A.U. +++
 ::: EXT EL-POLE                                  -8.0169479078963E+02
 ::: EXT EL-SPHEROPOLE                             9.8981007437550E+00
 ::: BIELET ZONE E-E                               1.0105179145599E+03
 ::: TOTAL E-E                                     2.1872122451401E+02
 ::: TOTAL E-N + N-E                              -1.5063893366350E+03
 ::: TOTAL N-N                                    -1.4527726462663E+02
 ::: KINETIC ENERGY                                7.5161876552827E+02
 ::: PSEUDO TOTAL   ENERGY                        -6.8132661121932E+02
 ::: VIRIAL COEFFICIENT                            1.0490543152932E+00
 TTTTTTTTTTTTTTTTTTTTTTTTTTTTTT MONMO3      TELAPSE      343.83 TCPU      342.32
 NUMERICALLY INTEGRATED DENSITY     87.9999983838
 TTTTTTTTTTTTTTTTTTTTTTTTTTTTTT NUMDFT      TELAPSE      347.20 TCPU      345.68
 CYC  12 ETOT(AU) -7.539803160260E+02 DETOT -1.76E-07 tst  3.66E-08 PX  2.24E-04

 == SCF ENDED - CONVERGENCE ON ENERGY      E(AU) -7.5398031602601E+02 CYCLES  12


 ENERGY EXPRESSION=HARTREE+FOCK EXCH*0.20000+(BECKE      EXCH)*0.80000+LYP        CORR


 TOTAL ENERGY(DFT)(AU)( 12) -7.5398031602601E+02 DE-1.8E-07 tester 3.7E-08
 TTTTTTTTTTTTTTTTTTTTTTTTTTTTTT EDFT        TELAPSE      347.20 TCPU      345.69
 EIGENVECTORS IN FORTRAN UNIT  8
 TTTTTTTTTTTTTTTTTTTTTTTTTTTTTT END         TELAPSE      347.48 TCPU      345.94
 EEEEEEEEEE TERMINATION  DATE 18 05 2022 TIME 13:17:44.0
NODE    0 CPU TIME =       345.939
NODE    1 CPU TIME =       345.924
NODE    2 CPU TIME =       345.861
NODE    3 CPU TIME =       345.921
NODE    4 CPU TIME =       345.949
NODE    5 CPU TIME =       345.946
NODE    6 CPU TIME =       345.870
NODE    7 CPU TIME =       345.905
NODE    8 CPU TIME =       345.870
NODE    9 CPU TIME =       345.992
    TOTAL CPU TIME =      3459.179
