          10 PROCESSORS WORKING

         
 *******************************************************************************
 *                                                                             *
 *                               CRYSTAL14                                     *
 *                      public : 1.0.4 - Feb 23rd, 2016                        *
 *                       HTTP://WWW.CRYSTAL.UNITO.IT                           *
 *                                                                             *
 *                              MAIN AUTHORS                                   *
 *                                                                             *
 *  R. DOVESI(1,11), V.R. SAUNDERS(2), C. ROETTI(1,11), R. ORLANDO(1,11),      *
 *  C.M. ZICOVICH-WILSON(1,3), F. PASCALE(4), B. CIVALLERI(1,11),              *
 *  K. DOLL(5), N.M. HARRISON(2,6), I. J. BUSH(7), Ph. D'ARCO(8),              *
 *  M. LLUNELL(9), M. CAUSA'(10), Y. NOEL(8)                                   *
 *                                                                             *
 *        CONTRIBUTIONS TO THE CURRENT RELEASE HAVE BEEN GIVEN BY              *
 *                                                                             *
 *  L. MASCHIO(1,11), S. CASASSA(1,11), A. ERBA(1,11), M. FERRABONE(1,11),     *
 *  M. DE LA PIERRE(1,11), M. FERRERO(1,11), V. LACIVITA(1,11),                *
 *  J. BAIMA(1,11), E. ALBANESE(1,11), M.F. PEINTINGER(12), R. BAST(13),       *
 *  M. RERAT(14), B. KIRTMAN(15), R. DEMICHELIS(1,16)                          *
 *                                                                             *
 * (1) THEORETICAL CHEMISTRY GROUP - UNIVERSITA' DI TORINO - TORINO (ITALY)    *
 *     http://www.crystal.unito.it                                             *
 * (2) COMPUTATIONAL SCIENCE & ENGINEERING DEPARTMENT - STFC DARESBURY (UK)    *
 *     http://www.stfc.ac.uk/CSE/randd/cmg/CRYSTAL/25806.aspx                  *
 * (3) UNIVERSIDAD AUTONOMA DEL ESTADO DE MORELOS - CUERNAVACA (MEXICO)        *
 * (4) UNIVERSITE' DE LORRAINE - NANCY (FRANCE)                                *
 * (5) UNIVERSITAET ULM - ULM (GERMANY); (6) IMPERIAL COLLEGE - LONDON (UK)    *
 * (7) NAG - OXFORD (UK); (8) UPMC - SORBONNE UNIVERSITES - PARIS (FRANCE)     *
 * (9) UNIVERSIDAD DE BARCELONA - BARCELONA (SPAIN)                            *
 *(10) UNIVERSITA' DI NAPOLI "FEDERICO II" - NAPOLI (ITALY)                    *
 *(11) NIS - NANOSTRUCTURED INTERFACES AND SURFACES - TORINO (ITALY)           *
 *(12) MPI FUER CHEMISCHE ENERGIEKONVERSION - MUELHEIM AN DER RUHR (GERMANY)   *
 *(13) UNIVERSITY OF STOCKHOLM - STOCKHOLM (SWEDEN)                            *
 *(14) UNIVERSITE' DE PAU ET DES PAYS DE L'ADOUR - PAU (FRANCE)                *
 *(15) UNIVERSITY OF CALIFORNIA SANTA BARBARA - SANTA BARBARA (USA)            *
 *(16) CURTIN UNIVERSITY - PERTH (AUSTRALIA)                                   *
 *                                                                             *
 ********************************************************************************
 EEEEEEEEEE STARTING  DATE 18 05 2022 TIME 11:30:05.1
 DRY-ICE                                                                         

 CRYSTAL CALCULATION
 (INPUT ACCORDING TO THE INTERNATIONAL TABLES FOR X-RAY CRYSTALLOGRAPHY)
 CRYSTAL FAMILY                       :  TRICLINIC   
 CRYSTAL CLASS  (GROTH - 1921)        :  TRICLINIC PEDIAL                     

 SPACE GROUP (NONCENTROSYMMETRIC)     :  P 1             

 LATTICE PARAMETERS  (ANGSTROMS AND DEGREES) - CONVENTIONAL CELL
        A           B           C        ALPHA        BETA       GAMMA
     5.63000     5.63000     5.63000    90.00000    90.00000    90.00000


 NUMBER OF IRREDUCIBLE ATOMS IN THE CONVENTIONAL CELL:   12

 INPUT COORDINATES

 ATOM AT. N.              COORDINATES
   1   6     0.000000000000E+00  0.000000000000E+00  0.000000000000E+00
   2   8     1.300000000000E-01  1.300000000000E-01  9.000000000000E-02
   3   8    -1.400000000000E-01 -1.000000000000E-01 -1.200000000000E-01
   4   6     5.000000000000E-01  2.000000000000E-02  4.900000000000E-01
   5   8     3.600000000000E-01 -1.000000000000E-01 -3.800000000000E-01
   6   8    -3.900000000000E-01  1.500000000000E-01  4.100000000000E-01
   7   6     4.900000000000E-01  4.900000000000E-01 -2.000000000000E-02
   8   8    -3.600000000000E-01  4.000000000000E-01 -1.200000000000E-01
   9   8     3.900000000000E-01 -3.500000000000E-01  1.300000000000E-01
  10   6    -2.000000000000E-02  5.000000000000E-01  4.900000000000E-01
  11   8    -1.500000000000E-01 -3.900000000000E-01  3.700000000000E-01
  12   8     1.400000000000E-01  4.100000000000E-01 -3.500000000000E-01

 *******************************************************************************

 << INFORMATION >>: FROM NOW ON, ALL COORDINATES REFER TO THE PRIMITIVE CELL

 *******************************************************************************

 LATTICE PARAMETERS  (ANGSTROMS AND DEGREES) - PRIMITIVE CELL
       A          B          C        ALPHA      BETA     GAMMA        VOLUME
    5.63000    5.63000    5.63000    90.00000  90.00000  90.00000    178.453547

 COORDINATES OF THE EQUIVALENT ATOMS (FRACTIONAL UNITS)

 N. ATOM EQUIV AT. N.          X                  Y                  Z

   1   1   1    6 C     0.00000000000E+00  0.00000000000E+00  0.00000000000E+00

   2   2   1    8 O     1.30000000000E-01  1.30000000000E-01  9.00000000000E-02

   3   3   1    8 O    -1.40000000000E-01 -1.00000000000E-01 -1.20000000000E-01

   4   4   1    6 C    -5.00000000000E-01  2.00000000000E-02  4.90000000000E-01

   5   5   1    8 O     3.60000000000E-01 -1.00000000000E-01 -3.80000000000E-01

   6   6   1    8 O    -3.90000000000E-01  1.50000000000E-01  4.10000000000E-01

   7   7   1    6 C     4.90000000000E-01  4.90000000000E-01 -2.00000000000E-02

   8   8   1    8 O    -3.60000000000E-01  4.00000000000E-01 -1.20000000000E-01

   9   9   1    8 O     3.90000000000E-01 -3.50000000000E-01  1.30000000000E-01

  10  10   1    6 C    -2.00000000000E-02 -5.00000000000E-01  4.90000000000E-01

  11  11   1    8 O    -1.50000000000E-01 -3.90000000000E-01  3.70000000000E-01

  12  12   1    8 O     1.40000000000E-01  4.10000000000E-01 -3.50000000000E-01

 NUMBER OF SYMMETRY OPERATORS         :    1
 *******************************************************************************
 * GEOMETRY EDITING - INPUT COORDINATES ARE GIVEN IN ANGSTROM         
 *******************************************************************************

 GCALCO - MAX INDICES DIRECT LATTICE VECTOR    14    14    14
 NO.OF VECTORS CREATED 6999 STARS  120 RMAX   126.33300 BOHR

 GEOMETRY FOR WAVE FUNCTION - DIMENSIONALITY OF THE SYSTEM    3
 (NON PERIODIC DIRECTION: LATTICE PARAMETER FORMALLY SET TO 500)
 *******************************************************************************
 LATTICE PARAMETERS (ANGSTROMS AND DEGREES) - BOHR = 0.5291772083 ANGSTROM
 PRIMITIVE CELL - CENTRING CODE 1/0 VOLUME=   178.453547 - DENSITY  1.637 g/cm^3
         A              B              C           ALPHA      BETA       GAMMA 
     5.63000000     5.63000000     5.63000000    90.000000  90.000000  90.000000
 *******************************************************************************
 ATOMS IN THE ASYMMETRIC UNIT   12 - ATOMS IN THE UNIT CELL:   12
     ATOM              X/A                 Y/B                 Z/C    
 *******************************************************************************
   1 T   6 C     0.000000000000E+00  0.000000000000E+00  0.000000000000E+00
   2 T   8 O     1.300000000000E-01  1.300000000000E-01  9.000000000000E-02
   3 T   8 O    -1.400000000000E-01 -1.000000000000E-01 -1.200000000000E-01
   4 T   6 C     5.000000000000E-01  2.000000000000E-02  4.900000000000E-01
   5 T   8 O     3.600000000000E-01 -1.000000000000E-01 -3.800000000000E-01
   6 T   8 O    -3.900000000000E-01  1.500000000000E-01  4.100000000000E-01
   7 T   6 C     4.900000000000E-01  4.900000000000E-01 -2.000000000000E-02
   8 T   8 O    -3.600000000000E-01  4.000000000000E-01 -1.200000000000E-01
   9 T   8 O     3.900000000000E-01 -3.500000000000E-01  1.300000000000E-01
  10 T   6 C    -2.000000000000E-02  5.000000000000E-01  4.900000000000E-01
  11 T   8 O    -1.500000000000E-01 -3.900000000000E-01  3.700000000000E-01
  12 T   8 O     1.400000000000E-01  4.100000000000E-01 -3.500000000000E-01

 T = ATOM BELONGING TO THE ASYMMETRIC UNIT

 ****    1 SYMMOPS - TRANSLATORS IN FRACTIONAL UNITS
 **** MATRICES AND TRANSLATORS IN THE CRYSTALLOGRAPHIC REFERENCE FRAME
   V INV                    ROTATION MATRICES                   TRANSLATORS
   1   1  1.00  0.00  0.00  0.00  1.00  0.00  0.00  0.00  1.00  0.00  0.00  0.00

 DIRECT LATTICE VECTORS CARTESIAN COMPONENTS (ANGSTROM)
          X                    Y                    Z
   0.563000000000E+01   0.344738073960E-15   0.000000000000E+00
   0.000000000000E+00   0.563000000000E+01   0.000000000000E+00
   0.344738073960E-15   0.344738073960E-15   0.563000000000E+01


 CARTESIAN COORDINATES - PRIMITIVE CELL
 *******************************************************************************
 *      ATOM          X(ANGSTROM)         Y(ANGSTROM)         Z(ANGSTROM)
 *******************************************************************************
    1     6 C     0.000000000000E+00  0.000000000000E+00  0.000000000000E+00
    2     8 O     7.319000000000E-01  7.319000000000E-01  5.067000000000E-01
    3     8 O    -7.882000000000E-01 -5.630000000000E-01 -6.756000000000E-01
    4     6 C     2.815000000000E+00  1.126000000000E-01  2.758700000000E+00
    5     8 O     2.026800000000E+00 -5.630000000000E-01 -2.139400000000E+00
    6     8 O    -2.195700000000E+00  8.445000000000E-01  2.308300000000E+00
    7     6 C     2.758700000000E+00  2.758700000000E+00 -1.126000000000E-01
    8     8 O    -2.026800000000E+00  2.252000000000E+00 -6.756000000000E-01
    9     8 O     2.195700000000E+00 -1.970500000000E+00  7.319000000000E-01
   10     6 C    -1.126000000000E-01  2.815000000000E+00  2.758700000000E+00
   11     8 O    -8.445000000000E-01 -2.195700000000E+00  2.083100000000E+00
   12     8 O     7.882000000000E-01  2.308300000000E+00 -1.970500000000E+00

 *******************************************************************************
 STARTING BASIS SET HANDLING 
 *******************************************************************************

 Loading internal basis set: POB-TZVP            

 Please cite in your publication:
 Peintinger, M. F., Oliveira, D. V. and Bredow, T. (2013), Consistent Gaussian b
 asis sets of triple-zeta valence with polarization quality for solid-state calc
 ulations. J. Comput. Chem., 34: 451–459. doi: 10.1002/jcc.23153              
                    

 *******************************************************************************
 LOCAL ATOMIC FUNCTIONS BASIS SET
 *******************************************************************************
   ATOM   X(AU)   Y(AU)   Z(AU)  N. TYPE  EXPONENT  S COEF   P COEF   D/F/G COEF
 *******************************************************************************
   1 C    0.000   0.000   0.000
                                  1 S  
                                         1.358E+04 2.225E-04 0.000E+00 0.000E+00
                                         2.035E+03 1.723E-03 0.000E+00 0.000E+00
                                         4.632E+02 8.926E-03 0.000E+00 0.000E+00
                                         1.312E+02 3.573E-02 0.000E+00 0.000E+00
                                         4.285E+01 1.108E-01 0.000E+00 0.000E+00
                                         1.558E+01 2.430E-01 0.000E+00 0.000E+00
                                  2 S  
                                         6.207E+00 4.144E-01 0.000E+00 0.000E+00
                                         2.576E+00 2.374E-01 0.000E+00 0.000E+00
                                  3 S  
                                         4.941E-01 1.000E+00 0.000E+00 0.000E+00
                                  4 S  
                                         1.644E-01 1.000E+00 0.000E+00 0.000E+00
                             5-   7 P  
                                         3.470E+01 0.000E+00 5.333E-03 0.000E+00
                                         7.958E+00 0.000E+00 3.586E-02 0.000E+00
                                         2.378E+00 0.000E+00 1.422E-01 0.000E+00
                                         8.143E-01 0.000E+00 3.427E-01 0.000E+00
                             8-  10 P  
                                         5.662E-01 0.000E+00 1.000E+00 0.000E+00
                            11-  13 P  
                                         2.674E-01 0.000E+00 1.000E+00 0.000E+00
                            14-  18 D  
                                         8.792E-01 0.000E+00 0.000E+00 1.000E+00
   2 O    1.383   1.383   0.958
                                 19 S  
                                         2.703E+04 2.173E-04 0.000E+00 0.000E+00
                                         4.052E+03 1.684E-03 0.000E+00 0.000E+00
                                         9.223E+02 8.740E-03 0.000E+00 0.000E+00
                                         2.612E+02 3.524E-02 0.000E+00 0.000E+00
                                         8.535E+01 1.115E-01 0.000E+00 0.000E+00
                                         3.104E+01 2.559E-01 0.000E+00 0.000E+00
                                 20 S  
                                         1.226E+01 3.977E-01 0.000E+00 0.000E+00
                                         4.999E+00 2.463E-01 0.000E+00 0.000E+00
                                 21 S  
                                         8.479E-01 1.000E+00 0.000E+00 0.000E+00
                                 22 S  
                                         1.851E-01 1.000E+00 0.000E+00 0.000E+00
                            23-  25 P  
                                         6.327E+01 0.000E+00 6.069E-03 0.000E+00
                                         1.463E+01 0.000E+00 4.191E-02 0.000E+00
                                         4.450E+00 0.000E+00 1.615E-01 0.000E+00
                                         1.528E+00 0.000E+00 3.571E-01 0.000E+00
                            26-  28 P  
                                         5.490E-01 0.000E+00 1.000E+00 0.000E+00
                            29-  31 P  
                                         1.824E-01 0.000E+00 1.000E+00 0.000E+00
                            32-  36 D  
                                         5.000E-01 0.000E+00 0.000E+00 1.000E+00
   3 O   -1.489  -1.064  -1.277
   4 C    5.320   0.213   5.213
   5 O    3.830  -1.064  -4.043
   6 O   -4.149   1.596   4.362
   7 C    5.213   5.213  -0.213
   8 O   -3.830   4.256  -1.277
   9 O    4.149  -3.724   1.383
  10 C   -0.213   5.320   5.213
  11 O   -1.596  -4.149   3.936
  12 O    1.489   4.362  -3.724

 *******************************************************************************
 FINISHED BASIS SET HANDLING 
 *******************************************************************************

 INFORMATION **** SET_MPP **** PCRYSTAL CALCULATION
 INFORMATION **** READM2 **** NEW DEFAULT: FOCK/KS MATRIX MIXING SET TO 30 %
 INFORMATION **** READM2 **** NEW DEFAULT: FULL DIRECT SCF MODE
 INFORMATION **** READM2 **** NEW DEFAULT: COULOMB BIPOLAR BUFFER SET TO 32 Mb
 INFORMATION **** READM2 **** NEW DEFAULT: EXCHANGE BIPOLAR BUFFER SET TO 32 Mb

 *******************************************************************************
 NEW DEFAULT: DFT INTEGRATION GRID INCREASED TO XLGRID
 NEW DEFAULT: LEVEL SHIFTER 6 0
 IF THE SYSTEM IS A METAL USE KEYWORD NOSHIFT
 *******************************************************************************

 *******************************************************************************
 N. OF ATOMS PER CELL        12  COULOMB OVERLAP TOL         (T1) 10**   -6
 NUMBER OF SHELLS            96  COULOMB PENETRATION TOL     (T2) 10**   -6
 NUMBER OF AO               216  EXCHANGE OVERLAP TOL        (T3) 10**   -6
 N. OF ELECTRONS PER CELL    88  EXCHANGE PSEUDO OVP (F(G))  (T4) 10**   -6
 CORE ELECTRONS PER CELL     24  EXCHANGE PSEUDO OVP (P(G))  (T5) 10**  -12
 N. OF SYMMETRY OPERATORS     1  POLE ORDER IN MONO ZONE                  4
 *******************************************************************************
 TYPE OF CALCULATION :  RESTRICTED CLOSED SHELL
 KOHN-SHAM HAMILTONIAN

 (EXCHANGE)[CORRELATION] FUNCTIONAL:(BECKE 88)[LEE-YANG-PARR]

 NON-LOCAL WEIGHTING FACTOR (EXCHANGE) =           0.9000
 NON-LOCAL WEIGHTING FACTOR [CORRELATION] =        0.8100

 HYBRID EXCHANGE - PERCENTAGE OF FOCK EXCHANGE    20.0000
 EIGENVALUE LEVEL SHIFTING OF  0.600 HARTREE

 CAPPA:IS1  8;IS2  8;IS3  8; K PTS MONK NET 260; SYMMOPS:K SPACE   2;G SPACE   1

 *******************************************************************************
 MAX NUMBER OF SCF CYCLES      50  CONVERGENCE ON DELTAP        10**-16
 WEIGHT OF F(I) IN F(I+1)      30% CONVERGENCE ON ENERGY        10**- 6
 EIGENVALUE LEVEL SHIFTING OF  0.600 HARTREE
 SHRINK. FACT.(MONKH.)    8  8  8  NUMBER OF K POINTS IN THE IBZ    260
 SHRINKING FACTOR(GILAT NET)    8  NUMBER OF K POINTS(GILAT NET)    260
 *******************************************************************************
 *** K POINTS COORDINATES (OBLIQUE COORDINATES IN UNITS OF IS =  8)
   1-R(  0  0  0)   2-C(  1  0  0)   3-C(  2  0  0)   4-C(  3  0  0)
   5-R(  4  0  0)   6-C(  0  1  0)   7-C(  1  1  0)   8-C(  2  1  0)
   9-C(  3  1  0)  10-C(  4  1  0)  11-C(  5  1  0)  12-C(  6  1  0)
  13-C(  7  1  0)  14-C(  0  2  0)  15-C(  1  2  0)  16-C(  2  2  0)
  17-C(  3  2  0)  18-C(  4  2  0)  19-C(  5  2  0)  20-C(  6  2  0)
  21-C(  7  2  0)  22-C(  0  3  0)  23-C(  1  3  0)  24-C(  2  3  0)
  25-C(  3  3  0)  26-C(  4  3  0)  27-C(  5  3  0)  28-C(  6  3  0)
  29-C(  7  3  0)  30-R(  0  4  0)  31-C(  1  4  0)  32-C(  2  4  0)
  33-C(  3  4  0)  34-R(  4  4  0)  35-C(  0  0  1)  36-C(  1  0  1)
  37-C(  2  0  1)  38-C(  3  0  1)  39-C(  4  0  1)  40-C(  5  0  1)
  41-C(  6  0  1)  42-C(  7  0  1)  43-C(  0  1  1)  44-C(  1  1  1)
  45-C(  2  1  1)  46-C(  3  1  1)  47-C(  4  1  1)  48-C(  5  1  1)
  49-C(  6  1  1)  50-C(  7  1  1)  51-C(  0  2  1)  52-C(  1  2  1)
  53-C(  2  2  1)  54-C(  3  2  1)  55-C(  4  2  1)  56-C(  5  2  1)
  57-C(  6  2  1)  58-C(  7  2  1)  59-C(  0  3  1)  60-C(  1  3  1)
  61-C(  2  3  1)  62-C(  3  3  1)  63-C(  4  3  1)  64-C(  5  3  1)
  65-C(  6  3  1)  66-C(  7  3  1)  67-C(  0  4  1)  68-C(  1  4  1)
  69-C(  2  4  1)  70-C(  3  4  1)  71-C(  4  4  1)  72-C(  5  4  1)
  73-C(  6  4  1)  74-C(  7  4  1)  75-C(  0  5  1)  76-C(  1  5  1)
  77-C(  2  5  1)  78-C(  3  5  1)  79-C(  4  5  1)  80-C(  5  5  1)
  81-C(  6  5  1)  82-C(  7  5  1)  83-C(  0  6  1)  84-C(  1  6  1)
  85-C(  2  6  1)  86-C(  3  6  1)  87-C(  4  6  1)  88-C(  5  6  1)
  89-C(  6  6  1)  90-C(  7  6  1)  91-C(  0  7  1)  92-C(  1  7  1)
  93-C(  2  7  1)  94-C(  3  7  1)  95-C(  4  7  1)  96-C(  5  7  1)
  97-C(  6  7  1)  98-C(  7  7  1)  99-C(  0  0  2) 100-C(  1  0  2)
 101-C(  2  0  2) 102-C(  3  0  2) 103-C(  4  0  2) 104-C(  5  0  2)
 105-C(  6  0  2) 106-C(  7  0  2) 107-C(  0  1  2) 108-C(  1  1  2)
 109-C(  2  1  2) 110-C(  3  1  2) 111-C(  4  1  2) 112-C(  5  1  2)
 113-C(  6  1  2) 114-C(  7  1  2) 115-C(  0  2  2) 116-C(  1  2  2)
 117-C(  2  2  2) 118-C(  3  2  2) 119-C(  4  2  2) 120-C(  5  2  2)
 121-C(  6  2  2) 122-C(  7  2  2) 123-C(  0  3  2) 124-C(  1  3  2)
 125-C(  2  3  2) 126-C(  3  3  2) 127-C(  4  3  2) 128-C(  5  3  2)
 129-C(  6  3  2) 130-C(  7  3  2) 131-C(  0  4  2) 132-C(  1  4  2)
 133-C(  2  4  2) 134-C(  3  4  2) 135-C(  4  4  2) 136-C(  5  4  2)
 137-C(  6  4  2) 138-C(  7  4  2) 139-C(  0  5  2) 140-C(  1  5  2)
 141-C(  2  5  2) 142-C(  3  5  2) 143-C(  4  5  2) 144-C(  5  5  2)
 145-C(  6  5  2) 146-C(  7  5  2) 147-C(  0  6  2) 148-C(  1  6  2)
 149-C(  2  6  2) 150-C(  3  6  2) 151-C(  4  6  2) 152-C(  5  6  2)
 153-C(  6  6  2) 154-C(  7  6  2) 155-C(  0  7  2) 156-C(  1  7  2)
 157-C(  2  7  2) 158-C(  3  7  2) 159-C(  4  7  2) 160-C(  5  7  2)
 161-C(  6  7  2) 162-C(  7  7  2) 163-C(  0  0  3) 164-C(  1  0  3)
 165-C(  2  0  3) 166-C(  3  0  3) 167-C(  4  0  3) 168-C(  5  0  3)
 169-C(  6  0  3) 170-C(  7  0  3) 171-C(  0  1  3) 172-C(  1  1  3)
 173-C(  2  1  3) 174-C(  3  1  3) 175-C(  4  1  3) 176-C(  5  1  3)
 177-C(  6  1  3) 178-C(  7  1  3) 179-C(  0  2  3) 180-C(  1  2  3)
 181-C(  2  2  3) 182-C(  3  2  3) 183-C(  4  2  3) 184-C(  5  2  3)
 185-C(  6  2  3) 186-C(  7  2  3) 187-C(  0  3  3) 188-C(  1  3  3)
 189-C(  2  3  3) 190-C(  3  3  3) 191-C(  4  3  3) 192-C(  5  3  3)
 193-C(  6  3  3) 194-C(  7  3  3) 195-C(  0  4  3) 196-C(  1  4  3)
 197-C(  2  4  3) 198-C(  3  4  3) 199-C(  4  4  3) 200-C(  5  4  3)
 201-C(  6  4  3) 202-C(  7  4  3) 203-C(  0  5  3) 204-C(  1  5  3)
 205-C(  2  5  3) 206-C(  3  5  3) 207-C(  4  5  3) 208-C(  5  5  3)
 209-C(  6  5  3) 210-C(  7  5  3) 211-C(  0  6  3) 212-C(  1  6  3)
 213-C(  2  6  3) 214-C(  3  6  3) 215-C(  4  6  3) 216-C(  5  6  3)
 217-C(  6  6  3) 218-C(  7  6  3) 219-C(  0  7  3) 220-C(  1  7  3)
 221-C(  2  7  3) 222-C(  3  7  3) 223-C(  4  7  3) 224-C(  5  7  3)
 225-C(  6  7  3) 226-C(  7  7  3) 227-R(  0  0  4) 228-C(  1  0  4)
 229-C(  2  0  4) 230-C(  3  0  4) 231-R(  4  0  4) 232-C(  0  1  4)
 233-C(  1  1  4) 234-C(  2  1  4) 235-C(  3  1  4) 236-C(  4  1  4)
 237-C(  5  1  4) 238-C(  6  1  4) 239-C(  7  1  4) 240-C(  0  2  4)
 241-C(  1  2  4) 242-C(  2  2  4) 243-C(  3  2  4) 244-C(  4  2  4)
 245-C(  5  2  4) 246-C(  6  2  4) 247-C(  7  2  4) 248-C(  0  3  4)
 249-C(  1  3  4) 250-C(  2  3  4) 251-C(  3  3  4) 252-C(  4  3  4)
 253-C(  5  3  4) 254-C(  6  3  4) 255-C(  7  3  4) 256-R(  0  4  4)
 257-C(  1  4  4) 258-C(  2  4  4) 259-C(  3  4  4) 260-R(  4  4  4)

 DIRECT LATTICE VECTORS COMPON. (A.U.)     RECIP. LATTICE VECTORS COMPON. (A.U.) 
        X            Y            Z              X            Y            Z
   10.6391581    0.0000000    0.0000000      0.5905717    0.0000000   -0.0000000
    0.0000000   10.6391581    0.0000000     -0.0000000    0.5905717   -0.0000000
    0.0000000    0.0000000   10.6391581      0.0000000    0.0000000    0.5905717

 DISK SPACE FOR EIGENVECTORS (FTN 10)    23887872 REALS

 SYMMETRY ADAPTION OF THE BLOCH FUNCTIONS DISABLED
 TTTTTTTTTTTTTTTTTTTTTTTTTTTTTT gordsh1     TELAPSE        0.57 TCPU        0.11

 MATRIX SIZE: P(G)  229088, F(G)   40438, P(G) IRR  115744, F(G) IRR   40810
 MAX G-VECTOR INDEX FOR 1- AND 2-ELECTRON INTEGRALS  81

 TTTTTTTTTTTTTTTTTTTTTTTTTTTTTT INPUT       TELAPSE        0.58 TCPU        0.12

 NEIGHBORS OF THE NON-EQUIVALENT ATOMS

 N = NUMBER OF NEIGHBORS AT DISTANCE R
    ATOM  N     R/ANG      R/AU   NEIGHBORS (ATOM LABELS AND CELL INDICES)
   1 C    1     1.1524     2.1778    2 O    0 0 0
   1 C    1     1.1810     2.2317    3 O    0 0 0
   1 C    1     3.0003     5.6698    5 O    0 0 0
   1 C    1     3.0397     5.7442    9 O    0 0 0
   1 C    1     3.1042     5.8660    8 O    0 0 0
   1 C    1     3.1357     5.9255   12 O    0 0 0

   2 O    1     1.1524     2.1778    1 C    0 0 0
   2 O    1     2.3206     4.3853    3 O    0 0 0
   2 O    1     2.9325     5.5416    7 C    0 0 0
   2 O    1     2.9368     5.5497   12 O    0 0 0
   2 O    1     3.0816     5.8234    9 O    0 0 0
   2 O    1     3.1296     5.9141    4 C    0 0 0

   3 O    1     1.1810     2.2317    1 C    0 0 0
   3 O    1     2.3206     4.3853    2 O    0 0 0
   3 O    1     3.0636     5.7893    4 C   -1 0-1
   3 O    2     3.0754     5.8117    8 O    0 0 0    8 O    0-1 0
   3 O    1     3.1598     5.9712    7 C   -1-1 0
   3 O    2     3.1728     5.9958    5 O    0 0 0    5 O   -1 0 0

   4 C    1     1.0593     2.0017    6 O    1 0 0
   4 C    1     1.2702     2.4003    5 O    0 0 1
   4 C    1     2.9717     5.6156    9 O    0 0 0
   4 C    1     3.0636     5.7893    3 O    1 0 1
   4 C    1     3.1093     5.8757   11 O    1 0 0
   4 C    1     3.1210     5.8978   12 O    0 0 1

   5 O    1     1.2702     2.4003    4 C    0 0-1
   5 O    1     2.3152     4.3750    6 O    1 0-1
   5 O    1     3.0003     5.6698    1 C    0 0 0
   5 O    1     3.0287     5.7234   12 O    0-1 0
   5 O    1     3.1016     5.8612    9 O    0 0-1
   5 O    1     3.1316     5.9179   12 O    0 0 0

   6 O    1     1.0593     2.0017    4 C   -1 0 0
   6 O    1     2.3152     4.3750    5 O   -1 0 1
   6 O    1     2.9026     5.4851   10 C    0 0 0
   6 O    1     2.9298     5.5365   11 O    0 1 0
   6 O    1     3.0019     5.6728    8 O    0 0 1
   6 O    1     3.1593     5.9703    7 C   -1 0 0

   7 C    1     1.1344     2.1437    8 O    1 0 0
   7 C    1     1.3571     2.5645    9 O    0 1 0
   7 C    1     2.7455     5.1882   12 O    0 0 0
   7 C    1     2.9325     5.5416    2 O    0 0 0
   7 C    1     3.0636     5.7893   11 O    1 1 0
   7 C    1     3.1578     5.9674    5 O    0 1 0

   8 O    1     1.1344     2.1437    7 C   -1 0 0
   8 O    1     2.4379     4.6069    9 O   -1 1 0
   8 O    1     2.9669     5.6065   10 C    0 0-1
   8 O    1     3.0019     5.6728    6 O    0 0-1
   8 O    2     3.0754     5.8117    3 O    0 0 0    3 O    0 1 0
   8 O    2     3.0991     5.8564   12 O    0 0 0   12 O   -1 0 0

   9 O    1     1.3571     2.5645    7 C    0-1 0
   9 O    1     2.4379     4.6069    8 O    1-1 0
   9 O    1     2.9298     5.5365   11 O    1 0 0
   9 O    1     2.9717     5.6156    4 C    0 0 0
   9 O    1     3.0397     5.7442    1 C    0 0 0
   9 O    1     3.0816     5.8234    2 O    0 0 0

  10 C    1     1.1729     2.2164   11 O    0 1 0
  10 C    1     1.3710     2.5908   12 O    0 0 1
  10 C    1     2.9026     5.4851    6 O    0 0 0
  10 C    1     2.9669     5.6065    8 O    0 0 1
  10 C    1     3.1818     6.0128    2 O    0 0 0
  10 C    1     3.1858     6.0203    9 O    0 1 0

  11 O    1     1.1729     2.2164   10 C    0-1 0
  11 O    1     2.5335     4.7876   12 O    0-1 1
  11 O    2     2.9298     5.5365    6 O    0-1 0    9 O   -1 0 0
  11 O    1     3.0636     5.7893    7 C   -1-1 0
  11 O    1     3.1093     5.8757    4 C   -1 0 0
  11 O    1     3.1422     5.9379    1 C    0 0 0

  12 O    1     1.3710     2.5908   10 C    0 0-1
  12 O    1     2.5335     4.7876   11 O    0 1-1
  12 O    1     2.7455     5.1882    7 C    0 0 0
  12 O    1     2.9368     5.5497    2 O    0 0 0
  12 O    1     3.0287     5.7234    5 O    0 1 0
  12 O    2     3.0991     5.8564    8 O    0 0 0    8 O    1 0 0


 SYMMETRY ALLOWED INTERNAL DEGREE(S) OF FREEDOM:  33
 TTTTTTTTTTTTTTTTTTTTTTTTTTTTTT SYMM        TELAPSE        0.58 TCPU        0.12
 TTTTTTTTTTTTTTTTTTTTTTTTTTTTTT INT_SCREEN  TELAPSE        0.59 TCPU        0.12
 INFORMATION **** EXCBUF **** EXCH. BIPO BUFFER: WORDS USED =      769572

 DFT PARAMETERS

     ATOM       ELECTRONS   NET CHARGE   R(ANGSTROM)
   1   6  C       6.0000      0.0000     0.77000000
   2   8  O       8.0000      0.0000     0.74000000

 SIZE OF GRID=     423212
 TTTTTTTTTTTTTTTTTTTTTTTTTTTTTT MAKE_GRID2  TELAPSE        1.06 TCPU        0.60
 BECKE WEIGHT FUNCTION
 RADSAFE =     2.00
 TOLERANCES - DENSITY:10**- 6; POTENTIAL:10**- 9; GRID WGT:10**-14

 RADIAL INTEGRATION  - INTERVALS (POINTS,UPPER LIMIT):            1( 75,  4.0*R)

 ANGULAR INTEGRATION - INTERVALS (ACCURACY LEVEL [N. POINTS] UPPER LIMIT):
  1(  4[  86]   0.2)  2(  8[ 194]   0.5)  3( 12[ 350]   0.9)  4( 16[ 974]   3.5)
  5( 12[ 350]9999.0)
 TTTTTTTTTTTTTTTTTTTTTTTTTTTTTT INT_CALC    TELAPSE        1.10 TCPU        0.63
 EEEEEEEEEE INT_CALC TERMINATION  DATE 18 05 2022 TIME 11:30:05.8

 *******************************************************************************
 DRY-ICE                                                                         
 CRYSTAL - SCF - TYPE OF CALCULATION :  RESTRICTED CLOSED SHELL
 *******************************************************************************

 CAPPA:IS1  8;IS2  8;IS3  8; K PTS MONK NET 260; SYMMOPS:K SPACE   2;G SPACE   1

 TTTTTTTTTTTTTTTTTTTTTTTTTTTTTT SDIK        TELAPSE        1.44 TCPU        0.95

 AAAAAAAAAAAAAAAAAAAAAAAAAAAAAAAAAAAAAAAAAAAAAAAAAAAAAAAAAAAAAAAAAAAAAAAAAAAAAAA
         ATOMIC WAVEFUNCTION(S)


 NUCLEAR CHARGE  6.0  SYMMETRY SPECIES            S    P
 N. ELECTRONS    6.0  NUMBER OF PRIMITIVE GTOS   10    6
                      NUMBER OF CONTRACTED GTOS   4    3
                      NUMBER OF CLOSED SHELLS     2    0
                      OPEN SHELL OCCUPATION       0    2

  ZNUC SCFIT  TOTAL HF ENERGY   KINETIC ENERGY   VIRIAL THEOREM ACCURACY
   6.0  10   -3.766702350E+01  3.783137943E+01 -1.995655566E+00  1.6E-06

 NUCLEAR CHARGE  8.0  SYMMETRY SPECIES            S    P
 N. ELECTRONS    8.0  NUMBER OF PRIMITIVE GTOS   10    6
                      NUMBER OF CONTRACTED GTOS   4    3
                      NUMBER OF CLOSED SHELLS     2    0
                      OPEN SHELL OCCUPATION       0    4

  ZNUC SCFIT  TOTAL HF ENERGY   KINETIC ENERGY   VIRIAL THEOREM ACCURACY
   8.0  13   -7.479377997E+01  7.483473100E+01 -1.999452780E+00  5.0E-06

 AAAAAAAAAAAAAAAAAAAAAAAAAAAAAAAAAAAAAAAAAAAAAAAAAAAAAAAAAAAAAAAAAAAAAAAAAAAAAAA

 CHARGE NORMALIZATION FACTOR   1.00000000
 TOTAL ATOMIC CHARGES:
   6.0000000   8.0000000   8.0000000   6.0000000   8.0000000   8.0000000
   6.0000000   8.0000000   8.0000000   6.0000000   8.0000000   8.0000000
 TTTTTTTTTTTTTTTTTTTTTTTTTTTTTT MOQGAD      TELAPSE        1.53 TCPU        1.03
 TTTTTTTTTTTTTTTTTTTTTTTTTTTTTT SHELLX2     TELAPSE       20.85 TCPU       20.30
 TTTTTTTTTTTTTTTTTTTTTTTTTTTTTT MONMO3      TELAPSE       21.45 TCPU       20.90
 NUMERICALLY INTEGRATED DENSITY     88.0000234589
 TTTTTTTTTTTTTTTTTTTTTTTTTTTTTT NUMDFT      TELAPSE       22.56 TCPU       22.01
 CYC   0 ETOT(AU) -7.557445984776E+02 DETOT -7.56E+02 tst  0.00E+00 PX  1.00E+00
 TTTTTTTTTTTTTTTTTTTTTTTTTTTTTT FDIK        TELAPSE       28.07 TCPU       27.48
 INSULATING STATE
 TOP OF VALENCE BANDS -    BAND     44; K    5; EIG -3.6927528E-01 AU
 TOP OF VALENCE BANDS -    BAND     44; K    1; EIG -3.6977597E-01 AU
 BOTTOM OF VIRTUAL BANDS - BAND     45; K    1; EIG -1.0859457E-01 AU
 TTTTTTTTTTTTTTTTTTTTTTTTTTTTTT PDIG        TELAPSE       28.32 TCPU       27.73
 CHARGE NORMALIZATION FACTOR   1.00000000
 TOTAL ATOMIC CHARGES:
   4.5694718   8.6943104   8.7393402   4.6077591   8.8830943   8.5121240
   4.4320039   8.6055343   8.9632707   4.4113721   8.6446372   8.9370820
 TTTTTTTTTTTTTTTTTTTTTTTTTTTTTT MOQGAD      TELAPSE       28.33 TCPU       27.74
 TTTTTTTTTTTTTTTTTTTTTTTTTTTTTT SHELLX2     TELAPSE       48.81 TCPU       48.16
 TTTTTTTTTTTTTTTTTTTTTTTTTTTTTT MONMO3      TELAPSE       49.40 TCPU       48.75
 NUMERICALLY INTEGRATED DENSITY     88.0000233885
 TTTTTTTTTTTTTTTTTTTTTTTTTTTTTT NUMDFT      TELAPSE       52.82 TCPU       52.17
 CYC   1 ETOT(AU) -7.536070334081E+02 DETOT  2.14E+00 tst  0.00E+00 PX  1.00E+00
 TTTTTTTTTTTTTTTTTTTTTTTTTTTTTT FDIK        TELAPSE       55.26 TCPU       54.59
 INSULATING STATE
 TOP OF VALENCE BANDS -    BAND     44; K    5; EIG -2.5473584E-01 AU
 TOP OF VALENCE BANDS -    BAND     44; K    1; EIG -2.5655469E-01 AU
 BOTTOM OF VIRTUAL BANDS - BAND     45; K    1; EIG -9.9116024E-02 AU
 TTTTTTTTTTTTTTTTTTTTTTTTTTTTTT PDIG        TELAPSE       55.52 TCPU       54.85
 CHARGE NORMALIZATION FACTOR   1.00000000
 TOTAL ATOMIC CHARGES:
   5.0502868   8.4660813   8.4883047   5.0804883   8.6228715   8.2978339
   5.0043431   8.3365125   8.6595465   5.0303312   8.3521716   8.6112287
 TTTTTTTTTTTTTTTTTTTTTTTTTTTTTT MOQGAD      TELAPSE       55.53 TCPU       54.86
 TTTTTTTTTTTTTTTTTTTTTTTTTTTTTT SHELLX2     TELAPSE       76.02 TCPU       75.29
 TTTTTTTTTTTTTTTTTTTTTTTTTTTTTT MONMO3      TELAPSE       76.62 TCPU       75.89
 NUMERICALLY INTEGRATED DENSITY     88.0000263471
 TTTTTTTTTTTTTTTTTTTTTTTTTTTTTT NUMDFT      TELAPSE       79.98 TCPU       79.24
 CYC   2 ETOT(AU) -7.540233566887E+02 DETOT -4.16E-01 tst  1.85E-02 PX  1.60E-01
 TTTTTTTTTTTTTTTTTTTTTTTTTTTTTT FDIK        TELAPSE       82.25 TCPU       81.50
 INSULATING STATE
 TOP OF VALENCE BANDS -    BAND     44; K    5; EIG -3.1940400E-01 AU
 TOP OF VALENCE BANDS -    BAND     44; K    1; EIG -3.2088843E-01 AU
 BOTTOM OF VIRTUAL BANDS - BAND     45; K    1; EIG -8.9391344E-02 AU
 TTTTTTTTTTTTTTTTTTTTTTTTTTTTTT PDIG        TELAPSE       82.50 TCPU       81.76
 CHARGE NORMALIZATION FACTOR   1.00000000
 TOTAL ATOMIC CHARGES:
   5.0505965   8.4664568   8.4871739   5.0856611   8.6069883   8.3071650
   5.0251876   8.3418877   8.6333118   5.0424872   8.3618519   8.5912323
 TTTTTTTTTTTTTTTTTTTTTTTTTTTTTT MOQGAD      TELAPSE       82.51 TCPU       81.77
 TTTTTTTTTTTTTTTTTTTTTTTTTTTTTT SHELLX2     TELAPSE      103.00 TCPU      102.20
 TTTTTTTTTTTTTTTTTTTTTTTTTTTTTT MONMO3      TELAPSE      103.61 TCPU      102.80
 NUMERICALLY INTEGRATED DENSITY     88.0000262391
 TTTTTTTTTTTTTTTTTTTTTTTTTTTTTT NUMDFT      TELAPSE      106.97 TCPU      106.16
 CYC   3 ETOT(AU) -7.540421711967E+02 DETOT -1.88E-02 tst  1.84E-04 PX  3.99E-02
 TTTTTTTTTTTTTTTTTTTTTTTTTTTTTT FDIK        TELAPSE      109.19 TCPU      108.37
 INSULATING STATE
 TOP OF VALENCE BANDS -    BAND     44; K    5; EIG -3.3051142E-01 AU
 TOP OF VALENCE BANDS -    BAND     44; K    1; EIG -3.3197185E-01 AU
 BOTTOM OF VIRTUAL BANDS - BAND     45; K    1; EIG -8.3082207E-02 AU
 TTTTTTTTTTTTTTTTTTTTTTTTTTTTTT PDIG        TELAPSE      109.48 TCPU      108.66
 CHARGE NORMALIZATION FACTOR   1.00000000
 TOTAL ATOMIC CHARGES:
   5.0019119   8.4903023   8.5115674   5.0383008   8.6276887   8.3331584
   4.9754662   8.3700949   8.6548527   4.9882132   8.3915380   8.6169054
 TTTTTTTTTTTTTTTTTTTTTTTTTTTTTT MOQGAD      TELAPSE      109.49 TCPU      108.66
 TTTTTTTTTTTTTTTTTTTTTTTTTTTTTT SHELLX2     TELAPSE      129.97 TCPU      129.09
 TTTTTTTTTTTTTTTTTTTTTTTTTTTTTT MONMO3      TELAPSE      130.56 TCPU      129.68
 NUMERICALLY INTEGRATED DENSITY     88.0000259368
 TTTTTTTTTTTTTTTTTTTTTTTTTTTTTT NUMDFT      TELAPSE      133.92 TCPU      133.03
 CYC   4 ETOT(AU) -7.540477085517E+02 DETOT -5.54E-03 tst  5.27E-05 PX  2.81E-02
 TTTTTTTTTTTTTTTTTTTTTTTTTTTTTT FDIK        TELAPSE      136.03 TCPU      135.13
 INSULATING STATE
 TOP OF VALENCE BANDS -    BAND     44; K    5; EIG -3.2303734E-01 AU
 TOP OF VALENCE BANDS -    BAND     44; K    1; EIG -3.2458554E-01 AU
 BOTTOM OF VIRTUAL BANDS - BAND     45; K    1; EIG -7.9580647E-02 AU
 TTTTTTTTTTTTTTTTTTTTTTTTTTTTTT PDIG        TELAPSE      136.29 TCPU      135.39
 CHARGE NORMALIZATION FACTOR   1.00000000
 TOTAL ATOMIC CHARGES:
   5.0034297   8.4903369   8.5099969   5.0398443   8.6238270   8.3352087
   4.9814012   8.3697494   8.6491753   4.9971164   8.3891454   8.6107686
 TTTTTTTTTTTTTTTTTTTTTTTTTTTTTT MOQGAD      TELAPSE      136.30 TCPU      135.39
 TTTTTTTTTTTTTTTTTTTTTTTTTTTTTT SHELLX2     TELAPSE      156.79 TCPU      155.83
 TTTTTTTTTTTTTTTTTTTTTTTTTTTTTT MONMO3      TELAPSE      157.36 TCPU      156.40
 NUMERICALLY INTEGRATED DENSITY     88.0000259896
 TTTTTTTTTTTTTTTTTTTTTTTTTTTTTT NUMDFT      TELAPSE      160.73 TCPU      159.76
 CYC   5 ETOT(AU) -7.540481747486E+02 DETOT -4.66E-04 tst  2.33E-05 PX  6.38E-03
 TTTTTTTTTTTTTTTTTTTTTTTTTTTTTT FDIK        TELAPSE      162.73 TCPU      161.75
 INSULATING STATE
 TOP OF VALENCE BANDS -    BAND     44; K    5; EIG -3.2294392E-01 AU
 TOP OF VALENCE BANDS -    BAND     44; K    1; EIG -3.2446527E-01 AU
 BOTTOM OF VIRTUAL BANDS - BAND     45; K    1; EIG -7.9211606E-02 AU
 TTTTTTTTTTTTTTTTTTTTTTTTTTTTTT PDIG        TELAPSE      162.99 TCPU      162.00
 CHARGE NORMALIZATION FACTOR   1.00000000
 TOTAL ATOMIC CHARGES:
   5.0082824   8.4880132   8.5074851   5.0450700   8.6202755   8.3334217
   4.9881932   8.3676956   8.6443361   5.0038567   8.3870164   8.6063539
 TTTTTTTTTTTTTTTTTTTTTTTTTTTTTT MOQGAD      TELAPSE      162.99 TCPU      162.01
 TTTTTTTTTTTTTTTTTTTTTTTTTTTTTT SHELLX2     TELAPSE      183.47 TCPU      182.43
 TTTTTTTTTTTTTTTTTTTTTTTTTTTTTT MONMO3      TELAPSE      184.09 TCPU      183.05
 NUMERICALLY INTEGRATED DENSITY     88.0000260380
 TTTTTTTTTTTTTTTTTTTTTTTTTTTTTT NUMDFT      TELAPSE      187.45 TCPU      186.40
 CYC   6 ETOT(AU) -7.540482783325E+02 DETOT -1.04E-04 tst  1.33E-05 PX  2.03E-03
 TTTTTTTTTTTTTTTTTTTTTTTTTTTTTT FDIK        TELAPSE      189.46 TCPU      188.41
 INSULATING STATE
 TOP OF VALENCE BANDS -    BAND     44; K    5; EIG -3.2416511E-01 AU
 TOP OF VALENCE BANDS -    BAND     44; K    1; EIG -3.2567254E-01 AU
 BOTTOM OF VIRTUAL BANDS - BAND     45; K    1; EIG -7.9341102E-02 AU
 TTTTTTTTTTTTTTTTTTTTTTTTTTTTTT PDIG        TELAPSE      189.72 TCPU      188.66
 CHARGE NORMALIZATION FACTOR   1.00000000
 TOTAL ATOMIC CHARGES:
   5.0080165   8.4880084   8.5077439   5.0449595   8.6202818   8.3334573
   4.9879522   8.3681990   8.6440129   5.0029733   8.3877785   8.6066166
 TTTTTTTTTTTTTTTTTTTTTTTTTTTTTT MOQGAD      TELAPSE      189.72 TCPU      188.67
 TTTTTTTTTTTTTTTTTTTTTTTTTTTTTT SHELLX2     TELAPSE      210.21 TCPU      209.09
 TTTTTTTTTTTTTTTTTTTTTTTTTTTTTT MONMO3      TELAPSE      210.80 TCPU      209.68
 NUMERICALLY INTEGRATED DENSITY     88.0000260361
 TTTTTTTTTTTTTTTTTTTTTTTTTTTTTT NUMDFT      TELAPSE      214.16 TCPU      213.03
 CYC   7 ETOT(AU) -7.540483205584E+02 DETOT -4.22E-05 tst  4.54E-06 PX  1.61E-03
 TTTTTTTTTTTTTTTTTTTTTTTTTTTTTT FDIK        TELAPSE      216.04 TCPU      214.90
 INSULATING STATE
 TOP OF VALENCE BANDS -    BAND     44; K    5; EIG -3.2429537E-01 AU
 TOP OF VALENCE BANDS -    BAND     44; K    1; EIG -3.2580467E-01 AU
 BOTTOM OF VIRTUAL BANDS - BAND     45; K    1; EIG -7.9325001E-02 AU
 TTTTTTTTTTTTTTTTTTTTTTTTTTTTTT PDIG        TELAPSE      216.29 TCPU      215.15
 CHARGE NORMALIZATION FACTOR   1.00000000
 TOTAL ATOMIC CHARGES:
   5.0075681   8.4882034   8.5079905   5.0445074   8.6203687   8.3337777
   4.9876771   8.3686383   8.6438111   5.0026768   8.3881560   8.6066250
 TTTTTTTTTTTTTTTTTTTTTTTTTTTTTT MOQGAD      TELAPSE      216.30 TCPU      215.16
 TTTTTTTTTTTTTTTTTTTTTTTTTTTTTT SHELLX2     TELAPSE      236.78 TCPU      235.59
 TTTTTTTTTTTTTTTTTTTTTTTTTTTTTT MONMO3      TELAPSE      237.36 TCPU      236.16
 NUMERICALLY INTEGRATED DENSITY     88.0000260309
 TTTTTTTTTTTTTTTTTTTTTTTTTTTTTT NUMDFT      TELAPSE      240.72 TCPU      239.51
 CYC   8 ETOT(AU) -7.540483343097E+02 DETOT -1.38E-05 tst  2.51E-06 PX  1.14E-03
 TTTTTTTTTTTTTTTTTTTTTTTTTTTTTT FDIK        TELAPSE      242.47 TCPU      241.26
 INSULATING STATE
 TOP OF VALENCE BANDS -    BAND     44; K    5; EIG -3.2427670E-01 AU
 TOP OF VALENCE BANDS -    BAND     44; K    1; EIG -3.2578581E-01 AU
 BOTTOM OF VIRTUAL BANDS - BAND     45; K    1; EIG -7.9299756E-02 AU
 TTTTTTTTTTTTTTTTTTTTTTTTTTTTTT PDIG        TELAPSE      242.73 TCPU      241.52
 CHARGE NORMALIZATION FACTOR   1.00000000
 TOTAL ATOMIC CHARGES:
   5.0076222   8.4881641   8.5079754   5.0445564   8.6202314   8.3338353
   4.9879547   8.3687369   8.6434101   5.0029648   8.3882146   8.6063341
 TTTTTTTTTTTTTTTTTTTTTTTTTTTTTT MOQGAD      TELAPSE      242.74 TCPU      241.52
 TTTTTTTTTTTTTTTTTTTTTTTTTTTTTT SHELLX2     TELAPSE      263.22 TCPU      261.95
 TTTTTTTTTTTTTTTTTTTTTTTTTTTTTT MONMO3      TELAPSE      263.83 TCPU      262.56
 NUMERICALLY INTEGRATED DENSITY     88.0000260302
 TTTTTTTTTTTTTTTTTTTTTTTTTTTTTT NUMDFT      TELAPSE      267.19 TCPU      265.91
 CYC   9 ETOT(AU) -7.540483393319E+02 DETOT -5.02E-06 tst  1.47E-06 PX  8.16E-04
 TTTTTTTTTTTTTTTTTTTTTTTTTTTTTT FDIK        TELAPSE      268.99 TCPU      267.70
 INSULATING STATE
 TOP OF VALENCE BANDS -    BAND     44; K    5; EIG -3.2433569E-01 AU
 TOP OF VALENCE BANDS -    BAND     44; K    1; EIG -3.2584350E-01 AU
 BOTTOM OF VIRTUAL BANDS - BAND     45; K    1; EIG -7.9295286E-02 AU
 TTTTTTTTTTTTTTTTTTTTTTTTTTTTTT PDIG        TELAPSE      271.80 TCPU      270.51
 CHARGE NORMALIZATION FACTOR   1.00000000
 TOTAL ATOMIC CHARGES:
   5.0076585   8.4881247   8.5079775   5.0445962   8.6201690   8.3338382
   4.9880724   8.3688154   8.6431959   5.0030429   8.3882871   8.6062221
 TTTTTTTTTTTTTTTTTTTTTTTTTTTTTT MOQGAD      TELAPSE      271.81 TCPU      270.51
 TTTTTTTTTTTTTTTTTTTTTTTTTTTTTT SHELLX2     TELAPSE      292.30 TCPU      290.95
 TTTTTTTTTTTTTTTTTTTTTTTTTTTTTT MONMO3      TELAPSE      292.89 TCPU      291.53
 NUMERICALLY INTEGRATED DENSITY     88.0000260298
 TTTTTTTTTTTTTTTTTTTTTTTTTTTTTT NUMDFT      TELAPSE      296.25 TCPU      294.89
 CYC  10 ETOT(AU) -7.540483417065E+02 DETOT -2.37E-06 tst  7.65E-07 PX  5.92E-04
 TTTTTTTTTTTTTTTTTTTTTTTTTTTTTT FDIK        TELAPSE      298.08 TCPU      296.70
 INSULATING STATE
 TOP OF VALENCE BANDS -    BAND     44; K    5; EIG -3.2437484E-01 AU
 TOP OF VALENCE BANDS -    BAND     44; K    1; EIG -3.2588231E-01 AU
 BOTTOM OF VIRTUAL BANDS - BAND     45; K    1; EIG -7.9294438E-02 AU
 TTTTTTTTTTTTTTTTTTTTTTTTTTTTTT PDIG        TELAPSE      298.33 TCPU      296.96
 CHARGE NORMALIZATION FACTOR   1.00000000
 TOTAL ATOMIC CHARGES:
   5.0076392   8.4881204   8.5080005   5.0445711   8.6201529   8.3338656
   4.9880807   8.3689076   8.6430833   5.0030256   8.3883724   8.6061808
 TTTTTTTTTTTTTTTTTTTTTTTTTTTTTT MOQGAD      TELAPSE      298.34 TCPU      296.96
 TTTTTTTTTTTTTTTTTTTTTTTTTTTTTT SHELLX2     TELAPSE      318.82 TCPU      317.39
 TTTTTTTTTTTTTTTTTTTTTTTTTTTTTT MONMO3      TELAPSE      319.43 TCPU      318.00
 NUMERICALLY INTEGRATED DENSITY     88.0000260292
 TTTTTTTTTTTTTTTTTTTTTTTTTTTTTT NUMDFT      TELAPSE      322.80 TCPU      321.36
 CYC  11 ETOT(AU) -7.540483428618E+02 DETOT -1.16E-06 tst  4.07E-07 PX  4.30E-04
 TTTTTTTTTTTTTTTTTTTTTTTTTTTTTT FDIK        TELAPSE      324.53 TCPU      323.08
 INSULATING STATE
 TOP OF VALENCE BANDS -    BAND     44; K    5; EIG -3.2439234E-01 AU
 TOP OF VALENCE BANDS -    BAND     44; K    1; EIG -3.2589974E-01 AU
 BOTTOM OF VIRTUAL BANDS - BAND     45; K    1; EIG -7.9293602E-02 AU
 TTTTTTTTTTTTTTTTTTTTTTTTTTTTTT PDIG        TELAPSE      324.78 TCPU      323.34
 CHARGE NORMALIZATION FACTOR   1.00000000
 TOTAL ATOMIC CHARGES:
   5.0076279   8.4881168   8.5080153   5.0445535   8.6201394   8.3338867
   4.9880884   8.3689730   8.6430017   5.0030231   8.3884300   8.6061442
 TTTTTTTTTTTTTTTTTTTTTTTTTTTTTT MOQGAD      TELAPSE      324.79 TCPU      323.34
 TTTTTTTTTTTTTTTTTTTTTTTTTTTTTT SHELLX2     TELAPSE      345.27 TCPU      343.76
 TTTTTTTTTTTTTTTTTTTTTTTTTTTTTT MONMO3      TELAPSE      345.88 TCPU      344.37
 NUMERICALLY INTEGRATED DENSITY     88.0000260288
 TTTTTTTTTTTTTTTTTTTTTTTTTTTTTT NUMDFT      TELAPSE      349.25 TCPU      347.73
 CYC  12 ETOT(AU) -7.540483433850E+02 DETOT -5.23E-07 tst  2.24E-07 PX  3.12E-04
 TTTTTTTTTTTTTTTTTTTTTTTTTTTTTT FDIK        TELAPSE      351.01 TCPU      349.49
 INSULATING STATE
 TOP OF VALENCE BANDS -    BAND     44; K    5; EIG -3.2440476E-01 AU
 TOP OF VALENCE BANDS -    BAND     44; K    1; EIG -3.2591204E-01 AU
 BOTTOM OF VIRTUAL BANDS - BAND     45; K    1; EIG -7.9293414E-02 AU
 TTTTTTTTTTTTTTTTTTTTTTTTTTTTTT PDIG        TELAPSE      351.27 TCPU      349.74
 CHARGE NORMALIZATION FACTOR   1.00000000
 TOTAL ATOMIC CHARGES:
   5.0076246   8.4881129   8.5080227   5.0445449   8.6201277   8.3339001
   4.9880933   8.3690201   8.6429438   5.0030245   8.3884684   8.6061171
 TTTTTTTTTTTTTTTTTTTTTTTTTTTTTT MOQGAD      TELAPSE      351.28 TCPU      349.75
 TTTTTTTTTTTTTTTTTTTTTTTTTTTTTT SHELLX2     TELAPSE      371.76 TCPU      370.18
 +++ ENERGIES IN A.U. +++
 ::: EXT EL-POLE                                  -8.0624629226231E+02
 ::: EXT EL-SPHEROPOLE                             9.9639052015977E+00
 ::: BIELET ZONE E-E                               1.0111589253083E+03
 ::: TOTAL E-E                                     2.1487653824761E+02
 ::: TOTAL E-N + N-E                              -1.4974494792001E+03
 ::: TOTAL N-N                                    -1.4950338798840E+02
 ::: KINETIC ENERGY                                7.5050597730760E+02
 ::: PSEUDO TOTAL   ENERGY                        -6.8157035163330E+02
 ::: VIRIAL COEFFICIENT                            1.0481368375981E+00
 TTTTTTTTTTTTTTTTTTTTTTTTTTTTTT MONMO3      TELAPSE      372.33 TCPU      370.75
 NUMERICALLY INTEGRATED DENSITY     88.0000260286
 TTTTTTTTTTTTTTTTTTTTTTTTTTTTTT NUMDFT      TELAPSE      375.69 TCPU      374.10
 CYC  13 ETOT(AU) -7.540483436541E+02 DETOT -2.69E-07 tst  1.23E-07 PX  3.12E-04

 == SCF ENDED - CONVERGENCE ON ENERGY      E(AU) -7.5404834365410E+02 CYCLES  13


 ENERGY EXPRESSION=HARTREE+FOCK EXCH*0.20000+(BECKE      EXCH)*0.80000+LYP        CORR


 TOTAL ENERGY(DFT)(AU)( 13) -7.5404834365410E+02 DE-2.7E-07 tester 1.2E-07
 TTTTTTTTTTTTTTTTTTTTTTTTTTTTTT EDFT        TELAPSE      375.69 TCPU      374.10
 EIGENVECTORS IN FORTRAN UNIT 10
 TTTTTTTTTTTTTTTTTTTTTTTTTTTTTT END         TELAPSE      375.96 TCPU      374.35
 EEEEEEEEEE TERMINATION  DATE 18 05 2022 TIME 11:36:20.6
NODE    0 CPU TIME =       374.346
NODE    1 CPU TIME =       374.325
NODE    2 CPU TIME =       374.328
NODE    3 CPU TIME =       374.351
NODE    4 CPU TIME =       374.409
NODE    5 CPU TIME =       374.426
NODE    6 CPU TIME =       374.289
NODE    7 CPU TIME =       371.742
NODE    8 CPU TIME =       374.360
NODE    9 CPU TIME =       371.884
    TOTAL CPU TIME =      3738.460
