          10 PROCESSORS WORKING

         
 *******************************************************************************
 *                                                                             *
 *                               CRYSTAL14                                     *
 *                      public : 1.0.4 - Feb 23rd, 2016                        *
 *                       HTTP://WWW.CRYSTAL.UNITO.IT                           *
 *                                                                             *
 *                              MAIN AUTHORS                                   *
 *                                                                             *
 *  R. DOVESI(1,11), V.R. SAUNDERS(2), C. ROETTI(1,11), R. ORLANDO(1,11),      *
 *  C.M. ZICOVICH-WILSON(1,3), F. PASCALE(4), B. CIVALLERI(1,11),              *
 *  K. DOLL(5), N.M. HARRISON(2,6), I. J. BUSH(7), Ph. D'ARCO(8),              *
 *  M. LLUNELL(9), M. CAUSA'(10), Y. NOEL(8)                                   *
 *                                                                             *
 *        CONTRIBUTIONS TO THE CURRENT RELEASE HAVE BEEN GIVEN BY              *
 *                                                                             *
 *  L. MASCHIO(1,11), S. CASASSA(1,11), A. ERBA(1,11), M. FERRABONE(1,11),     *
 *  M. DE LA PIERRE(1,11), M. FERRERO(1,11), V. LACIVITA(1,11),                *
 *  J. BAIMA(1,11), E. ALBANESE(1,11), M.F. PEINTINGER(12), R. BAST(13),       *
 *  M. RERAT(14), B. KIRTMAN(15), R. DEMICHELIS(1,16)                          *
 *                                                                             *
 * (1) THEORETICAL CHEMISTRY GROUP - UNIVERSITA' DI TORINO - TORINO (ITALY)    *
 *     http://www.crystal.unito.it                                             *
 * (2) COMPUTATIONAL SCIENCE & ENGINEERING DEPARTMENT - STFC DARESBURY (UK)    *
 *     http://www.stfc.ac.uk/CSE/randd/cmg/CRYSTAL/25806.aspx                  *
 * (3) UNIVERSIDAD AUTONOMA DEL ESTADO DE MORELOS - CUERNAVACA (MEXICO)        *
 * (4) UNIVERSITE' DE LORRAINE - NANCY (FRANCE)                                *
 * (5) UNIVERSITAET ULM - ULM (GERMANY); (6) IMPERIAL COLLEGE - LONDON (UK)    *
 * (7) NAG - OXFORD (UK); (8) UPMC - SORBONNE UNIVERSITES - PARIS (FRANCE)     *
 * (9) UNIVERSIDAD DE BARCELONA - BARCELONA (SPAIN)                            *
 *(10) UNIVERSITA' DI NAPOLI "FEDERICO II" - NAPOLI (ITALY)                    *
 *(11) NIS - NANOSTRUCTURED INTERFACES AND SURFACES - TORINO (ITALY)           *
 *(12) MPI FUER CHEMISCHE ENERGIEKONVERSION - MUELHEIM AN DER RUHR (GERMANY)   *
 *(13) UNIVERSITY OF STOCKHOLM - STOCKHOLM (SWEDEN)                            *
 *(14) UNIVERSITE' DE PAU ET DES PAYS DE L'ADOUR - PAU (FRANCE)                *
 *(15) UNIVERSITY OF CALIFORNIA SANTA BARBARA - SANTA BARBARA (USA)            *
 *(16) CURTIN UNIVERSITY - PERTH (AUSTRALIA)                                   *
 *                                                                             *
 ********************************************************************************
 EEEEEEEEEE STARTING  DATE 18 05 2022 TIME 13:39:23.9
 DRY-ICE                                                                         

 CRYSTAL CALCULATION
 (INPUT ACCORDING TO THE INTERNATIONAL TABLES FOR X-RAY CRYSTALLOGRAPHY)
 CRYSTAL FAMILY                       :  TRICLINIC   
 CRYSTAL CLASS  (GROTH - 1921)        :  TRICLINIC PEDIAL                     

 SPACE GROUP (NONCENTROSYMMETRIC)     :  P 1             

 LATTICE PARAMETERS  (ANGSTROMS AND DEGREES) - CONVENTIONAL CELL
        A           B           C        ALPHA        BETA       GAMMA
     5.63000     5.63000     5.63000    90.00000    90.00000    90.00000


 NUMBER OF IRREDUCIBLE ATOMS IN THE CONVENTIONAL CELL:   12

 INPUT COORDINATES

 ATOM AT. N.              COORDINATES
   1   6     0.000000000000E+00  0.000000000000E+00  0.000000000000E+00
   2   8     1.400000000000E-01  1.000000000000E-01  1.200000000000E-01
   3   8    -1.300000000000E-01 -1.300000000000E-01 -9.000000000000E-02
   4   6     5.000000000000E-01  2.000000000000E-02  4.900000000000E-01
   5   8     3.700000000000E-01 -9.000000000000E-02 -3.600000000000E-01
   6   8    -4.200000000000E-01  1.200000000000E-01  3.600000000000E-01
   7   6     4.800000000000E-01  5.000000000000E-01  1.000000000000E-02
   8   8    -4.100000000000E-01  3.700000000000E-01 -1.400000000000E-01
   9   8     3.900000000000E-01 -3.900000000000E-01  1.400000000000E-01
  10   6    -2.000000000000E-02  5.000000000000E-01  4.900000000000E-01
  11   8    -1.600000000000E-01 -3.800000000000E-01  4.000000000000E-01
  12   8     1.000000000000E-01  4.000000000000E-01 -3.600000000000E-01

 *******************************************************************************

 << INFORMATION >>: FROM NOW ON, ALL COORDINATES REFER TO THE PRIMITIVE CELL

 *******************************************************************************

 LATTICE PARAMETERS  (ANGSTROMS AND DEGREES) - PRIMITIVE CELL
       A          B          C        ALPHA      BETA     GAMMA        VOLUME
    5.63000    5.63000    5.63000    90.00000  90.00000  90.00000    178.453547

 COORDINATES OF THE EQUIVALENT ATOMS (FRACTIONAL UNITS)

 N. ATOM EQUIV AT. N.          X                  Y                  Z

   1   1   1    6 C     0.00000000000E+00  0.00000000000E+00  0.00000000000E+00

   2   2   1    8 O     1.40000000000E-01  1.00000000000E-01  1.20000000000E-01

   3   3   1    8 O    -1.30000000000E-01 -1.30000000000E-01 -9.00000000000E-02

   4   4   1    6 C    -5.00000000000E-01  2.00000000000E-02  4.90000000000E-01

   5   5   1    8 O     3.70000000000E-01 -9.00000000000E-02 -3.60000000000E-01

   6   6   1    8 O    -4.20000000000E-01  1.20000000000E-01  3.60000000000E-01

   7   7   1    6 C     4.80000000000E-01 -5.00000000000E-01  1.00000000000E-02

   8   8   1    8 O    -4.10000000000E-01  3.70000000000E-01 -1.40000000000E-01

   9   9   1    8 O     3.90000000000E-01 -3.90000000000E-01  1.40000000000E-01

  10  10   1    6 C    -2.00000000000E-02 -5.00000000000E-01  4.90000000000E-01

  11  11   1    8 O    -1.60000000000E-01 -3.80000000000E-01  4.00000000000E-01

  12  12   1    8 O     1.00000000000E-01  4.00000000000E-01 -3.60000000000E-01

 NUMBER OF SYMMETRY OPERATORS         :    1
 *******************************************************************************
 * GEOMETRY EDITING - INPUT COORDINATES ARE GIVEN IN ANGSTROM         
 *******************************************************************************

 GCALCO - MAX INDICES DIRECT LATTICE VECTOR    14    14    14
 NO.OF VECTORS CREATED 6999 STARS  120 RMAX   126.33300 BOHR

 GEOMETRY FOR WAVE FUNCTION - DIMENSIONALITY OF THE SYSTEM    3
 (NON PERIODIC DIRECTION: LATTICE PARAMETER FORMALLY SET TO 500)
 *******************************************************************************
 LATTICE PARAMETERS (ANGSTROMS AND DEGREES) - BOHR = 0.5291772083 ANGSTROM
 PRIMITIVE CELL - CENTRING CODE 1/0 VOLUME=   178.453547 - DENSITY  1.637 g/cm^3
         A              B              C           ALPHA      BETA       GAMMA 
     5.63000000     5.63000000     5.63000000    90.000000  90.000000  90.000000
 *******************************************************************************
 ATOMS IN THE ASYMMETRIC UNIT   12 - ATOMS IN THE UNIT CELL:   12
     ATOM              X/A                 Y/B                 Z/C    
 *******************************************************************************
   1 T   6 C     0.000000000000E+00  0.000000000000E+00  0.000000000000E+00
   2 T   8 O     1.400000000000E-01  1.000000000000E-01  1.200000000000E-01
   3 T   8 O    -1.300000000000E-01 -1.300000000000E-01 -9.000000000000E-02
   4 T   6 C     5.000000000000E-01  2.000000000000E-02  4.900000000000E-01
   5 T   8 O     3.700000000000E-01 -9.000000000000E-02 -3.600000000000E-01
   6 T   8 O    -4.200000000000E-01  1.200000000000E-01  3.600000000000E-01
   7 T   6 C     4.800000000000E-01  5.000000000000E-01  1.000000000000E-02
   8 T   8 O    -4.100000000000E-01  3.700000000000E-01 -1.400000000000E-01
   9 T   8 O     3.900000000000E-01 -3.900000000000E-01  1.400000000000E-01
  10 T   6 C    -2.000000000000E-02  5.000000000000E-01  4.900000000000E-01
  11 T   8 O    -1.600000000000E-01 -3.800000000000E-01  4.000000000000E-01
  12 T   8 O     1.000000000000E-01  4.000000000000E-01 -3.600000000000E-01

 T = ATOM BELONGING TO THE ASYMMETRIC UNIT

 ****    1 SYMMOPS - TRANSLATORS IN FRACTIONAL UNITS
 **** MATRICES AND TRANSLATORS IN THE CRYSTALLOGRAPHIC REFERENCE FRAME
   V INV                    ROTATION MATRICES                   TRANSLATORS
   1   1  1.00  0.00  0.00  0.00  1.00  0.00  0.00  0.00  1.00  0.00  0.00  0.00

 DIRECT LATTICE VECTORS CARTESIAN COMPONENTS (ANGSTROM)
          X                    Y                    Z
   0.563000000000E+01   0.344738073960E-15   0.000000000000E+00
   0.000000000000E+00   0.563000000000E+01   0.000000000000E+00
   0.344738073960E-15   0.344738073960E-15   0.563000000000E+01


 CARTESIAN COORDINATES - PRIMITIVE CELL
 *******************************************************************************
 *      ATOM          X(ANGSTROM)         Y(ANGSTROM)         Z(ANGSTROM)
 *******************************************************************************
    1     6 C     0.000000000000E+00  0.000000000000E+00  0.000000000000E+00
    2     8 O     7.882000000000E-01  5.630000000000E-01  6.756000000000E-01
    3     8 O    -7.319000000000E-01 -7.319000000000E-01 -5.067000000000E-01
    4     6 C     2.815000000000E+00  1.126000000000E-01  2.758700000000E+00
    5     8 O     2.083100000000E+00 -5.067000000000E-01 -2.026800000000E+00
    6     8 O    -2.364600000000E+00  6.756000000000E-01  2.026800000000E+00
    7     6 C     2.702400000000E+00  2.815000000000E+00  5.630000000000E-02
    8     8 O    -2.308300000000E+00  2.083100000000E+00 -7.882000000000E-01
    9     8 O     2.195700000000E+00 -2.195700000000E+00  7.882000000000E-01
   10     6 C    -1.126000000000E-01  2.815000000000E+00  2.758700000000E+00
   11     8 O    -9.008000000000E-01 -2.139400000000E+00  2.252000000000E+00
   12     8 O     5.630000000000E-01  2.252000000000E+00 -2.026800000000E+00

 *******************************************************************************
 STARTING BASIS SET HANDLING 
 *******************************************************************************

 Loading internal basis set: POB-TZVP            

 Please cite in your publication:
 Peintinger, M. F., Oliveira, D. V. and Bredow, T. (2013), Consistent Gaussian b
 asis sets of triple-zeta valence with polarization quality for solid-state calc
 ulations. J. Comput. Chem., 34: 451–459. doi: 10.1002/jcc.23153              
                    

 *******************************************************************************
 LOCAL ATOMIC FUNCTIONS BASIS SET
 *******************************************************************************
   ATOM   X(AU)   Y(AU)   Z(AU)  N. TYPE  EXPONENT  S COEF   P COEF   D/F/G COEF
 *******************************************************************************
   1 C    0.000   0.000   0.000
                                  1 S  
                                         1.358E+04 2.225E-04 0.000E+00 0.000E+00
                                         2.035E+03 1.723E-03 0.000E+00 0.000E+00
                                         4.632E+02 8.926E-03 0.000E+00 0.000E+00
                                         1.312E+02 3.573E-02 0.000E+00 0.000E+00
                                         4.285E+01 1.108E-01 0.000E+00 0.000E+00
                                         1.558E+01 2.430E-01 0.000E+00 0.000E+00
                                  2 S  
                                         6.207E+00 4.144E-01 0.000E+00 0.000E+00
                                         2.576E+00 2.374E-01 0.000E+00 0.000E+00
                                  3 S  
                                         4.941E-01 1.000E+00 0.000E+00 0.000E+00
                                  4 S  
                                         1.644E-01 1.000E+00 0.000E+00 0.000E+00
                             5-   7 P  
                                         3.470E+01 0.000E+00 5.333E-03 0.000E+00
                                         7.958E+00 0.000E+00 3.586E-02 0.000E+00
                                         2.378E+00 0.000E+00 1.422E-01 0.000E+00
                                         8.143E-01 0.000E+00 3.427E-01 0.000E+00
                             8-  10 P  
                                         5.662E-01 0.000E+00 1.000E+00 0.000E+00
                            11-  13 P  
                                         2.674E-01 0.000E+00 1.000E+00 0.000E+00
                            14-  18 D  
                                         8.792E-01 0.000E+00 0.000E+00 1.000E+00
   2 O    1.489   1.064   1.277
                                 19 S  
                                         2.703E+04 2.173E-04 0.000E+00 0.000E+00
                                         4.052E+03 1.684E-03 0.000E+00 0.000E+00
                                         9.223E+02 8.740E-03 0.000E+00 0.000E+00
                                         2.612E+02 3.524E-02 0.000E+00 0.000E+00
                                         8.535E+01 1.115E-01 0.000E+00 0.000E+00
                                         3.104E+01 2.559E-01 0.000E+00 0.000E+00
                                 20 S  
                                         1.226E+01 3.977E-01 0.000E+00 0.000E+00
                                         4.999E+00 2.463E-01 0.000E+00 0.000E+00
                                 21 S  
                                         8.479E-01 1.000E+00 0.000E+00 0.000E+00
                                 22 S  
                                         1.851E-01 1.000E+00 0.000E+00 0.000E+00
                            23-  25 P  
                                         6.327E+01 0.000E+00 6.069E-03 0.000E+00
                                         1.463E+01 0.000E+00 4.191E-02 0.000E+00
                                         4.450E+00 0.000E+00 1.615E-01 0.000E+00
                                         1.528E+00 0.000E+00 3.571E-01 0.000E+00
                            26-  28 P  
                                         5.490E-01 0.000E+00 1.000E+00 0.000E+00
                            29-  31 P  
                                         1.824E-01 0.000E+00 1.000E+00 0.000E+00
                            32-  36 D  
                                         5.000E-01 0.000E+00 0.000E+00 1.000E+00
   3 O   -1.383  -1.383  -0.958
   4 C    5.320   0.213   5.213
   5 O    3.936  -0.958  -3.830
   6 O   -4.468   1.277   3.830
   7 C    5.107   5.320   0.106
   8 O   -4.362   3.936  -1.489
   9 O    4.149  -4.149   1.489
  10 C   -0.213   5.320   5.213
  11 O   -1.702  -4.043   4.256
  12 O    1.064   4.256  -3.830

 *******************************************************************************
 FINISHED BASIS SET HANDLING 
 *******************************************************************************

 INFORMATION **** SET_MPP **** PCRYSTAL CALCULATION
 INFORMATION **** READM2 **** NEW DEFAULT: FOCK/KS MATRIX MIXING SET TO 30 %
 INFORMATION **** READM2 **** NEW DEFAULT: FULL DIRECT SCF MODE
 INFORMATION **** READM2 **** NEW DEFAULT: COULOMB BIPOLAR BUFFER SET TO 32 Mb
 INFORMATION **** READM2 **** NEW DEFAULT: EXCHANGE BIPOLAR BUFFER SET TO 32 Mb

 *******************************************************************************
 NEW DEFAULT: DFT INTEGRATION GRID INCREASED TO XLGRID
 NEW DEFAULT: LEVEL SHIFTER 6 0
 IF THE SYSTEM IS A METAL USE KEYWORD NOSHIFT
 *******************************************************************************

 *******************************************************************************
 N. OF ATOMS PER CELL        12  COULOMB OVERLAP TOL         (T1) 10**   -6
 NUMBER OF SHELLS            96  COULOMB PENETRATION TOL     (T2) 10**   -6
 NUMBER OF AO               216  EXCHANGE OVERLAP TOL        (T3) 10**   -6
 N. OF ELECTRONS PER CELL    88  EXCHANGE PSEUDO OVP (F(G))  (T4) 10**   -6
 CORE ELECTRONS PER CELL     24  EXCHANGE PSEUDO OVP (P(G))  (T5) 10**  -12
 N. OF SYMMETRY OPERATORS     1  POLE ORDER IN MONO ZONE                  4
 *******************************************************************************
 TYPE OF CALCULATION :  RESTRICTED CLOSED SHELL
 KOHN-SHAM HAMILTONIAN

 (EXCHANGE)[CORRELATION] FUNCTIONAL:(BECKE 88)[LEE-YANG-PARR]

 NON-LOCAL WEIGHTING FACTOR (EXCHANGE) =           0.9000
 NON-LOCAL WEIGHTING FACTOR [CORRELATION] =        0.8100

 HYBRID EXCHANGE - PERCENTAGE OF FOCK EXCHANGE    20.0000
 EIGENVALUE LEVEL SHIFTING OF  0.600 HARTREE

 CAPPA:IS1  8;IS2  8;IS3  8; K PTS MONK NET 260; SYMMOPS:K SPACE   2;G SPACE   1

 *******************************************************************************
 MAX NUMBER OF SCF CYCLES      50  CONVERGENCE ON DELTAP        10**-16
 WEIGHT OF F(I) IN F(I+1)      30% CONVERGENCE ON ENERGY        10**- 6
 EIGENVALUE LEVEL SHIFTING OF  0.600 HARTREE
 SHRINK. FACT.(MONKH.)    8  8  8  NUMBER OF K POINTS IN THE IBZ    260
 SHRINKING FACTOR(GILAT NET)    8  NUMBER OF K POINTS(GILAT NET)    260
 *******************************************************************************
 *** K POINTS COORDINATES (OBLIQUE COORDINATES IN UNITS OF IS =  8)
   1-R(  0  0  0)   2-C(  1  0  0)   3-C(  2  0  0)   4-C(  3  0  0)
   5-R(  4  0  0)   6-C(  0  1  0)   7-C(  1  1  0)   8-C(  2  1  0)
   9-C(  3  1  0)  10-C(  4  1  0)  11-C(  5  1  0)  12-C(  6  1  0)
  13-C(  7  1  0)  14-C(  0  2  0)  15-C(  1  2  0)  16-C(  2  2  0)
  17-C(  3  2  0)  18-C(  4  2  0)  19-C(  5  2  0)  20-C(  6  2  0)
  21-C(  7  2  0)  22-C(  0  3  0)  23-C(  1  3  0)  24-C(  2  3  0)
  25-C(  3  3  0)  26-C(  4  3  0)  27-C(  5  3  0)  28-C(  6  3  0)
  29-C(  7  3  0)  30-R(  0  4  0)  31-C(  1  4  0)  32-C(  2  4  0)
  33-C(  3  4  0)  34-R(  4  4  0)  35-C(  0  0  1)  36-C(  1  0  1)
  37-C(  2  0  1)  38-C(  3  0  1)  39-C(  4  0  1)  40-C(  5  0  1)
  41-C(  6  0  1)  42-C(  7  0  1)  43-C(  0  1  1)  44-C(  1  1  1)
  45-C(  2  1  1)  46-C(  3  1  1)  47-C(  4  1  1)  48-C(  5  1  1)
  49-C(  6  1  1)  50-C(  7  1  1)  51-C(  0  2  1)  52-C(  1  2  1)
  53-C(  2  2  1)  54-C(  3  2  1)  55-C(  4  2  1)  56-C(  5  2  1)
  57-C(  6  2  1)  58-C(  7  2  1)  59-C(  0  3  1)  60-C(  1  3  1)
  61-C(  2  3  1)  62-C(  3  3  1)  63-C(  4  3  1)  64-C(  5  3  1)
  65-C(  6  3  1)  66-C(  7  3  1)  67-C(  0  4  1)  68-C(  1  4  1)
  69-C(  2  4  1)  70-C(  3  4  1)  71-C(  4  4  1)  72-C(  5  4  1)
  73-C(  6  4  1)  74-C(  7  4  1)  75-C(  0  5  1)  76-C(  1  5  1)
  77-C(  2  5  1)  78-C(  3  5  1)  79-C(  4  5  1)  80-C(  5  5  1)
  81-C(  6  5  1)  82-C(  7  5  1)  83-C(  0  6  1)  84-C(  1  6  1)
  85-C(  2  6  1)  86-C(  3  6  1)  87-C(  4  6  1)  88-C(  5  6  1)
  89-C(  6  6  1)  90-C(  7  6  1)  91-C(  0  7  1)  92-C(  1  7  1)
  93-C(  2  7  1)  94-C(  3  7  1)  95-C(  4  7  1)  96-C(  5  7  1)
  97-C(  6  7  1)  98-C(  7  7  1)  99-C(  0  0  2) 100-C(  1  0  2)
 101-C(  2  0  2) 102-C(  3  0  2) 103-C(  4  0  2) 104-C(  5  0  2)
 105-C(  6  0  2) 106-C(  7  0  2) 107-C(  0  1  2) 108-C(  1  1  2)
 109-C(  2  1  2) 110-C(  3  1  2) 111-C(  4  1  2) 112-C(  5  1  2)
 113-C(  6  1  2) 114-C(  7  1  2) 115-C(  0  2  2) 116-C(  1  2  2)
 117-C(  2  2  2) 118-C(  3  2  2) 119-C(  4  2  2) 120-C(  5  2  2)
 121-C(  6  2  2) 122-C(  7  2  2) 123-C(  0  3  2) 124-C(  1  3  2)
 125-C(  2  3  2) 126-C(  3  3  2) 127-C(  4  3  2) 128-C(  5  3  2)
 129-C(  6  3  2) 130-C(  7  3  2) 131-C(  0  4  2) 132-C(  1  4  2)
 133-C(  2  4  2) 134-C(  3  4  2) 135-C(  4  4  2) 136-C(  5  4  2)
 137-C(  6  4  2) 138-C(  7  4  2) 139-C(  0  5  2) 140-C(  1  5  2)
 141-C(  2  5  2) 142-C(  3  5  2) 143-C(  4  5  2) 144-C(  5  5  2)
 145-C(  6  5  2) 146-C(  7  5  2) 147-C(  0  6  2) 148-C(  1  6  2)
 149-C(  2  6  2) 150-C(  3  6  2) 151-C(  4  6  2) 152-C(  5  6  2)
 153-C(  6  6  2) 154-C(  7  6  2) 155-C(  0  7  2) 156-C(  1  7  2)
 157-C(  2  7  2) 158-C(  3  7  2) 159-C(  4  7  2) 160-C(  5  7  2)
 161-C(  6  7  2) 162-C(  7  7  2) 163-C(  0  0  3) 164-C(  1  0  3)
 165-C(  2  0  3) 166-C(  3  0  3) 167-C(  4  0  3) 168-C(  5  0  3)
 169-C(  6  0  3) 170-C(  7  0  3) 171-C(  0  1  3) 172-C(  1  1  3)
 173-C(  2  1  3) 174-C(  3  1  3) 175-C(  4  1  3) 176-C(  5  1  3)
 177-C(  6  1  3) 178-C(  7  1  3) 179-C(  0  2  3) 180-C(  1  2  3)
 181-C(  2  2  3) 182-C(  3  2  3) 183-C(  4  2  3) 184-C(  5  2  3)
 185-C(  6  2  3) 186-C(  7  2  3) 187-C(  0  3  3) 188-C(  1  3  3)
 189-C(  2  3  3) 190-C(  3  3  3) 191-C(  4  3  3) 192-C(  5  3  3)
 193-C(  6  3  3) 194-C(  7  3  3) 195-C(  0  4  3) 196-C(  1  4  3)
 197-C(  2  4  3) 198-C(  3  4  3) 199-C(  4  4  3) 200-C(  5  4  3)
 201-C(  6  4  3) 202-C(  7  4  3) 203-C(  0  5  3) 204-C(  1  5  3)
 205-C(  2  5  3) 206-C(  3  5  3) 207-C(  4  5  3) 208-C(  5  5  3)
 209-C(  6  5  3) 210-C(  7  5  3) 211-C(  0  6  3) 212-C(  1  6  3)
 213-C(  2  6  3) 214-C(  3  6  3) 215-C(  4  6  3) 216-C(  5  6  3)
 217-C(  6  6  3) 218-C(  7  6  3) 219-C(  0  7  3) 220-C(  1  7  3)
 221-C(  2  7  3) 222-C(  3  7  3) 223-C(  4  7  3) 224-C(  5  7  3)
 225-C(  6  7  3) 226-C(  7  7  3) 227-R(  0  0  4) 228-C(  1  0  4)
 229-C(  2  0  4) 230-C(  3  0  4) 231-R(  4  0  4) 232-C(  0  1  4)
 233-C(  1  1  4) 234-C(  2  1  4) 235-C(  3  1  4) 236-C(  4  1  4)
 237-C(  5  1  4) 238-C(  6  1  4) 239-C(  7  1  4) 240-C(  0  2  4)
 241-C(  1  2  4) 242-C(  2  2  4) 243-C(  3  2  4) 244-C(  4  2  4)
 245-C(  5  2  4) 246-C(  6  2  4) 247-C(  7  2  4) 248-C(  0  3  4)
 249-C(  1  3  4) 250-C(  2  3  4) 251-C(  3  3  4) 252-C(  4  3  4)
 253-C(  5  3  4) 254-C(  6  3  4) 255-C(  7  3  4) 256-R(  0  4  4)
 257-C(  1  4  4) 258-C(  2  4  4) 259-C(  3  4  4) 260-R(  4  4  4)

 DIRECT LATTICE VECTORS COMPON. (A.U.)     RECIP. LATTICE VECTORS COMPON. (A.U.) 
        X            Y            Z              X            Y            Z
   10.6391581    0.0000000    0.0000000      0.5905717    0.0000000   -0.0000000
    0.0000000   10.6391581    0.0000000     -0.0000000    0.5905717   -0.0000000
    0.0000000    0.0000000   10.6391581      0.0000000    0.0000000    0.5905717

 DISK SPACE FOR EIGENVECTORS (FTN 10)    23887872 REALS

 SYMMETRY ADAPTION OF THE BLOCH FUNCTIONS DISABLED
 TTTTTTTTTTTTTTTTTTTTTTTTTTTTTT gordsh1     TELAPSE        0.54 TCPU        0.10

 MATRIX SIZE: P(G)  228716, F(G)   40417, P(G) IRR  115558, F(G) IRR   40789
 MAX G-VECTOR INDEX FOR 1- AND 2-ELECTRON INTEGRALS  81

 TTTTTTTTTTTTTTTTTTTTTTTTTTTTTT INPUT       TELAPSE        0.56 TCPU        0.12

 NEIGHBORS OF THE NON-EQUIVALENT ATOMS

 N = NUMBER OF NEIGHBORS AT DISTANCE R
    ATOM  N     R/ANG      R/AU   NEIGHBORS (ATOM LABELS AND CELL INDICES)
   1 C    1     1.1524     2.1778    3 O    0 0 0
   1 C    1     1.1810     2.2317    2 O    0 0 0
   1 C    1     2.9502     5.5752    5 O    0 0 0
   1 C    1     3.0816     5.8234   12 O    0 0 0
   1 C    1     3.1868     6.0222    6 O    0 0 0
   1 C    1     3.2037     6.0540    9 O    0 0 0

   2 O    1     1.1810     2.2317    1 C    0 0 0
   2 O    1     2.3206     4.3853    3 O    0 0 0
   2 O    1     2.8240     5.3366    6 O    1 0 0
   2 O    1     2.9411     5.5579    4 C    0 0 0
   2 O    1     3.0198     5.7066    7 C    0 0 0
   2 O    1     3.0991     5.8564    9 O    0 0 0

   3 O    1     1.1524     2.1778    1 C    0 0 0
   3 O    1     2.3206     4.3853    2 O    0 0 0
   3 O    1     3.0785     5.8176    7 C   -1-1 0
   3 O    1     3.1016     5.8612   11 O    0 0 0
   3 O    1     3.2022     6.0512   11 O    0 0-1
   3 O    2     3.2071     6.0606    5 O    0 0 0    5 O   -1 0 0

   4 C    1     1.0274     1.9415    6 O    1 0 0
   4 C    1     1.2777     2.4144    5 O    0 0 1
   4 C    1     2.9119     5.5026    8 O    1 0 1
   4 C    1     2.9411     5.5579    2 O    0 0 0
   4 C    1     2.9987     5.6668   11 O    1 0 0
   4 C    1     3.0975     5.8535    9 O    0 0 0

   5 O    1     1.2777     2.4144    4 C    0 0-1
   5 O    1     2.2980     4.3425    6 O    1 0-1
   5 O    1     2.9502     5.5752    1 C    0 0 0
   5 O    1     3.1266     5.9083    8 O    1 0 0
   5 O    1     3.1498     5.9522   12 O    0 0 0
   5 O    1     3.1703     5.9911    7 C    0-1 0

   6 O    1     1.0274     1.9415    4 C   -1 0 0
   6 O    1     2.2980     4.3425    5 O   -1 0 1
   6 O    1     2.8240     5.3366    2 O   -1 0 0
   6 O    1     2.9626     5.5985    7 C   -1 0 0
   6 O    2     3.1478     5.9484    8 O    0 0 0    8 O    0 0 1
   6 O    2     3.1808     6.0109   11 O    0 0 0   11 O    0 1 0

   7 C    1     1.0844     2.0492    9 O    0 1 0
   7 C    1     1.2777     2.4144    8 O    1 0 0
   7 C    1     2.9626     5.5985    6 O    1 0 0
   7 C    1     3.0198     5.7066    2 O    0 0 0
   7 C    1     3.0386     5.7422   12 O    0 0 0
   7 C    1     3.0636     5.7893   11 O    1 1 0

   8 O    1     1.2777     2.4144    7 C   -1 0 0
   8 O    1     2.3619     4.4634    9 O   -1 1 0
   8 O    1     2.9119     5.5026    4 C   -1 0-1
   8 O    1     3.0287     5.7234   12 O   -1 0 0
   8 O    1     3.1139     5.8843   10 C    0 0-1
   8 O    1     3.1266     5.9083    5 O   -1 0 0

   9 O    1     1.0844     2.0492    7 C    0-1 0
   9 O    1     2.3619     4.4634    8 O    1-1 0
   9 O    1     2.9265     5.5303   11 O    1 0 0
   9 O    2     3.0975     5.8535    4 C    0 0 0   10 C    0-1 0
   9 O    1     3.0991     5.8564    2 O    0 0 0
   9 O    1     3.1997     6.0466    2 O    0-1 0

  10 C    1     1.1552     2.1830   11 O    0 1 0
  10 C    1     1.2193     2.3041   12 O    0 0 1
  10 C    1     3.0975     5.8535    9 O    0 1 0
  10 C    1     3.1139     5.8843    8 O    0 0 1
  10 C    1     3.1913     6.0306    6 O    0 0 0
  10 C    1     3.1972     6.0419    2 O    0 0 0

  11 O    1     1.1552     2.1830   10 C    0-1 0
  11 O    1     2.3458     4.4328   12 O    0-1 1
  11 O    1     2.9265     5.5303    9 O   -1 0 0
  11 O    1     2.9987     5.6668    4 C   -1 0 0
  11 O    1     3.0636     5.7893    7 C   -1-1 0
  11 O    1     3.1016     5.8612    3 O    0 0 0

  12 O    1     1.2193     2.3041   10 C    0 0-1
  12 O    1     2.3458     4.4328   11 O    0 1-1
  12 O    1     3.0287     5.7234    8 O    1 0 0
  12 O    1     3.0386     5.7422    7 C    0 0 0
  12 O    1     3.0816     5.8234    1 C    0 0 0
  12 O    1     3.1316     5.9179    8 O    0 0 0


 SYMMETRY ALLOWED INTERNAL DEGREE(S) OF FREEDOM:  33
 TTTTTTTTTTTTTTTTTTTTTTTTTTTTTT SYMM        TELAPSE        0.56 TCPU        0.12
 TTTTTTTTTTTTTTTTTTTTTTTTTTTTTT INT_SCREEN  TELAPSE        0.57 TCPU        0.13
 INFORMATION **** EXCBUF **** EXCH. BIPO BUFFER: WORDS USED =      768816

 DFT PARAMETERS

     ATOM       ELECTRONS   NET CHARGE   R(ANGSTROM)
   1   6  C       6.0000      0.0000     0.77000000
   2   8  O       8.0000      0.0000     0.74000000

 SIZE OF GRID=     422917
 TTTTTTTTTTTTTTTTTTTTTTTTTTTTTT MAKE_GRID2  TELAPSE        1.05 TCPU        0.61
 BECKE WEIGHT FUNCTION
 RADSAFE =     2.00
 TOLERANCES - DENSITY:10**- 6; POTENTIAL:10**- 9; GRID WGT:10**-14

 RADIAL INTEGRATION  - INTERVALS (POINTS,UPPER LIMIT):            1( 75,  4.0*R)

 ANGULAR INTEGRATION - INTERVALS (ACCURACY LEVEL [N. POINTS] UPPER LIMIT):
  1(  4[  86]   0.2)  2(  8[ 194]   0.5)  3( 12[ 350]   0.9)  4( 16[ 974]   3.5)
  5( 12[ 350]9999.0)
 TTTTTTTTTTTTTTTTTTTTTTTTTTTTTT INT_CALC    TELAPSE        1.08 TCPU        0.64
 EEEEEEEEEE INT_CALC TERMINATION  DATE 18 05 2022 TIME 13:39:24.5

 *******************************************************************************
 DRY-ICE                                                                         
 CRYSTAL - SCF - TYPE OF CALCULATION :  RESTRICTED CLOSED SHELL
 *******************************************************************************

 CAPPA:IS1  8;IS2  8;IS3  8; K PTS MONK NET 260; SYMMOPS:K SPACE   2;G SPACE   1

 TTTTTTTTTTTTTTTTTTTTTTTTTTTTTT SDIK        TELAPSE        1.45 TCPU        0.96

 AAAAAAAAAAAAAAAAAAAAAAAAAAAAAAAAAAAAAAAAAAAAAAAAAAAAAAAAAAAAAAAAAAAAAAAAAAAAAAA
         ATOMIC WAVEFUNCTION(S)


 NUCLEAR CHARGE  6.0  SYMMETRY SPECIES            S    P
 N. ELECTRONS    6.0  NUMBER OF PRIMITIVE GTOS   10    6
                      NUMBER OF CONTRACTED GTOS   4    3
                      NUMBER OF CLOSED SHELLS     2    0
                      OPEN SHELL OCCUPATION       0    2

  ZNUC SCFIT  TOTAL HF ENERGY   KINETIC ENERGY   VIRIAL THEOREM ACCURACY
   6.0  10   -3.766702350E+01  3.783137943E+01 -1.995655566E+00  1.6E-06

 NUCLEAR CHARGE  8.0  SYMMETRY SPECIES            S    P
 N. ELECTRONS    8.0  NUMBER OF PRIMITIVE GTOS   10    6
                      NUMBER OF CONTRACTED GTOS   4    3
                      NUMBER OF CLOSED SHELLS     2    0
                      OPEN SHELL OCCUPATION       0    4

  ZNUC SCFIT  TOTAL HF ENERGY   KINETIC ENERGY   VIRIAL THEOREM ACCURACY
   8.0  13   -7.479377997E+01  7.483473100E+01 -1.999452780E+00  5.0E-06

 AAAAAAAAAAAAAAAAAAAAAAAAAAAAAAAAAAAAAAAAAAAAAAAAAAAAAAAAAAAAAAAAAAAAAAAAAAAAAAA

 CHARGE NORMALIZATION FACTOR   1.00000000
 TOTAL ATOMIC CHARGES:
   6.0000000   8.0000000   8.0000000   6.0000000   8.0000000   8.0000000
   6.0000000   8.0000000   8.0000000   6.0000000   8.0000000   8.0000000
 TTTTTTTTTTTTTTTTTTTTTTTTTTTTTT MOQGAD      TELAPSE        1.52 TCPU        1.03
 TTTTTTTTTTTTTTTTTTTTTTTTTTTTTT SHELLX2     TELAPSE       20.87 TCPU       20.33
 TTTTTTTTTTTTTTTTTTTTTTTTTTTTTT MONMO3      TELAPSE       21.12 TCPU       20.59
 NUMERICALLY INTEGRATED DENSITY     88.0000076341
 TTTTTTTTTTTTTTTTTTTTTTTTTTTTTT NUMDFT      TELAPSE       22.23 TCPU       21.69
 CYC   0 ETOT(AU) -7.562781787820E+02 DETOT -7.56E+02 tst  0.00E+00 PX  1.00E+00
 TTTTTTTTTTTTTTTTTTTTTTTTTTTTTT FDIK        TELAPSE       27.80 TCPU       27.20
 INSULATING STATE
 TOP OF VALENCE BANDS -    BAND     44; K   35; EIG -3.8577949E-01 AU
 TOP OF VALENCE BANDS -    BAND     44; K    1; EIG -3.8579935E-01 AU
 BOTTOM OF VIRTUAL BANDS - BAND     45; K    1; EIG -7.2851178E-02 AU
 TTTTTTTTTTTTTTTTTTTTTTTTTTTTTT PDIG        TELAPSE       28.07 TCPU       27.47
 CHARGE NORMALIZATION FACTOR   1.00000000
 TOTAL ATOMIC CHARGES:
   4.5782089   8.7336892   8.6875938   4.6382845   8.8998863   8.4645268
   4.5786296   8.8755209   8.5462302   4.5250098   8.6776732   8.7947465
 TTTTTTTTTTTTTTTTTTTTTTTTTTTTTT MOQGAD      TELAPSE       28.08 TCPU       27.48
 TTTTTTTTTTTTTTTTTTTTTTTTTTTTTT SHELLX2     TELAPSE       48.58 TCPU       47.93
 TTTTTTTTTTTTTTTTTTTTTTTTTTTTTT MONMO3      TELAPSE       48.85 TCPU       48.20
 NUMERICALLY INTEGRATED DENSITY     88.0000087881
 TTTTTTTTTTTTTTTTTTTTTTTTTTTTTT NUMDFT      TELAPSE       52.23 TCPU       51.57
 CYC   1 ETOT(AU) -7.537061228896E+02 DETOT  2.57E+00 tst  0.00E+00 PX  1.00E+00
 TTTTTTTTTTTTTTTTTTTTTTTTTTTTTT FDIK        TELAPSE       54.64 TCPU       53.97
 INSULATING STATE
 TOP OF VALENCE BANDS -    BAND     44; K    5; EIG -2.6314422E-01 AU
 TOP OF VALENCE BANDS -    BAND     44; K    1; EIG -2.6329893E-01 AU
 BOTTOM OF VIRTUAL BANDS - BAND     45; K    1; EIG -5.5705126E-02 AU
 TTTTTTTTTTTTTTTTTTTTTTTTTTTTTT PDIG        TELAPSE       54.90 TCPU       54.23
 CHARGE NORMALIZATION FACTOR   1.00000000
 TOTAL ATOMIC CHARGES:
   5.0617417   8.5035641   8.4353560   5.0905803   8.6622152   8.2481544
   5.0666766   8.6206230   8.3124874   5.0549225   8.4262502   8.5174285
 TTTTTTTTTTTTTTTTTTTTTTTTTTTTTT MOQGAD      TELAPSE       54.91 TCPU       54.24
 TTTTTTTTTTTTTTTTTTTTTTTTTTTTTT SHELLX2     TELAPSE       75.41 TCPU       74.68
 TTTTTTTTTTTTTTTTTTTTTTTTTTTTTT MONMO3      TELAPSE       75.68 TCPU       74.96
 NUMERICALLY INTEGRATED DENSITY     88.0000101250
 TTTTTTTTTTTTTTTTTTTTTTTTTTTTTT NUMDFT      TELAPSE       79.10 TCPU       78.37
 CYC   2 ETOT(AU) -7.540753238156E+02 DETOT -3.69E-01 tst  1.51E-02 PX  1.32E-01
 TTTTTTTTTTTTTTTTTTTTTTTTTTTTTT FDIK        TELAPSE       81.36 TCPU       80.61
 INSULATING STATE
 TOP OF VALENCE BANDS -    BAND     44; K    3; EIG -3.1816107E-01 AU
 TOP OF VALENCE BANDS -    BAND     44; K    1; EIG -3.1818514E-01 AU
 BOTTOM OF VIRTUAL BANDS - BAND     45; K    1; EIG -4.4668038E-02 AU
 TTTTTTTTTTTTTTTTTTTTTTTTTTTTTT PDIG        TELAPSE       81.61 TCPU       80.87
 CHARGE NORMALIZATION FACTOR   1.00000000
 TOTAL ATOMIC CHARGES:
   5.0591001   8.5033788   8.4384986   5.0902465   8.6466968   8.2628944
   5.0698895   8.6062388   8.3232692   5.0545292   8.4316138   8.5136441
 TTTTTTTTTTTTTTTTTTTTTTTTTTTTTT MOQGAD      TELAPSE       81.62 TCPU       80.87
 TTTTTTTTTTTTTTTTTTTTTTTTTTTTTT SHELLX2     TELAPSE      102.13 TCPU      101.33
 TTTTTTTTTTTTTTTTTTTTTTTTTTTTTT MONMO3      TELAPSE      102.39 TCPU      101.59
 NUMERICALLY INTEGRATED DENSITY     88.0000099791
 TTTTTTTTTTTTTTTTTTTTTTTTTTTTTT NUMDFT      TELAPSE      105.77 TCPU      104.96
 CYC   3 ETOT(AU) -7.540889629312E+02 DETOT -1.36E-02 tst  1.88E-04 PX  2.93E-02
 TTTTTTTTTTTTTTTTTTTTTTTTTTTTTT FDIK        TELAPSE      107.96 TCPU      107.14
 INSULATING STATE
 TOP OF VALENCE BANDS -    BAND     44; K    2; EIG -3.3030766E-01 AU
 TOP OF VALENCE BANDS -    BAND     44; K    1; EIG -3.3031087E-01 AU
 BOTTOM OF VIRTUAL BANDS - BAND     45; K    1; EIG -3.9720879E-02 AU
 TTTTTTTTTTTTTTTTTTTTTTTTTTTTTT PDIG        TELAPSE      108.21 TCPU      107.39
 CHARGE NORMALIZATION FACTOR   1.00000000
 TOTAL ATOMIC CHARGES:
   5.0099739   8.5267865   8.4642077   5.0429761   8.6649853   8.2914882
   5.0212250   8.6272747   8.3507876   5.0027794   8.4581002   8.5394154
 TTTTTTTTTTTTTTTTTTTTTTTTTTTTTT MOQGAD      TELAPSE      108.22 TCPU      107.40
 TTTTTTTTTTTTTTTTTTTTTTTTTTTTTT SHELLX2     TELAPSE      128.72 TCPU      127.85
 TTTTTTTTTTTTTTTTTTTTTTTTTTTTTT MONMO3      TELAPSE      128.99 TCPU      128.12
 NUMERICALLY INTEGRATED DENSITY     88.0000098001
 TTTTTTTTTTTTTTTTTTTTTTTTTTTTTT NUMDFT      TELAPSE      132.36 TCPU      131.48
 CYC   4 ETOT(AU) -7.540936580322E+02 DETOT -4.70E-03 tst  4.14E-05 PX  2.49E-02
 TTTTTTTTTTTTTTTTTTTTTTTTTTTTTT FDIK        TELAPSE      134.48 TCPU      133.58
 INSULATING STATE
 TOP OF VALENCE BANDS -    BAND     44; K    3; EIG -3.2501397E-01 AU
 TOP OF VALENCE BANDS -    BAND     44; K    1; EIG -3.2501972E-01 AU
 BOTTOM OF VIRTUAL BANDS - BAND     45; K    1; EIG -3.7610403E-02 AU
 TTTTTTTTTTTTTTTTTTTTTTTTTTTTTT PDIG        TELAPSE      134.73 TCPU      133.84
 CHARGE NORMALIZATION FACTOR   1.00000000
 TOTAL ATOMIC CHARGES:
   5.0119742   8.5259194   8.4631027   5.0438798   8.6612993   8.2940973
   5.0234931   8.6238256   8.3519182   5.0064149   8.4574542   8.5366212
 TTTTTTTTTTTTTTTTTTTTTTTTTTTTTT MOQGAD      TELAPSE      134.74 TCPU      133.84
 TTTTTTTTTTTTTTTTTTTTTTTTTTTTTT SHELLX2     TELAPSE      155.23 TCPU      154.29
 TTTTTTTTTTTTTTTTTTTTTTTTTTTTTT MONMO3      TELAPSE      155.51 TCPU      154.57
 NUMERICALLY INTEGRATED DENSITY     88.0000098154
 TTTTTTTTTTTTTTTTTTTTTTTTTTTTTT NUMDFT      TELAPSE      158.88 TCPU      157.92
 CYC   5 ETOT(AU) -7.540939305305E+02 DETOT -2.72E-04 tst  9.61E-06 PX  3.58E-03
 TTTTTTTTTTTTTTTTTTTTTTTTTTTTTT FDIK        TELAPSE      160.93 TCPU      159.97
 INSULATING STATE
 TOP OF VALENCE BANDS -    BAND     44; K    2; EIG -3.2483725E-01 AU
 TOP OF VALENCE BANDS -    BAND     44; K    1; EIG -3.2484199E-01 AU
 BOTTOM OF VIRTUAL BANDS - BAND     45; K    1; EIG -3.7475964E-02 AU
 TTTTTTTTTTTTTTTTTTTTTTTTTTTTTT PDIG        TELAPSE      161.19 TCPU      160.23
 CHARGE NORMALIZATION FACTOR   1.00000000
 TOTAL ATOMIC CHARGES:
   5.0167820   8.5233859   8.4608380   5.0485437   8.6577379   8.2929159
   5.0284374   8.6204088   8.3503632   5.0117168   8.4551888   8.5336816
 TTTTTTTTTTTTTTTTTTTTTTTTTTTTTT MOQGAD      TELAPSE      161.20 TCPU      160.23
 TTTTTTTTTTTTTTTTTTTTTTTTTTTTTT SHELLX2     TELAPSE      181.70 TCPU      180.69
 TTTTTTTTTTTTTTTTTTTTTTTTTTTTTT MONMO3      TELAPSE      181.97 TCPU      180.95
 NUMERICALLY INTEGRATED DENSITY     88.0000098291
 TTTTTTTTTTTTTTTTTTTTTTTTTTTTTT NUMDFT      TELAPSE      185.34 TCPU      184.32
 CYC   6 ETOT(AU) -7.540939962860E+02 DETOT -6.58E-05 tst  5.07E-06 PX  1.41E-03
 TTTTTTTTTTTTTTTTTTTTTTTTTTTTTT FDIK        TELAPSE      190.06 TCPU      186.34
 INSULATING STATE
 TOP OF VALENCE BANDS -    BAND     44; K    2; EIG -3.2582156E-01 AU
 TOP OF VALENCE BANDS -    BAND     44; K    1; EIG -3.2582550E-01 AU
 BOTTOM OF VIRTUAL BANDS - BAND     45; K    1; EIG -3.7606039E-02 AU
 TTTTTTTTTTTTTTTTTTTTTTTTTTTTTT PDIG        TELAPSE      190.32 TCPU      186.59
 CHARGE NORMALIZATION FACTOR   1.00000000
 TOTAL ATOMIC CHARGES:
   5.0164639   8.5233719   8.4611629   5.0483599   8.6575469   8.2932556
   5.0280597   8.6204136   8.3507250   5.0112006   8.4554491   8.5339909
 TTTTTTTTTTTTTTTTTTTTTTTTTTTTTT MOQGAD      TELAPSE      190.32 TCPU      186.60
 TTTTTTTTTTTTTTTTTTTTTTTTTTTTTT SHELLX2     TELAPSE      210.82 TCPU      207.04
 TTTTTTTTTTTTTTTTTTTTTTTTTTTTTT MONMO3      TELAPSE      211.09 TCPU      207.32
 NUMERICALLY INTEGRATED DENSITY     88.0000098232
 TTTTTTTTTTTTTTTTTTTTTTTTTTTTTT NUMDFT      TELAPSE      214.46 TCPU      210.67
 CYC   7 ETOT(AU) -7.540940181052E+02 DETOT -2.18E-05 tst  6.87E-07 PX  1.25E-03
 TTTTTTTTTTTTTTTTTTTTTTTTTTTTTT FDIK        TELAPSE      216.44 TCPU      212.65
 INSULATING STATE
 TOP OF VALENCE BANDS -    BAND     44; K    2; EIG -3.2598009E-01 AU
 TOP OF VALENCE BANDS -    BAND     44; K    1; EIG -3.2598403E-01 AU
 BOTTOM OF VIRTUAL BANDS - BAND     45; K    1; EIG -3.7634595E-02 AU
 TTTTTTTTTTTTTTTTTTTTTTTTTTTTTT PDIG        TELAPSE      216.69 TCPU      212.90
 CHARGE NORMALIZATION FACTOR   1.00000000
 TOTAL ATOMIC CHARGES:
   5.0160422   8.5235111   8.4614400   5.0479085   8.6575514   8.2936835
   5.0276094   8.6204890   8.3510956   5.0107923   8.4557109   8.5341663
 TTTTTTTTTTTTTTTTTTTTTTTTTTTTTT MOQGAD      TELAPSE      216.70 TCPU      212.91
 TTTTTTTTTTTTTTTTTTTTTTTTTTTTTT SHELLX2     TELAPSE      237.20 TCPU      233.36
 TTTTTTTTTTTTTTTTTTTTTTTTTTTTTT MONMO3      TELAPSE      237.47 TCPU      233.63
 NUMERICALLY INTEGRATED DENSITY     88.0000098195
 TTTTTTTTTTTTTTTTTTTTTTTTTTTTTT NUMDFT      TELAPSE      240.84 TCPU      236.98
 CYC   8 ETOT(AU) -7.540940242389E+02 DETOT -6.13E-06 tst  2.07E-07 PX  7.75E-04
 TTTTTTTTTTTTTTTTTTTTTTTTTTTTTT FDIK        TELAPSE      242.74 TCPU      238.88
 INSULATING STATE
 TOP OF VALENCE BANDS -    BAND     44; K    2; EIG -3.2597356E-01 AU
 TOP OF VALENCE BANDS -    BAND     44; K    1; EIG -3.2597752E-01 AU
 BOTTOM OF VIRTUAL BANDS - BAND     45; K    1; EIG -3.7641186E-02 AU
 TTTTTTTTTTTTTTTTTTTTTTTTTTTTTT PDIG        TELAPSE      243.00 TCPU      239.13
 CHARGE NORMALIZATION FACTOR   1.00000000
 TOTAL ATOMIC CHARGES:
   5.0161061   8.5234381   8.4614459   5.0479350   8.6573874   8.2938101
   5.0276621   8.6203530   8.3511767   5.0109123   8.4557041   8.5340693
 TTTTTTTTTTTTTTTTTTTTTTTTTTTTTT MOQGAD      TELAPSE      243.00 TCPU      239.14
 TTTTTTTTTTTTTTTTTTTTTTTTTTTTTT SHELLX2     TELAPSE      263.50 TCPU      259.59
 TTTTTTTTTTTTTTTTTTTTTTTTTTTTTT MONMO3      TELAPSE      263.78 TCPU      259.86
 NUMERICALLY INTEGRATED DENSITY     88.0000098186
 TTTTTTTTTTTTTTTTTTTTTTTTTTTTTT NUMDFT      TELAPSE      267.14 TCPU      263.22
 CYC   9 ETOT(AU) -7.540940256907E+02 DETOT -1.45E-06 tst  1.03E-07 PX  4.33E-04
 TTTTTTTTTTTTTTTTTTTTTTTTTTTTTT FDIK        TELAPSE      269.06 TCPU      265.13
 INSULATING STATE
 TOP OF VALENCE BANDS -    BAND     44; K    2; EIG -3.2601538E-01 AU
 TOP OF VALENCE BANDS -    BAND     44; K    1; EIG -3.2601930E-01 AU
 BOTTOM OF VIRTUAL BANDS - BAND     45; K    1; EIG -3.7651192E-02 AU
 TTTTTTTTTTTTTTTTTTTTTTTTTTTTTT PDIG        TELAPSE      269.31 TCPU      265.38
 CHARGE NORMALIZATION FACTOR   1.00000000
 TOTAL ATOMIC CHARGES:
   5.0161385   8.5233930   8.4614559   5.0479516   8.6573033   8.2938719
   5.0276780   8.6202951   8.3512175   5.0109552   8.4557016   8.5340386
 TTTTTTTTTTTTTTTTTTTTTTTTTTTTTT MOQGAD      TELAPSE      269.32 TCPU      265.39
 TTTTTTTTTTTTTTTTTTTTTTTTTTTTTT SHELLX2     TELAPSE      289.82 TCPU      285.84
 TTTTTTTTTTTTTTTTTTTTTTTTTTTTTT MONMO3      TELAPSE      290.09 TCPU      286.11
 NUMERICALLY INTEGRATED DENSITY     88.0000098181
 TTTTTTTTTTTTTTTTTTTTTTTTTTTTTT NUMDFT      TELAPSE      293.46 TCPU      289.47
 CYC  10 ETOT(AU) -7.540940262219E+02 DETOT -5.31E-07 tst  4.12E-08 PX  3.01E-04
 TTTTTTTTTTTTTTTTTTTTTTTTTTTTTT FDIK        TELAPSE      295.42 TCPU      291.42
 INSULATING STATE
 TOP OF VALENCE BANDS -    BAND     44; K    2; EIG -3.2604546E-01 AU
 TOP OF VALENCE BANDS -    BAND     44; K    1; EIG -3.2604937E-01 AU
 BOTTOM OF VIRTUAL BANDS - BAND     45; K    1; EIG -3.7659093E-02 AU
 TTTTTTTTTTTTTTTTTTTTTTTTTTTTTT PDIG        TELAPSE      295.67 TCPU      291.67
 CHARGE NORMALIZATION FACTOR   1.00000000
 TOTAL ATOMIC CHARGES:
   5.0161231   8.5233827   8.4614793   5.0479265   8.6572732   8.2939241
   5.0276491   8.6202817   8.3512592   5.0109387   8.4557224   8.5340400
 TTTTTTTTTTTTTTTTTTTTTTTTTTTTTT MOQGAD      TELAPSE      295.68 TCPU      291.68
 TTTTTTTTTTTTTTTTTTTTTTTTTTTTTT SHELLX2     TELAPSE      316.18 TCPU      312.13
 +++ ENERGIES IN A.U. +++
 ::: EXT EL-POLE                                  -7.9647956351212E+02
 ::: EXT EL-SPHEROPOLE                             9.8438600510860E+00
 ::: BIELET ZONE E-E                               1.0062733146107E+03
 ::: TOTAL E-E                                     2.1963761114971E+02
 ::: TOTAL E-N + N-E                              -1.5081859320380E+03
 ::: TOTAL N-N                                    -1.4440729450377E+02
 ::: KINETIC ENERGY                                7.5155239983213E+02
 ::: PSEUDO TOTAL   ENERGY                        -6.8140321555991E+02
 ::: VIRIAL COEFFICIENT                            1.0489541919643E+00
 TTTTTTTTTTTTTTTTTTTTTTTTTTTTTT MONMO3      TELAPSE      316.46 TCPU      312.40
 NUMERICALLY INTEGRATED DENSITY     88.0000098177
 TTTTTTTTTTTTTTTTTTTTTTTTTTTTTT NUMDFT      TELAPSE      319.81 TCPU      315.75
 CYC  11 ETOT(AU) -7.540940264548E+02 DETOT -2.33E-07 tst  1.66E-08 PX  3.01E-04

 == SCF ENDED - CONVERGENCE ON ENERGY      E(AU) -7.5409402645476E+02 CYCLES  11


 ENERGY EXPRESSION=HARTREE+FOCK EXCH*0.20000+(BECKE      EXCH)*0.80000+LYP        CORR


 TOTAL ENERGY(DFT)(AU)( 11) -7.5409402645476E+02 DE-2.3E-07 tester 1.7E-08
 TTTTTTTTTTTTTTTTTTTTTTTTTTTTTT EDFT        TELAPSE      319.82 TCPU      315.76
 EIGENVECTORS IN FORTRAN UNIT 10
 TTTTTTTTTTTTTTTTTTTTTTTTTTTTTT END         TELAPSE      320.08 TCPU      316.01
 EEEEEEEEEE TERMINATION  DATE 18 05 2022 TIME 13:44:43.5
NODE    0 CPU TIME =       316.012
NODE    1 CPU TIME =       315.996
NODE    2 CPU TIME =       315.858
NODE    3 CPU TIME =       315.802
NODE    4 CPU TIME =       315.921
NODE    5 CPU TIME =       315.888
NODE    6 CPU TIME =       315.967
NODE    7 CPU TIME =       315.999
NODE    8 CPU TIME =       315.910
NODE    9 CPU TIME =       315.879
    TOTAL CPU TIME =      3159.230
