          10 PROCESSORS WORKING

         
 *******************************************************************************
 *                                                                             *
 *                               CRYSTAL14                                     *
 *                      public : 1.0.4 - Feb 23rd, 2016                        *
 *                       HTTP://WWW.CRYSTAL.UNITO.IT                           *
 *                                                                             *
 *                              MAIN AUTHORS                                   *
 *                                                                             *
 *  R. DOVESI(1,11), V.R. SAUNDERS(2), C. ROETTI(1,11), R. ORLANDO(1,11),      *
 *  C.M. ZICOVICH-WILSON(1,3), F. PASCALE(4), B. CIVALLERI(1,11),              *
 *  K. DOLL(5), N.M. HARRISON(2,6), I. J. BUSH(7), Ph. D'ARCO(8),              *
 *  M. LLUNELL(9), M. CAUSA'(10), Y. NOEL(8)                                   *
 *                                                                             *
 *        CONTRIBUTIONS TO THE CURRENT RELEASE HAVE BEEN GIVEN BY              *
 *                                                                             *
 *  L. MASCHIO(1,11), S. CASASSA(1,11), A. ERBA(1,11), M. FERRABONE(1,11),     *
 *  M. DE LA PIERRE(1,11), M. FERRERO(1,11), V. LACIVITA(1,11),                *
 *  J. BAIMA(1,11), E. ALBANESE(1,11), M.F. PEINTINGER(12), R. BAST(13),       *
 *  M. RERAT(14), B. KIRTMAN(15), R. DEMICHELIS(1,16)                          *
 *                                                                             *
 * (1) THEORETICAL CHEMISTRY GROUP - UNIVERSITA' DI TORINO - TORINO (ITALY)    *
 *     http://www.crystal.unito.it                                             *
 * (2) COMPUTATIONAL SCIENCE & ENGINEERING DEPARTMENT - STFC DARESBURY (UK)    *
 *     http://www.stfc.ac.uk/CSE/randd/cmg/CRYSTAL/25806.aspx                  *
 * (3) UNIVERSIDAD AUTONOMA DEL ESTADO DE MORELOS - CUERNAVACA (MEXICO)        *
 * (4) UNIVERSITE' DE LORRAINE - NANCY (FRANCE)                                *
 * (5) UNIVERSITAET ULM - ULM (GERMANY); (6) IMPERIAL COLLEGE - LONDON (UK)    *
 * (7) NAG - OXFORD (UK); (8) UPMC - SORBONNE UNIVERSITES - PARIS (FRANCE)     *
 * (9) UNIVERSIDAD DE BARCELONA - BARCELONA (SPAIN)                            *
 *(10) UNIVERSITA' DI NAPOLI "FEDERICO II" - NAPOLI (ITALY)                    *
 *(11) NIS - NANOSTRUCTURED INTERFACES AND SURFACES - TORINO (ITALY)           *
 *(12) MPI FUER CHEMISCHE ENERGIEKONVERSION - MUELHEIM AN DER RUHR (GERMANY)   *
 *(13) UNIVERSITY OF STOCKHOLM - STOCKHOLM (SWEDEN)                            *
 *(14) UNIVERSITE' DE PAU ET DES PAYS DE L'ADOUR - PAU (FRANCE)                *
 *(15) UNIVERSITY OF CALIFORNIA SANTA BARBARA - SANTA BARBARA (USA)            *
 *(16) CURTIN UNIVERSITY - PERTH (AUSTRALIA)                                   *
 *                                                                             *
 ********************************************************************************
 EEEEEEEEEE STARTING  DATE 18 05 2022 TIME 12:42:44.6
 DRY-ICE                                                                         

 CRYSTAL CALCULATION
 (INPUT ACCORDING TO THE INTERNATIONAL TABLES FOR X-RAY CRYSTALLOGRAPHY)
 CRYSTAL FAMILY                       :  TRICLINIC   
 CRYSTAL CLASS  (GROTH - 1921)        :  TRICLINIC PEDIAL                     

 SPACE GROUP (NONCENTROSYMMETRIC)     :  P 1             

 LATTICE PARAMETERS  (ANGSTROMS AND DEGREES) - CONVENTIONAL CELL
        A           B           C        ALPHA        BETA       GAMMA
     5.63000     5.63000     5.63000    90.00000    90.00000    90.00000


 NUMBER OF IRREDUCIBLE ATOMS IN THE CONVENTIONAL CELL:   12

 INPUT COORDINATES

 ATOM AT. N.              COORDINATES
   1   6     0.000000000000E+00  0.000000000000E+00  0.000000000000E+00
   2   8     1.200000000000E-01  1.200000000000E-01  1.200000000000E-01
   3   8    -1.100000000000E-01 -1.500000000000E-01 -9.000000000000E-02
   4   6     5.000000000000E-01  2.000000000000E-02  4.900000000000E-01
   5   8     3.500000000000E-01 -1.100000000000E-01 -3.700000000000E-01
   6   8    -4.000000000000E-01  1.400000000000E-01  3.800000000000E-01
   7   6     4.900000000000E-01  4.900000000000E-01 -2.000000000000E-02
   8   8    -3.700000000000E-01  4.100000000000E-01 -1.100000000000E-01
   9   8     4.000000000000E-01 -3.600000000000E-01  9.000000000000E-02
  10   6    -2.000000000000E-02  5.000000000000E-01  4.900000000000E-01
  11   8    -1.400000000000E-01 -4.000000000000E-01  3.800000000000E-01
  12   8     1.300000000000E-01  4.100000000000E-01 -3.900000000000E-01

 *******************************************************************************

 << INFORMATION >>: FROM NOW ON, ALL COORDINATES REFER TO THE PRIMITIVE CELL

 *******************************************************************************

 LATTICE PARAMETERS  (ANGSTROMS AND DEGREES) - PRIMITIVE CELL
       A          B          C        ALPHA      BETA     GAMMA        VOLUME
    5.63000    5.63000    5.63000    90.00000  90.00000  90.00000    178.453547

 COORDINATES OF THE EQUIVALENT ATOMS (FRACTIONAL UNITS)

 N. ATOM EQUIV AT. N.          X                  Y                  Z

   1   1   1    6 C     0.00000000000E+00  0.00000000000E+00  0.00000000000E+00

   2   2   1    8 O     1.20000000000E-01  1.20000000000E-01  1.20000000000E-01

   3   3   1    8 O    -1.10000000000E-01 -1.50000000000E-01 -9.00000000000E-02

   4   4   1    6 C    -5.00000000000E-01  2.00000000000E-02  4.90000000000E-01

   5   5   1    8 O     3.50000000000E-01 -1.10000000000E-01 -3.70000000000E-01

   6   6   1    8 O    -4.00000000000E-01  1.40000000000E-01  3.80000000000E-01

   7   7   1    6 C     4.90000000000E-01  4.90000000000E-01 -2.00000000000E-02

   8   8   1    8 O    -3.70000000000E-01  4.10000000000E-01 -1.10000000000E-01

   9   9   1    8 O     4.00000000000E-01 -3.60000000000E-01  9.00000000000E-02

  10  10   1    6 C    -2.00000000000E-02 -5.00000000000E-01  4.90000000000E-01

  11  11   1    8 O    -1.40000000000E-01 -4.00000000000E-01  3.80000000000E-01

  12  12   1    8 O     1.30000000000E-01  4.10000000000E-01 -3.90000000000E-01

 NUMBER OF SYMMETRY OPERATORS         :    1
 *******************************************************************************
 * GEOMETRY EDITING - INPUT COORDINATES ARE GIVEN IN ANGSTROM         
 *******************************************************************************

 GCALCO - MAX INDICES DIRECT LATTICE VECTOR    14    14    14
 NO.OF VECTORS CREATED 6999 STARS  120 RMAX   126.33300 BOHR

 GEOMETRY FOR WAVE FUNCTION - DIMENSIONALITY OF THE SYSTEM    3
 (NON PERIODIC DIRECTION: LATTICE PARAMETER FORMALLY SET TO 500)
 *******************************************************************************
 LATTICE PARAMETERS (ANGSTROMS AND DEGREES) - BOHR = 0.5291772083 ANGSTROM
 PRIMITIVE CELL - CENTRING CODE 1/0 VOLUME=   178.453547 - DENSITY  1.637 g/cm^3
         A              B              C           ALPHA      BETA       GAMMA 
     5.63000000     5.63000000     5.63000000    90.000000  90.000000  90.000000
 *******************************************************************************
 ATOMS IN THE ASYMMETRIC UNIT   12 - ATOMS IN THE UNIT CELL:   12
     ATOM              X/A                 Y/B                 Z/C    
 *******************************************************************************
   1 T   6 C     0.000000000000E+00  0.000000000000E+00  0.000000000000E+00
   2 T   8 O     1.200000000000E-01  1.200000000000E-01  1.200000000000E-01
   3 T   8 O    -1.100000000000E-01 -1.500000000000E-01 -9.000000000000E-02
   4 T   6 C     5.000000000000E-01  2.000000000000E-02  4.900000000000E-01
   5 T   8 O     3.500000000000E-01 -1.100000000000E-01 -3.700000000000E-01
   6 T   8 O    -4.000000000000E-01  1.400000000000E-01  3.800000000000E-01
   7 T   6 C     4.900000000000E-01  4.900000000000E-01 -2.000000000000E-02
   8 T   8 O    -3.700000000000E-01  4.100000000000E-01 -1.100000000000E-01
   9 T   8 O     4.000000000000E-01 -3.600000000000E-01  9.000000000000E-02
  10 T   6 C    -2.000000000000E-02  5.000000000000E-01  4.900000000000E-01
  11 T   8 O    -1.400000000000E-01 -4.000000000000E-01  3.800000000000E-01
  12 T   8 O     1.300000000000E-01  4.100000000000E-01 -3.900000000000E-01

 T = ATOM BELONGING TO THE ASYMMETRIC UNIT

 ****    1 SYMMOPS - TRANSLATORS IN FRACTIONAL UNITS
 **** MATRICES AND TRANSLATORS IN THE CRYSTALLOGRAPHIC REFERENCE FRAME
   V INV                    ROTATION MATRICES                   TRANSLATORS
   1   1  1.00  0.00  0.00  0.00  1.00  0.00  0.00  0.00  1.00  0.00  0.00  0.00

 DIRECT LATTICE VECTORS CARTESIAN COMPONENTS (ANGSTROM)
          X                    Y                    Z
   0.563000000000E+01   0.344738073960E-15   0.000000000000E+00
   0.000000000000E+00   0.563000000000E+01   0.000000000000E+00
   0.344738073960E-15   0.344738073960E-15   0.563000000000E+01


 CARTESIAN COORDINATES - PRIMITIVE CELL
 *******************************************************************************
 *      ATOM          X(ANGSTROM)         Y(ANGSTROM)         Z(ANGSTROM)
 *******************************************************************************
    1     6 C     0.000000000000E+00  0.000000000000E+00  0.000000000000E+00
    2     8 O     6.756000000000E-01  6.756000000000E-01  6.756000000000E-01
    3     8 O    -6.193000000000E-01 -8.445000000000E-01 -5.067000000000E-01
    4     6 C     2.815000000000E+00  1.126000000000E-01  2.758700000000E+00
    5     8 O     1.970500000000E+00 -6.193000000000E-01 -2.083100000000E+00
    6     8 O    -2.252000000000E+00  7.882000000000E-01  2.139400000000E+00
    7     6 C     2.758700000000E+00  2.758700000000E+00 -1.126000000000E-01
    8     8 O    -2.083100000000E+00  2.308300000000E+00 -6.193000000000E-01
    9     8 O     2.252000000000E+00 -2.026800000000E+00  5.067000000000E-01
   10     6 C    -1.126000000000E-01  2.815000000000E+00  2.758700000000E+00
   11     8 O    -7.882000000000E-01 -2.252000000000E+00  2.139400000000E+00
   12     8 O     7.319000000000E-01  2.308300000000E+00 -2.195700000000E+00

 *******************************************************************************
 STARTING BASIS SET HANDLING 
 *******************************************************************************

 Loading internal basis set: POB-TZVP            

 Please cite in your publication:
 Peintinger, M. F., Oliveira, D. V. and Bredow, T. (2013), Consistent Gaussian b
 asis sets of triple-zeta valence with polarization quality for solid-state calc
 ulations. J. Comput. Chem., 34: 451–459. doi: 10.1002/jcc.23153              
                    

 *******************************************************************************
 LOCAL ATOMIC FUNCTIONS BASIS SET
 *******************************************************************************
   ATOM   X(AU)   Y(AU)   Z(AU)  N. TYPE  EXPONENT  S COEF   P COEF   D/F/G COEF
 *******************************************************************************
   1 C    0.000   0.000   0.000
                                  1 S  
                                         1.358E+04 2.225E-04 0.000E+00 0.000E+00
                                         2.035E+03 1.723E-03 0.000E+00 0.000E+00
                                         4.632E+02 8.926E-03 0.000E+00 0.000E+00
                                         1.312E+02 3.573E-02 0.000E+00 0.000E+00
                                         4.285E+01 1.108E-01 0.000E+00 0.000E+00
                                         1.558E+01 2.430E-01 0.000E+00 0.000E+00
                                  2 S  
                                         6.207E+00 4.144E-01 0.000E+00 0.000E+00
                                         2.576E+00 2.374E-01 0.000E+00 0.000E+00
                                  3 S  
                                         4.941E-01 1.000E+00 0.000E+00 0.000E+00
                                  4 S  
                                         1.644E-01 1.000E+00 0.000E+00 0.000E+00
                             5-   7 P  
                                         3.470E+01 0.000E+00 5.333E-03 0.000E+00
                                         7.958E+00 0.000E+00 3.586E-02 0.000E+00
                                         2.378E+00 0.000E+00 1.422E-01 0.000E+00
                                         8.143E-01 0.000E+00 3.427E-01 0.000E+00
                             8-  10 P  
                                         5.662E-01 0.000E+00 1.000E+00 0.000E+00
                            11-  13 P  
                                         2.674E-01 0.000E+00 1.000E+00 0.000E+00
                            14-  18 D  
                                         8.792E-01 0.000E+00 0.000E+00 1.000E+00
   2 O    1.277   1.277   1.277
                                 19 S  
                                         2.703E+04 2.173E-04 0.000E+00 0.000E+00
                                         4.052E+03 1.684E-03 0.000E+00 0.000E+00
                                         9.223E+02 8.740E-03 0.000E+00 0.000E+00
                                         2.612E+02 3.524E-02 0.000E+00 0.000E+00
                                         8.535E+01 1.115E-01 0.000E+00 0.000E+00
                                         3.104E+01 2.559E-01 0.000E+00 0.000E+00
                                 20 S  
                                         1.226E+01 3.977E-01 0.000E+00 0.000E+00
                                         4.999E+00 2.463E-01 0.000E+00 0.000E+00
                                 21 S  
                                         8.479E-01 1.000E+00 0.000E+00 0.000E+00
                                 22 S  
                                         1.851E-01 1.000E+00 0.000E+00 0.000E+00
                            23-  25 P  
                                         6.327E+01 0.000E+00 6.069E-03 0.000E+00
                                         1.463E+01 0.000E+00 4.191E-02 0.000E+00
                                         4.450E+00 0.000E+00 1.615E-01 0.000E+00
                                         1.528E+00 0.000E+00 3.571E-01 0.000E+00
                            26-  28 P  
                                         5.490E-01 0.000E+00 1.000E+00 0.000E+00
                            29-  31 P  
                                         1.824E-01 0.000E+00 1.000E+00 0.000E+00
                            32-  36 D  
                                         5.000E-01 0.000E+00 0.000E+00 1.000E+00
   3 O   -1.170  -1.596  -0.958
   4 C    5.320   0.213   5.213
   5 O    3.724  -1.170  -3.936
   6 O   -4.256   1.489   4.043
   7 C    5.213   5.213  -0.213
   8 O   -3.936   4.362  -1.170
   9 O    4.256  -3.830   0.958
  10 C   -0.213   5.320   5.213
  11 O   -1.489  -4.256   4.043
  12 O    1.383   4.362  -4.149

 *******************************************************************************
 FINISHED BASIS SET HANDLING 
 *******************************************************************************

 INFORMATION **** SET_MPP **** PCRYSTAL CALCULATION
 INFORMATION **** READM2 **** NEW DEFAULT: FOCK/KS MATRIX MIXING SET TO 30 %
 INFORMATION **** READM2 **** NEW DEFAULT: FULL DIRECT SCF MODE
 INFORMATION **** READM2 **** NEW DEFAULT: COULOMB BIPOLAR BUFFER SET TO 32 Mb
 INFORMATION **** READM2 **** NEW DEFAULT: EXCHANGE BIPOLAR BUFFER SET TO 32 Mb

 *******************************************************************************
 NEW DEFAULT: DFT INTEGRATION GRID INCREASED TO XLGRID
 NEW DEFAULT: LEVEL SHIFTER 6 0
 IF THE SYSTEM IS A METAL USE KEYWORD NOSHIFT
 *******************************************************************************

 *******************************************************************************
 N. OF ATOMS PER CELL        12  COULOMB OVERLAP TOL         (T1) 10**   -6
 NUMBER OF SHELLS            96  COULOMB PENETRATION TOL     (T2) 10**   -6
 NUMBER OF AO               216  EXCHANGE OVERLAP TOL        (T3) 10**   -6
 N. OF ELECTRONS PER CELL    88  EXCHANGE PSEUDO OVP (F(G))  (T4) 10**   -6
 CORE ELECTRONS PER CELL     24  EXCHANGE PSEUDO OVP (P(G))  (T5) 10**  -12
 N. OF SYMMETRY OPERATORS     1  POLE ORDER IN MONO ZONE                  4
 *******************************************************************************
 TYPE OF CALCULATION :  RESTRICTED CLOSED SHELL
 KOHN-SHAM HAMILTONIAN

 (EXCHANGE)[CORRELATION] FUNCTIONAL:(BECKE 88)[LEE-YANG-PARR]

 NON-LOCAL WEIGHTING FACTOR (EXCHANGE) =           0.9000
 NON-LOCAL WEIGHTING FACTOR [CORRELATION] =        0.8100

 HYBRID EXCHANGE - PERCENTAGE OF FOCK EXCHANGE    20.0000
 EIGENVALUE LEVEL SHIFTING OF  0.600 HARTREE

 CAPPA:IS1  8;IS2  8;IS3  8; K PTS MONK NET 260; SYMMOPS:K SPACE   2;G SPACE   1

 *******************************************************************************
 MAX NUMBER OF SCF CYCLES      50  CONVERGENCE ON DELTAP        10**-16
 WEIGHT OF F(I) IN F(I+1)      30% CONVERGENCE ON ENERGY        10**- 6
 EIGENVALUE LEVEL SHIFTING OF  0.600 HARTREE
 SHRINK. FACT.(MONKH.)    8  8  8  NUMBER OF K POINTS IN THE IBZ    260
 SHRINKING FACTOR(GILAT NET)    8  NUMBER OF K POINTS(GILAT NET)    260
 *******************************************************************************
 *** K POINTS COORDINATES (OBLIQUE COORDINATES IN UNITS OF IS =  8)
   1-R(  0  0  0)   2-C(  1  0  0)   3-C(  2  0  0)   4-C(  3  0  0)
   5-R(  4  0  0)   6-C(  0  1  0)   7-C(  1  1  0)   8-C(  2  1  0)
   9-C(  3  1  0)  10-C(  4  1  0)  11-C(  5  1  0)  12-C(  6  1  0)
  13-C(  7  1  0)  14-C(  0  2  0)  15-C(  1  2  0)  16-C(  2  2  0)
  17-C(  3  2  0)  18-C(  4  2  0)  19-C(  5  2  0)  20-C(  6  2  0)
  21-C(  7  2  0)  22-C(  0  3  0)  23-C(  1  3  0)  24-C(  2  3  0)
  25-C(  3  3  0)  26-C(  4  3  0)  27-C(  5  3  0)  28-C(  6  3  0)
  29-C(  7  3  0)  30-R(  0  4  0)  31-C(  1  4  0)  32-C(  2  4  0)
  33-C(  3  4  0)  34-R(  4  4  0)  35-C(  0  0  1)  36-C(  1  0  1)
  37-C(  2  0  1)  38-C(  3  0  1)  39-C(  4  0  1)  40-C(  5  0  1)
  41-C(  6  0  1)  42-C(  7  0  1)  43-C(  0  1  1)  44-C(  1  1  1)
  45-C(  2  1  1)  46-C(  3  1  1)  47-C(  4  1  1)  48-C(  5  1  1)
  49-C(  6  1  1)  50-C(  7  1  1)  51-C(  0  2  1)  52-C(  1  2  1)
  53-C(  2  2  1)  54-C(  3  2  1)  55-C(  4  2  1)  56-C(  5  2  1)
  57-C(  6  2  1)  58-C(  7  2  1)  59-C(  0  3  1)  60-C(  1  3  1)
  61-C(  2  3  1)  62-C(  3  3  1)  63-C(  4  3  1)  64-C(  5  3  1)
  65-C(  6  3  1)  66-C(  7  3  1)  67-C(  0  4  1)  68-C(  1  4  1)
  69-C(  2  4  1)  70-C(  3  4  1)  71-C(  4  4  1)  72-C(  5  4  1)
  73-C(  6  4  1)  74-C(  7  4  1)  75-C(  0  5  1)  76-C(  1  5  1)
  77-C(  2  5  1)  78-C(  3  5  1)  79-C(  4  5  1)  80-C(  5  5  1)
  81-C(  6  5  1)  82-C(  7  5  1)  83-C(  0  6  1)  84-C(  1  6  1)
  85-C(  2  6  1)  86-C(  3  6  1)  87-C(  4  6  1)  88-C(  5  6  1)
  89-C(  6  6  1)  90-C(  7  6  1)  91-C(  0  7  1)  92-C(  1  7  1)
  93-C(  2  7  1)  94-C(  3  7  1)  95-C(  4  7  1)  96-C(  5  7  1)
  97-C(  6  7  1)  98-C(  7  7  1)  99-C(  0  0  2) 100-C(  1  0  2)
 101-C(  2  0  2) 102-C(  3  0  2) 103-C(  4  0  2) 104-C(  5  0  2)
 105-C(  6  0  2) 106-C(  7  0  2) 107-C(  0  1  2) 108-C(  1  1  2)
 109-C(  2  1  2) 110-C(  3  1  2) 111-C(  4  1  2) 112-C(  5  1  2)
 113-C(  6  1  2) 114-C(  7  1  2) 115-C(  0  2  2) 116-C(  1  2  2)
 117-C(  2  2  2) 118-C(  3  2  2) 119-C(  4  2  2) 120-C(  5  2  2)
 121-C(  6  2  2) 122-C(  7  2  2) 123-C(  0  3  2) 124-C(  1  3  2)
 125-C(  2  3  2) 126-C(  3  3  2) 127-C(  4  3  2) 128-C(  5  3  2)
 129-C(  6  3  2) 130-C(  7  3  2) 131-C(  0  4  2) 132-C(  1  4  2)
 133-C(  2  4  2) 134-C(  3  4  2) 135-C(  4  4  2) 136-C(  5  4  2)
 137-C(  6  4  2) 138-C(  7  4  2) 139-C(  0  5  2) 140-C(  1  5  2)
 141-C(  2  5  2) 142-C(  3  5  2) 143-C(  4  5  2) 144-C(  5  5  2)
 145-C(  6  5  2) 146-C(  7  5  2) 147-C(  0  6  2) 148-C(  1  6  2)
 149-C(  2  6  2) 150-C(  3  6  2) 151-C(  4  6  2) 152-C(  5  6  2)
 153-C(  6  6  2) 154-C(  7  6  2) 155-C(  0  7  2) 156-C(  1  7  2)
 157-C(  2  7  2) 158-C(  3  7  2) 159-C(  4  7  2) 160-C(  5  7  2)
 161-C(  6  7  2) 162-C(  7  7  2) 163-C(  0  0  3) 164-C(  1  0  3)
 165-C(  2  0  3) 166-C(  3  0  3) 167-C(  4  0  3) 168-C(  5  0  3)
 169-C(  6  0  3) 170-C(  7  0  3) 171-C(  0  1  3) 172-C(  1  1  3)
 173-C(  2  1  3) 174-C(  3  1  3) 175-C(  4  1  3) 176-C(  5  1  3)
 177-C(  6  1  3) 178-C(  7  1  3) 179-C(  0  2  3) 180-C(  1  2  3)
 181-C(  2  2  3) 182-C(  3  2  3) 183-C(  4  2  3) 184-C(  5  2  3)
 185-C(  6  2  3) 186-C(  7  2  3) 187-C(  0  3  3) 188-C(  1  3  3)
 189-C(  2  3  3) 190-C(  3  3  3) 191-C(  4  3  3) 192-C(  5  3  3)
 193-C(  6  3  3) 194-C(  7  3  3) 195-C(  0  4  3) 196-C(  1  4  3)
 197-C(  2  4  3) 198-C(  3  4  3) 199-C(  4  4  3) 200-C(  5  4  3)
 201-C(  6  4  3) 202-C(  7  4  3) 203-C(  0  5  3) 204-C(  1  5  3)
 205-C(  2  5  3) 206-C(  3  5  3) 207-C(  4  5  3) 208-C(  5  5  3)
 209-C(  6  5  3) 210-C(  7  5  3) 211-C(  0  6  3) 212-C(  1  6  3)
 213-C(  2  6  3) 214-C(  3  6  3) 215-C(  4  6  3) 216-C(  5  6  3)
 217-C(  6  6  3) 218-C(  7  6  3) 219-C(  0  7  3) 220-C(  1  7  3)
 221-C(  2  7  3) 222-C(  3  7  3) 223-C(  4  7  3) 224-C(  5  7  3)
 225-C(  6  7  3) 226-C(  7  7  3) 227-R(  0  0  4) 228-C(  1  0  4)
 229-C(  2  0  4) 230-C(  3  0  4) 231-R(  4  0  4) 232-C(  0  1  4)
 233-C(  1  1  4) 234-C(  2  1  4) 235-C(  3  1  4) 236-C(  4  1  4)
 237-C(  5  1  4) 238-C(  6  1  4) 239-C(  7  1  4) 240-C(  0  2  4)
 241-C(  1  2  4) 242-C(  2  2  4) 243-C(  3  2  4) 244-C(  4  2  4)
 245-C(  5  2  4) 246-C(  6  2  4) 247-C(  7  2  4) 248-C(  0  3  4)
 249-C(  1  3  4) 250-C(  2  3  4) 251-C(  3  3  4) 252-C(  4  3  4)
 253-C(  5  3  4) 254-C(  6  3  4) 255-C(  7  3  4) 256-R(  0  4  4)
 257-C(  1  4  4) 258-C(  2  4  4) 259-C(  3  4  4) 260-R(  4  4  4)

 DIRECT LATTICE VECTORS COMPON. (A.U.)     RECIP. LATTICE VECTORS COMPON. (A.U.) 
        X            Y            Z              X            Y            Z
   10.6391581    0.0000000    0.0000000      0.5905717    0.0000000   -0.0000000
    0.0000000   10.6391581    0.0000000     -0.0000000    0.5905717   -0.0000000
    0.0000000    0.0000000   10.6391581      0.0000000    0.0000000    0.5905717

 DISK SPACE FOR EIGENVECTORS (FTN 10)    23887872 REALS

 SYMMETRY ADAPTION OF THE BLOCH FUNCTIONS DISABLED
 TTTTTTTTTTTTTTTTTTTTTTTTTTTTTT gordsh1     TELAPSE        0.56 TCPU        0.11

 MATRIX SIZE: P(G)  229008, F(G)   40377, P(G) IRR  115704, F(G) IRR   40749
 MAX G-VECTOR INDEX FOR 1- AND 2-ELECTRON INTEGRALS  81

 TTTTTTTTTTTTTTTTTTTTTTTTTTTTTT INPUT       TELAPSE        0.56 TCPU        0.12

 NEIGHBORS OF THE NON-EQUIVALENT ATOMS

 N = NUMBER OF NEIGHBORS AT DISTANCE R
    ATOM  N     R/ANG      R/AU   NEIGHBORS (ATOM LABELS AND CELL INDICES)
   1 C    1     1.1634     2.1985    3 O    0 0 0
   1 C    1     1.1702     2.2113    2 O    0 0 0
   1 C    1     2.9335     5.5436    5 O    0 0 0
   1 C    1     3.0718     5.8049    9 O    0 0 0
   1 C    1     3.1703     5.9911    8 O    0 0 0
   1 C    2     3.2047     6.0559    6 O    0 0 0   11 O    0 0 0

   2 O    1     1.1702     2.2113    1 C    0 0 0
   2 O    1     2.3206     4.3853    3 O    0 0 0
   2 O    1     3.0386     5.7422    4 C    0 0 0
   2 O    1     3.0496     5.7629    7 C    0 0 0
   2 O    1     3.0754     5.8117    6 O    1 0 0
   2 O    1     3.0883     5.8360   10 C    0 0 0

   3 O    1     1.1634     2.1985    1 C    0 0 0
   3 O    1     2.3206     4.3853    2 O    0 0 0
   3 O    1     2.8796     5.4416    8 O    0-1 0
   3 O    1     3.0019     5.6728   11 O    0 0 0
   3 O    1     3.0402     5.7451    5 O    0 0 0
   3 O    1     3.0553     5.7736    7 C   -1-1 0

   4 C    1     1.0756     2.0326    6 O    1 0 0
   4 C    1     1.3675     2.5842    5 O    0 0 1
   4 C    1     3.0386     5.7422    2 O    0 0 0
   4 C    1     3.1011     5.8602   12 O    0 0 1
   4 C    1     3.1568     5.9655    9 O    0 0 0
   4 C    1     3.1753     6.0005   11 O    1 0 0

   5 O    1     1.3675     2.5842    4 C    0 0-1
   5 O    1     2.4379     4.6069    6 O    1 0-1
   5 O    1     2.9335     5.5436    1 C    0 0 0
   5 O    1     2.9610     5.5954    9 O    0 0 0
   5 O    1     2.9749     5.6217   12 O    0-1 0
   5 O    1     3.0402     5.7451    3 O    0 0 0

   6 O    1     1.0756     2.0326    4 C   -1 0 0
   6 O    1     2.4379     4.6069    5 O   -1 0 1
   6 O    1     2.9749     5.6217   11 O    0 1 0
   6 O    1     3.0114     5.6907   10 C    0 0 0
   6 O    1     3.0558     5.7746    7 C   -1 0 0
   6 O    1     3.0754     5.8117    2 O   -1 0 0

   7 C    1     1.0396     1.9646    8 O    1 0 0
   7 C    1     1.1634     2.1985    9 O    0 1 0
   7 C    1     2.9411     5.5579   12 O    0 0 0
   7 C    1     3.0496     5.7629    2 O    0 0 0
   7 C    1     3.0553     5.7736    3 O    1 1 0
   7 C    1     3.0558     5.7746    6 O    1 0 0

   8 O    1     1.0396     1.9646    7 C   -1 0 0
   8 O    1     2.1497     4.0624    9 O   -1 1 0
   8 O    1     2.8796     5.4416    3 O    0 1 0
   8 O    1     3.0350     5.7353   10 C    0 0-1
   8 O    1     3.1543     5.9608    6 O    0 0 0
   8 O    1     3.1703     5.9911    1 C    0 0 0

   9 O    1     1.1634     2.1985    7 C    0-1 0
   9 O    1     2.1497     4.0624    8 O    1-1 0
   9 O    1     2.9610     5.5954    5 O    0 0 0
   9 O    1     3.0698     5.8010   11 O    1 0 0
   9 O    1     3.0718     5.8049    1 C    0 0 0
   9 O    1     3.1331     5.9208    2 O    0 0 0

  10 C    1     1.0756     2.0326   11 O    0 1 0
  10 C    1     1.1943     2.2569   12 O    0 0 1
  10 C    1     3.0114     5.6907    6 O    0 0 0
  10 C    1     3.0350     5.7353    8 O    0 0 1
  10 C    1     3.0883     5.8360    2 O    0 0 0
  10 C    1     3.1194     5.8949    3 O    0 1 1

  11 O    1     1.0756     2.0326   10 C    0-1 0
  11 O    1     2.2653     4.2809   12 O    0-1 1
  11 O    1     2.9749     5.6217    6 O    0-1 0
  11 O    1     3.0019     5.6728    3 O    0 0 0
  11 O    1     3.0698     5.8010    9 O   -1 0 0
  11 O    1     3.1296     5.9141    7 C   -1-1 0

  12 O    1     1.1943     2.2569   10 C    0 0-1
  12 O    1     2.2653     4.2809   11 O    0 1-1
  12 O    1     2.9411     5.5579    7 C    0 0 0
  12 O    1     2.9749     5.6217    5 O    0 1 0
  12 O    1     3.1011     5.8602    4 C    0 0-1
  12 O    1     3.1808     6.0109    5 O    0 0 0


 SYMMETRY ALLOWED INTERNAL DEGREE(S) OF FREEDOM:  33
 TTTTTTTTTTTTTTTTTTTTTTTTTTTTTT SYMM        TELAPSE        0.57 TCPU        0.12
 TTTTTTTTTTTTTTTTTTTTTTTTTTTTTT INT_SCREEN  TELAPSE        0.57 TCPU        0.13
 INFORMATION **** EXCBUF **** EXCH. BIPO BUFFER: WORDS USED =      767664

 DFT PARAMETERS

     ATOM       ELECTRONS   NET CHARGE   R(ANGSTROM)
   1   6  C       6.0000      0.0000     0.77000000
   2   8  O       8.0000      0.0000     0.74000000

 SIZE OF GRID=     422709
 TTTTTTTTTTTTTTTTTTTTTTTTTTTTTT MAKE_GRID2  TELAPSE        1.06 TCPU        0.61
 BECKE WEIGHT FUNCTION
 RADSAFE =     2.00
 TOLERANCES - DENSITY:10**- 6; POTENTIAL:10**- 9; GRID WGT:10**-14

 RADIAL INTEGRATION  - INTERVALS (POINTS,UPPER LIMIT):            1( 75,  4.0*R)

 ANGULAR INTEGRATION - INTERVALS (ACCURACY LEVEL [N. POINTS] UPPER LIMIT):
  1(  4[  86]   0.2)  2(  8[ 194]   0.5)  3( 12[ 350]   0.9)  4( 16[ 974]   3.5)
  5( 12[ 350]9999.0)
 TTTTTTTTTTTTTTTTTTTTTTTTTTTTTT INT_CALC    TELAPSE        1.09 TCPU        0.64
 EEEEEEEEEE INT_CALC TERMINATION  DATE 18 05 2022 TIME 12:42:45.2

 *******************************************************************************
 DRY-ICE                                                                         
 CRYSTAL - SCF - TYPE OF CALCULATION :  RESTRICTED CLOSED SHELL
 *******************************************************************************

 CAPPA:IS1  8;IS2  8;IS3  8; K PTS MONK NET 260; SYMMOPS:K SPACE   2;G SPACE   1

 TTTTTTTTTTTTTTTTTTTTTTTTTTTTTT SDIK        TELAPSE        1.44 TCPU        0.96

 AAAAAAAAAAAAAAAAAAAAAAAAAAAAAAAAAAAAAAAAAAAAAAAAAAAAAAAAAAAAAAAAAAAAAAAAAAAAAAA
         ATOMIC WAVEFUNCTION(S)


 NUCLEAR CHARGE  6.0  SYMMETRY SPECIES            S    P
 N. ELECTRONS    6.0  NUMBER OF PRIMITIVE GTOS   10    6
                      NUMBER OF CONTRACTED GTOS   4    3
                      NUMBER OF CLOSED SHELLS     2    0
                      OPEN SHELL OCCUPATION       0    2

  ZNUC SCFIT  TOTAL HF ENERGY   KINETIC ENERGY   VIRIAL THEOREM ACCURACY
   6.0  10   -3.766702350E+01  3.783137943E+01 -1.995655566E+00  1.6E-06

 NUCLEAR CHARGE  8.0  SYMMETRY SPECIES            S    P
 N. ELECTRONS    8.0  NUMBER OF PRIMITIVE GTOS   10    6
                      NUMBER OF CONTRACTED GTOS   4    3
                      NUMBER OF CLOSED SHELLS     2    0
                      OPEN SHELL OCCUPATION       0    4

  ZNUC SCFIT  TOTAL HF ENERGY   KINETIC ENERGY   VIRIAL THEOREM ACCURACY
   8.0  13   -7.479377997E+01  7.483473100E+01 -1.999452780E+00  5.0E-06

 AAAAAAAAAAAAAAAAAAAAAAAAAAAAAAAAAAAAAAAAAAAAAAAAAAAAAAAAAAAAAAAAAAAAAAAAAAAAAAA

 CHARGE NORMALIZATION FACTOR   1.00000000
 TOTAL ATOMIC CHARGES:
   6.0000000   8.0000000   8.0000000   6.0000000   8.0000000   8.0000000
   6.0000000   8.0000000   8.0000000   6.0000000   8.0000000   8.0000000
 TTTTTTTTTTTTTTTTTTTTTTTTTTTTTT MOQGAD      TELAPSE        1.53 TCPU        1.05
 TTTTTTTTTTTTTTTTTTTTTTTTTTTTTT SHELLX2     TELAPSE       19.75 TCPU       19.21
 TTTTTTTTTTTTTTTTTTTTTTTTTTTTTT MONMO3      TELAPSE       21.22 TCPU       20.68
 NUMERICALLY INTEGRATED DENSITY     87.9999922119
 TTTTTTTTTTTTTTTTTTTTTTTTTTTTTT NUMDFT      TELAPSE       22.33 TCPU       21.78
 CYC   0 ETOT(AU) -7.565506748605E+02 DETOT -7.57E+02 tst  0.00E+00 PX  1.00E+00
 TTTTTTTTTTTTTTTTTTTTTTTTTTTTTT FDIK        TELAPSE       34.42 TCPU       31.83
 INSULATING STATE
 TOP OF VALENCE BANDS -    BAND     44; K  227; EIG -3.7638890E-01 AU
 TOP OF VALENCE BANDS -    BAND     44; K    1; EIG -3.7700994E-01 AU
 BOTTOM OF VIRTUAL BANDS - BAND     45; K    1; EIG -7.5638014E-02 AU
 TTTTTTTTTTTTTTTTTTTTTTTTTTTTTT PDIG        TELAPSE       34.69 TCPU       32.09
 CHARGE NORMALIZATION FACTOR   1.00000000
 TOTAL ATOMIC CHARGES:
   4.5751808   8.7154313   8.7069990   4.5540950   8.9480178   8.4925988
   4.6654681   8.5485064   8.7941637   4.6657032   8.5501636   8.7836721
 TTTTTTTTTTTTTTTTTTTTTTTTTTTTTT MOQGAD      TELAPSE       34.70 TCPU       32.10
 TTTTTTTTTTTTTTTTTTTTTTTTTTTTTT SHELLX2     TELAPSE       53.95 TCPU       51.29
 TTTTTTTTTTTTTTTTTTTTTTTTTTTTTT MONMO3      TELAPSE       55.58 TCPU       52.92
 NUMERICALLY INTEGRATED DENSITY     87.9999980794
 TTTTTTTTTTTTTTTTTTTTTTTTTTTTTT NUMDFT      TELAPSE       58.95 TCPU       56.29
 CYC   1 ETOT(AU) -7.536767122628E+02 DETOT  2.87E+00 tst  0.00E+00 PX  1.00E+00
 TTTTTTTTTTTTTTTTTTTTTTTTTTTTTT FDIK        TELAPSE       61.32 TCPU       58.64
 INSULATING STATE
 TOP OF VALENCE BANDS -    BAND     44; K    5; EIG -2.5612237E-01 AU
 TOP OF VALENCE BANDS -    BAND     44; K    1; EIG -2.5695260E-01 AU
 BOTTOM OF VIRTUAL BANDS - BAND     45; K    1; EIG -3.7001397E-02 AU
 TTTTTTTTTTTTTTTTTTTTTTTTTTTTTT PDIG        TELAPSE       61.57 TCPU       58.89
 CHARGE NORMALIZATION FACTOR   1.00000000
 TOTAL ATOMIC CHARGES:
   5.0630622   8.4871593   8.4490712   5.1072108   8.6407374   8.2466793
   5.0811773   8.3534802   8.5723110   5.1085132   8.3279724   8.5626258
 TTTTTTTTTTTTTTTTTTTTTTTTTTTTTT MOQGAD      TELAPSE       61.58 TCPU       58.90
 TTTTTTTTTTTTTTTTTTTTTTTTTTTTTT SHELLX2     TELAPSE       80.83 TCPU       78.10
 TTTTTTTTTTTTTTTTTTTTTTTTTTTTTT MONMO3      TELAPSE       82.46 TCPU       79.73
 NUMERICALLY INTEGRATED DENSITY     87.9999988132
 TTTTTTTTTTTTTTTTTTTTTTTTTTTTTT NUMDFT      TELAPSE       85.81 TCPU       83.07
 CYC   2 ETOT(AU) -7.540427149304E+02 DETOT -3.66E-01 tst  1.25E-02 PX  1.37E-01
 TTTTTTTTTTTTTTTTTTTTTTTTTTTTTT FDIK        TELAPSE       88.01 TCPU       85.26
 INSULATING STATE
 TOP OF VALENCE BANDS -    BAND     44; K    5; EIG -3.1832368E-01 AU
 TOP OF VALENCE BANDS -    BAND     44; K    1; EIG -3.1907081E-01 AU
 BOTTOM OF VIRTUAL BANDS - BAND     45; K    1; EIG -3.1316012E-02 AU
 TTTTTTTTTTTTTTTTTTTTTTTTTTTTTT PDIG        TELAPSE       88.27 TCPU       85.51
 CHARGE NORMALIZATION FACTOR   1.00000000
 TOTAL ATOMIC CHARGES:
   5.0581066   8.4874619   8.4543203   5.1121496   8.6205499   8.2635497
   5.0749254   8.3635085   8.5667958   5.0992533   8.3404012   8.5589777
 TTTTTTTTTTTTTTTTTTTTTTTTTTTTTT MOQGAD      TELAPSE       88.28 TCPU       85.52
 TTTTTTTTTTTTTTTTTTTTTTTTTTTTTT SHELLX2     TELAPSE      107.52 TCPU      104.71
 TTTTTTTTTTTTTTTTTTTTTTTTTTTTTT MONMO3      TELAPSE      109.15 TCPU      106.34
 NUMERICALLY INTEGRATED DENSITY     87.9999988782
 TTTTTTTTTTTTTTTTTTTTTTTTTTTTTT NUMDFT      TELAPSE      112.52 TCPU      109.69
 CYC   3 ETOT(AU) -7.540560918529E+02 DETOT -1.34E-02 tst  1.23E-04 PX  3.93E-02
 TTTTTTTTTTTTTTTTTTTTTTTTTTTTTT FDIK        TELAPSE      114.68 TCPU      111.85
 INSULATING STATE
 TOP OF VALENCE BANDS -    BAND     44; K    5; EIG -3.2938903E-01 AU
 TOP OF VALENCE BANDS -    BAND     44; K    1; EIG -3.2988993E-01 AU
 BOTTOM OF VIRTUAL BANDS - BAND     45; K    1; EIG -2.8847669E-02 AU
 TTTTTTTTTTTTTTTTTTTTTTTTTTTTTT PDIG        TELAPSE      120.43 TCPU      117.59
 CHARGE NORMALIZATION FACTOR   1.00000000
 TOTAL ATOMIC CHARGES:
   5.0078153   8.5108098   8.4813801   5.0611448   8.6435489   8.2925336
   5.0282821   8.3887826   8.5873743   5.0504918   8.3673495   8.5804873
 TTTTTTTTTTTTTTTTTTTTTTTTTTTTTT MOQGAD      TELAPSE      120.44 TCPU      117.59
 TTTTTTTTTTTTTTTTTTTTTTTTTTTTTT SHELLX2     TELAPSE      139.69 TCPU      136.79
 TTTTTTTTTTTTTTTTTTTTTTTTTTTTTT MONMO3      TELAPSE      141.23 TCPU      138.32
 NUMERICALLY INTEGRATED DENSITY     87.9999988122
 TTTTTTTTTTTTTTTTTTTTTTTTTTTTTT NUMDFT      TELAPSE      144.58 TCPU      141.67
 CYC   4 ETOT(AU) -7.540606973844E+02 DETOT -4.61E-03 tst  4.23E-05 PX  2.52E-02
 TTTTTTTTTTTTTTTTTTTTTTTTTTTTTT FDIK        TELAPSE      147.52 TCPU      144.60
 INSULATING STATE
 TOP OF VALENCE BANDS -    BAND     44; K    5; EIG -3.2244619E-01 AU
 TOP OF VALENCE BANDS -    BAND     44; K    1; EIG -3.2286690E-01 AU
 BOTTOM OF VIRTUAL BANDS - BAND     45; K    1; EIG -2.6934530E-02 AU
 TTTTTTTTTTTTTTTTTTTTTTTTTTTTTT PDIG        TELAPSE      147.78 TCPU      144.85
 CHARGE NORMALIZATION FACTOR   1.00000000
 TOTAL ATOMIC CHARGES:
   5.0098320   8.5101984   8.4800663   5.0672482   8.6373029   8.2929200
   5.0272808   8.3911688   8.5857550   5.0508062   8.3684098   8.5790117
 TTTTTTTTTTTTTTTTTTTTTTTTTTTTTT MOQGAD      TELAPSE      147.78 TCPU      144.86
 TTTTTTTTTTTTTTTTTTTTTTTTTTTTTT SHELLX2     TELAPSE      167.04 TCPU      164.06
 TTTTTTTTTTTTTTTTTTTTTTTTTTTTTT MONMO3      TELAPSE      168.57 TCPU      165.58
 NUMERICALLY INTEGRATED DENSITY     87.9999988150
 TTTTTTTTTTTTTTTTTTTTTTTTTTTTTT NUMDFT      TELAPSE      171.92 TCPU      168.93
 CYC   5 ETOT(AU) -7.540609663831E+02 DETOT -2.69E-04 tst  1.15E-05 PX  6.29E-03
 TTTTTTTTTTTTTTTTTTTTTTTTTTTTTT FDIK        TELAPSE      173.98 TCPU      170.98
 INSULATING STATE
 TOP OF VALENCE BANDS -    BAND     44; K    5; EIG -3.2255750E-01 AU
 TOP OF VALENCE BANDS -    BAND     44; K    1; EIG -3.2297989E-01 AU
 BOTTOM OF VIRTUAL BANDS - BAND     45; K    1; EIG -2.6849119E-02 AU
 TTTTTTTTTTTTTTTTTTTTTTTTTTTTTT PDIG        TELAPSE      174.23 TCPU      171.23
 CHARGE NORMALIZATION FACTOR   1.00000000
 TOTAL ATOMIC CHARGES:
   5.0145794   8.5077451   8.4778057   5.0733873   8.6329452   8.2912350
   5.0315863   8.3895343   8.5829841   5.0549236   8.3668801   8.5763939
 TTTTTTTTTTTTTTTTTTTTTTTTTTTTTT MOQGAD      TELAPSE      174.24 TCPU      171.24
 TTTTTTTTTTTTTTTTTTTTTTTTTTTTTT SHELLX2     TELAPSE      193.50 TCPU      190.44
 TTTTTTTTTTTTTTTTTTTTTTTTTTTTTT MONMO3      TELAPSE      195.02 TCPU      191.96
 NUMERICALLY INTEGRATED DENSITY     87.9999988243
 TTTTTTTTTTTTTTTTTTTTTTTTTTTTTT NUMDFT      TELAPSE      198.38 TCPU      195.31
 CYC   6 ETOT(AU) -7.540610293632E+02 DETOT -6.30E-05 tst  4.90E-06 PX  1.80E-03
 TTTTTTTTTTTTTTTTTTTTTTTTTTTTTT FDIK        TELAPSE      200.39 TCPU      197.31
 INSULATING STATE
 TOP OF VALENCE BANDS -    BAND     44; K    5; EIG -3.2375723E-01 AU
 TOP OF VALENCE BANDS -    BAND     44; K    1; EIG -3.2418126E-01 AU
 BOTTOM OF VIRTUAL BANDS - BAND     45; K    1; EIG -2.7038694E-02 AU
 TTTTTTTTTTTTTTTTTTTTTTTTTTTTTT PDIG        TELAPSE      200.64 TCPU      197.56
 CHARGE NORMALIZATION FACTOR   1.00000000
 TOTAL ATOMIC CHARGES:
   5.0141936   8.5077236   8.4782187   5.0728356   8.6331713   8.2916362
   5.0316493   8.3895248   8.5828634   5.0545938   8.3672207   8.5763690
 TTTTTTTTTTTTTTTTTTTTTTTTTTTTTT MOQGAD      TELAPSE      200.64 TCPU      197.57
 TTTTTTTTTTTTTTTTTTTTTTTTTTTTTT SHELLX2     TELAPSE      219.89 TCPU      216.76
 TTTTTTTTTTTTTTTTTTTTTTTTTTTTTT MONMO3      TELAPSE      221.41 TCPU      218.27
 NUMERICALLY INTEGRATED DENSITY     87.9999988240
 TTTTTTTTTTTTTTTTTTTTTTTTTTTTTT NUMDFT      TELAPSE      224.77 TCPU      221.63
 CYC   7 ETOT(AU) -7.540610498201E+02 DETOT -2.05E-05 tst  7.82E-07 PX  1.39E-03
 TTTTTTTTTTTTTTTTTTTTTTTTTTTTTT FDIK        TELAPSE      226.74 TCPU      223.58
 INSULATING STATE
 TOP OF VALENCE BANDS -    BAND     44; K    5; EIG -3.2385929E-01 AU
 TOP OF VALENCE BANDS -    BAND     44; K    1; EIG -3.2428094E-01 AU
 BOTTOM OF VIRTUAL BANDS - BAND     45; K    1; EIG -2.7076671E-02 AU
 TTTTTTTTTTTTTTTTTTTTTTTTTTTTTT PDIG        TELAPSE      226.99 TCPU      223.84
 CHARGE NORMALIZATION FACTOR   1.00000000
 TOTAL ATOMIC CHARGES:
   5.0137612   8.5078890   8.4784898   5.0724969   8.6332109   8.2919767
   5.0312677   8.3898061   8.5829238   5.0541184   8.3675772   8.5764823
 TTTTTTTTTTTTTTTTTTTTTTTTTTTTTT MOQGAD      TELAPSE      227.00 TCPU      223.84
 TTTTTTTTTTTTTTTTTTTTTTTTTTTTTT SHELLX2     TELAPSE      246.25 TCPU      243.04
 TTTTTTTTTTTTTTTTTTTTTTTTTTTTTT MONMO3      TELAPSE      247.76 TCPU      244.55
 NUMERICALLY INTEGRATED DENSITY     87.9999988230
 TTTTTTTTTTTTTTTTTTTTTTTTTTTTTT NUMDFT      TELAPSE      251.13 TCPU      247.91
 CYC   8 ETOT(AU) -7.540610555919E+02 DETOT -5.77E-06 tst  4.23E-07 PX  8.52E-04
 TTTTTTTTTTTTTTTTTTTTTTTTTTTTTT FDIK        TELAPSE      253.00 TCPU      249.77
 INSULATING STATE
 TOP OF VALENCE BANDS -    BAND     44; K    5; EIG -3.2383720E-01 AU
 TOP OF VALENCE BANDS -    BAND     44; K    1; EIG -3.2425796E-01 AU
 BOTTOM OF VIRTUAL BANDS - BAND     45; K    1; EIG -2.7085479E-02 AU
 TTTTTTTTTTTTTTTTTTTTTTTTTTTTTT PDIG        TELAPSE      253.25 TCPU      250.02
 CHARGE NORMALIZATION FACTOR   1.00000000
 TOTAL ATOMIC CHARGES:
   5.0138246   8.5078400   8.4784785   5.0726887   8.6329815   8.2920349
   5.0312752   8.3898812   8.5828189   5.0541019   8.3676610   8.5764135
 TTTTTTTTTTTTTTTTTTTTTTTTTTTTTT MOQGAD      TELAPSE      253.26 TCPU      250.03
 TTTTTTTTTTTTTTTTTTTTTTTTTTTTTT SHELLX2     TELAPSE      272.51 TCPU      269.23
 TTTTTTTTTTTTTTTTTTTTTTTTTTTTTT MONMO3      TELAPSE      274.04 TCPU      270.75
 NUMERICALLY INTEGRATED DENSITY     87.9999988231
 TTTTTTTTTTTTTTTTTTTTTTTTTTTTTT NUMDFT      TELAPSE      277.41 TCPU      274.11
 CYC   9 ETOT(AU) -7.540610571078E+02 DETOT -1.52E-06 tst  2.44E-07 PX  4.77E-04
 TTTTTTTTTTTTTTTTTTTTTTTTTTTTTT FDIK        TELAPSE      279.30 TCPU      275.99
 INSULATING STATE
 TOP OF VALENCE BANDS -    BAND     44; K    5; EIG -3.2389135E-01 AU
 TOP OF VALENCE BANDS -    BAND     44; K    1; EIG -3.2431196E-01 AU
 BOTTOM OF VIRTUAL BANDS - BAND     45; K    1; EIG -2.7099521E-02 AU
 TTTTTTTTTTTTTTTTTTTTTTTTTTTTTT PDIG        TELAPSE      279.55 TCPU      276.25
 CHARGE NORMALIZATION FACTOR   1.00000000
 TOTAL ATOMIC CHARGES:
   5.0138577   8.5078037   8.4784828   5.0727381   8.6329048   8.2920760
   5.0313165   8.3898956   8.5827491   5.0541115   8.3676924   8.5763721
 TTTTTTTTTTTTTTTTTTTTTTTTTTTTTT MOQGAD      TELAPSE      279.56 TCPU      276.25
 TTTTTTTTTTTTTTTTTTTTTTTTTTTTTT SHELLX2     TELAPSE      298.81 TCPU      295.45
 TTTTTTTTTTTTTTTTTTTTTTTTTTTTTT MONMO3      TELAPSE      300.33 TCPU      296.97
 NUMERICALLY INTEGRATED DENSITY     87.9999988233
 TTTTTTTTTTTTTTTTTTTTTTTTTTTTTT NUMDFT      TELAPSE      303.69 TCPU      300.32
 CYC  10 ETOT(AU) -7.540610577230E+02 DETOT -6.15E-07 tst  1.05E-07 PX  3.07E-04
 TTTTTTTTTTTTTTTTTTTTTTTTTTTTTT FDIK        TELAPSE      305.59 TCPU      302.21
 INSULATING STATE
 TOP OF VALENCE BANDS -    BAND     44; K    5; EIG -3.2392293E-01 AU
 TOP OF VALENCE BANDS -    BAND     44; K    1; EIG -3.2434335E-01 AU
 BOTTOM OF VIRTUAL BANDS - BAND     45; K    1; EIG -2.7109227E-02 AU
 TTTTTTTTTTTTTTTTTTTTTTTTTTTTTT PDIG        TELAPSE      305.85 TCPU      302.46
 CHARGE NORMALIZATION FACTOR   1.00000000
 TOTAL ATOMIC CHARGES:
   5.0138433   8.5077980   8.4785028   5.0727149   8.6328873   8.2921252
   5.0313118   8.3899229   8.5827180   5.0540881   8.3677248   8.5763629
 TTTTTTTTTTTTTTTTTTTTTTTTTTTTTT MOQGAD      TELAPSE      305.85 TCPU      302.47
 TTTTTTTTTTTTTTTTTTTTTTTTTTTTTT SHELLX2     TELAPSE      325.10 TCPU      321.67
 +++ ENERGIES IN A.U. +++
 ::: EXT EL-POLE                                  -7.9517895435815E+02
 ::: EXT EL-SPHEROPOLE                             9.7607184355287E+00
 ::: BIELET ZONE E-E                               1.0076569112669E+03
 ::: TOTAL E-E                                     2.2223867534431E+02
 ::: TOTAL E-N + N-E                              -1.5141124580779E+03
 ::: TOTAL N-N                                    -1.4164846395657E+02
 ::: KINETIC ENERGY                                7.5226568811734E+02
 ::: PSEUDO TOTAL   ENERGY                        -6.8125655857287E+02
 ::: VIRIAL COEFFICIENT                            1.0495347244931E+00
 TTTTTTTTTTTTTTTTTTTTTTTTTTTTTT MONMO3      TELAPSE      326.65 TCPU      323.21
 NUMERICALLY INTEGRATED DENSITY     87.9999988234
 TTTTTTTTTTTTTTTTTTTTTTTTTTTTTT NUMDFT      TELAPSE      330.02 TCPU      326.57
 CYC  11 ETOT(AU) -7.540610580035E+02 DETOT -2.80E-07 tst  4.81E-08 PX  3.07E-04

 == SCF ENDED - CONVERGENCE ON ENERGY      E(AU) -7.5406105800347E+02 CYCLES  11


 ENERGY EXPRESSION=HARTREE+FOCK EXCH*0.20000+(BECKE      EXCH)*0.80000+LYP        CORR


 TOTAL ENERGY(DFT)(AU)( 11) -7.5406105800347E+02 DE-2.8E-07 tester 4.8E-08
 TTTTTTTTTTTTTTTTTTTTTTTTTTTTTT EDFT        TELAPSE      330.02 TCPU      326.57
 EIGENVECTORS IN FORTRAN UNIT 10
 TTTTTTTTTTTTTTTTTTTTTTTTTTTTTT END         TELAPSE      330.28 TCPU      326.82
 EEEEEEEEEE TERMINATION  DATE 18 05 2022 TIME 12:48:14.4
NODE    0 CPU TIME =       326.818
NODE    1 CPU TIME =       326.867
NODE    2 CPU TIME =       326.121
NODE    3 CPU TIME =       326.738
NODE    4 CPU TIME =       326.932
NODE    5 CPU TIME =       321.358
NODE    6 CPU TIME =       317.952
NODE    7 CPU TIME =       317.898
NODE    8 CPU TIME =       321.743
NODE    9 CPU TIME =       324.750
    TOTAL CPU TIME =      3237.177
