          10 PROCESSORS WORKING

         
 *******************************************************************************
 *                                                                             *
 *                               CRYSTAL14                                     *
 *                      public : 1.0.4 - Feb 23rd, 2016                        *
 *                       HTTP://WWW.CRYSTAL.UNITO.IT                           *
 *                                                                             *
 *                              MAIN AUTHORS                                   *
 *                                                                             *
 *  R. DOVESI(1,11), V.R. SAUNDERS(2), C. ROETTI(1,11), R. ORLANDO(1,11),      *
 *  C.M. ZICOVICH-WILSON(1,3), F. PASCALE(4), B. CIVALLERI(1,11),              *
 *  K. DOLL(5), N.M. HARRISON(2,6), I. J. BUSH(7), Ph. D'ARCO(8),              *
 *  M. LLUNELL(9), M. CAUSA'(10), Y. NOEL(8)                                   *
 *                                                                             *
 *        CONTRIBUTIONS TO THE CURRENT RELEASE HAVE BEEN GIVEN BY              *
 *                                                                             *
 *  L. MASCHIO(1,11), S. CASASSA(1,11), A. ERBA(1,11), M. FERRABONE(1,11),     *
 *  M. DE LA PIERRE(1,11), M. FERRERO(1,11), V. LACIVITA(1,11),                *
 *  J. BAIMA(1,11), E. ALBANESE(1,11), M.F. PEINTINGER(12), R. BAST(13),       *
 *  M. RERAT(14), B. KIRTMAN(15), R. DEMICHELIS(1,16)                          *
 *                                                                             *
 * (1) THEORETICAL CHEMISTRY GROUP - UNIVERSITA' DI TORINO - TORINO (ITALY)    *
 *     http://www.crystal.unito.it                                             *
 * (2) COMPUTATIONAL SCIENCE & ENGINEERING DEPARTMENT - STFC DARESBURY (UK)    *
 *     http://www.stfc.ac.uk/CSE/randd/cmg/CRYSTAL/25806.aspx                  *
 * (3) UNIVERSIDAD AUTONOMA DEL ESTADO DE MORELOS - CUERNAVACA (MEXICO)        *
 * (4) UNIVERSITE' DE LORRAINE - NANCY (FRANCE)                                *
 * (5) UNIVERSITAET ULM - ULM (GERMANY); (6) IMPERIAL COLLEGE - LONDON (UK)    *
 * (7) NAG - OXFORD (UK); (8) UPMC - SORBONNE UNIVERSITES - PARIS (FRANCE)     *
 * (9) UNIVERSIDAD DE BARCELONA - BARCELONA (SPAIN)                            *
 *(10) UNIVERSITA' DI NAPOLI "FEDERICO II" - NAPOLI (ITALY)                    *
 *(11) NIS - NANOSTRUCTURED INTERFACES AND SURFACES - TORINO (ITALY)           *
 *(12) MPI FUER CHEMISCHE ENERGIEKONVERSION - MUELHEIM AN DER RUHR (GERMANY)   *
 *(13) UNIVERSITY OF STOCKHOLM - STOCKHOLM (SWEDEN)                            *
 *(14) UNIVERSITE' DE PAU ET DES PAYS DE L'ADOUR - PAU (FRANCE)                *
 *(15) UNIVERSITY OF CALIFORNIA SANTA BARBARA - SANTA BARBARA (USA)            *
 *(16) CURTIN UNIVERSITY - PERTH (AUSTRALIA)                                   *
 *                                                                             *
 ********************************************************************************
 EEEEEEEEEE STARTING  DATE 10 05 2022 TIME 15:58:30.1
 Ice II                                                                          

 CRYSTAL CALCULATION
 (INPUT ACCORDING TO THE INTERNATIONAL TABLES FOR X-RAY CRYSTALLOGRAPHY)
 CRYSTAL FAMILY                       :  CUBIC       
 CRYSTAL CLASS  (GROTH - 1921)        :  CUBIC DYAKISDODECAHEDRAL             

 SPACE GROUP (CENTROSYMMETRIC)        :  P A 3           

 LATTICE PARAMETERS  (ANGSTROMS AND DEGREES) - CONVENTIONAL CELL
        A           B           C        ALPHA        BETA       GAMMA
     5.63000     5.63000     5.63000    90.00000    90.00000    90.00000


 NUMBER OF IRREDUCIBLE ATOMS IN THE CONVENTIONAL CELL:    2

 INPUT COORDINATES

 ATOM AT. N.              COORDINATES
   1   6     0.000000000000E+00  0.000000000000E+00  0.000000000000E+00
   2   8     1.080000000000E-01  1.080000000000E-01  1.080000000000E-01

 *******************************************************************************

 << INFORMATION >>: FROM NOW ON, ALL COORDINATES REFER TO THE PRIMITIVE CELL

 *******************************************************************************

 LATTICE PARAMETERS  (ANGSTROMS AND DEGREES) - PRIMITIVE CELL
       A          B          C        ALPHA      BETA     GAMMA        VOLUME
    5.63000    5.63000    5.63000    90.00000  90.00000  90.00000    178.453547

 COORDINATES OF THE EQUIVALENT ATOMS (FRACTIONAL UNITS)

 N. ATOM EQUIV AT. N.          X                  Y                  Z

   1   1   1    6 C     0.00000000000E+00  0.00000000000E+00  0.00000000000E+00
   2   1   2    6 C    -5.00000000000E-01  0.00000000000E+00 -5.00000000000E-01
   3   1   3    6 C    -5.00000000000E-01 -5.00000000000E-01  0.00000000000E+00
   4   1   4    6 C     0.00000000000E+00 -5.00000000000E-01 -5.00000000000E-01

   5   2   1    8 O     1.08000000000E-01  1.08000000000E-01  1.08000000000E-01
   6   2   2    8 O     3.92000000000E-01 -1.08000000000E-01 -3.92000000000E-01
   7   2   3    8 O    -3.92000000000E-01  3.92000000000E-01 -1.08000000000E-01
   8   2   4    8 O    -1.08000000000E-01 -3.92000000000E-01  3.92000000000E-01
   9   2   5    8 O    -1.08000000000E-01 -1.08000000000E-01 -1.08000000000E-01
  10   2   6    8 O    -3.92000000000E-01  1.08000000000E-01  3.92000000000E-01
  11   2   7    8 O     3.92000000000E-01 -3.92000000000E-01  1.08000000000E-01
  12   2   8    8 O     1.08000000000E-01  3.92000000000E-01 -3.92000000000E-01

 NUMBER OF SYMMETRY OPERATORS         :   24
 *******************************************************************************
 * GEOMETRY EDITING - INPUT COORDINATES ARE GIVEN IN ANGSTROM         
 *******************************************************************************

 GEOMETRY NOW FULLY CONSISTENT WITH THE GROUP

 GCALCO - MAX INDICES DIRECT LATTICE VECTOR    14    14    14
 NO.OF VECTORS CREATED 6999 STARS  120 RMAX   126.33300 BOHR

 GEOMETRY FOR WAVE FUNCTION - DIMENSIONALITY OF THE SYSTEM    3
 (NON PERIODIC DIRECTION: LATTICE PARAMETER FORMALLY SET TO 500)
 *******************************************************************************
 LATTICE PARAMETERS (ANGSTROMS AND DEGREES) - BOHR = 0.5291772083 ANGSTROM
 PRIMITIVE CELL - CENTRING CODE 1/0 VOLUME=   178.453547 - DENSITY  1.637 g/cm^3
         A              B              C           ALPHA      BETA       GAMMA 
     5.63000000     5.63000000     5.63000000    90.000000  90.000000  90.000000
 *******************************************************************************
 ATOMS IN THE ASYMMETRIC UNIT    2 - ATOMS IN THE UNIT CELL:   12
     ATOM              X/A                 Y/B                 Z/C    
 *******************************************************************************
   1 T   6 C     0.000000000000E+00  0.000000000000E+00  0.000000000000E+00
   2 F   6 C     5.000000000000E-01  0.000000000000E+00 -5.000000000000E-01
   3 F   6 C     5.000000000000E-01 -5.000000000000E-01  0.000000000000E+00
   4 F   6 C     0.000000000000E+00 -5.000000000000E-01 -5.000000000000E-01
   5 T   8 O     1.080000000000E-01  1.080000000000E-01  1.080000000000E-01
   6 F   8 O     3.920000000000E-01 -1.080000000000E-01 -3.920000000000E-01
   7 F   8 O    -3.920000000000E-01  3.920000000000E-01 -1.080000000000E-01
   8 F   8 O    -1.080000000000E-01 -3.920000000000E-01  3.920000000000E-01
   9 F   8 O    -1.080000000000E-01 -1.080000000000E-01 -1.080000000000E-01
  10 F   8 O    -3.920000000000E-01  1.080000000000E-01  3.920000000000E-01
  11 F   8 O     3.920000000000E-01 -3.920000000000E-01  1.080000000000E-01
  12 F   8 O     1.080000000000E-01  3.920000000000E-01 -3.920000000000E-01

 T = ATOM BELONGING TO THE ASYMMETRIC UNIT

 ****   24 SYMMOPS - TRANSLATORS IN FRACTIONAL UNITS
 **** MATRICES AND TRANSLATORS IN THE CRYSTALLOGRAPHIC REFERENCE FRAME
   V INV                    ROTATION MATRICES                   TRANSLATORS
   1   1  1.00  0.00  0.00  0.00  1.00  0.00  0.00  0.00  1.00  0.00  0.00  0.00
   2   2 -1.00  0.00  0.00  0.00 -1.00  0.00  0.00  0.00  1.00  0.50  0.00  0.50
   3   3  1.00  0.00  0.00  0.00 -1.00  0.00  0.00  0.00 -1.00  0.50  0.50  0.00
   4   4 -1.00  0.00  0.00  0.00  1.00  0.00  0.00  0.00 -1.00  0.00  0.50  0.50
   5   6  0.00  0.00  1.00  1.00  0.00  0.00  0.00  1.00  0.00  0.00  0.00  0.00
   6   5  0.00  1.00  0.00  0.00  0.00  1.00  1.00  0.00  0.00  0.00  0.00  0.00
   7   8  0.00  0.00 -1.00 -1.00  0.00  0.00  0.00  1.00  0.00  0.50  0.00  0.50
   8   7  0.00 -1.00  0.00  0.00  0.00  1.00 -1.00  0.00  0.00  0.00  0.50  0.50
   9  10  0.00  0.00  1.00 -1.00  0.00  0.00  0.00 -1.00  0.00  0.50  0.50  0.00
  10   9  0.00 -1.00  0.00  0.00  0.00 -1.00  1.00  0.00  0.00  0.50  0.00  0.50
  11  12  0.00  0.00 -1.00  1.00  0.00  0.00  0.00 -1.00  0.00  0.00  0.50  0.50
  12  11  0.00  1.00  0.00  0.00  0.00 -1.00 -1.00  0.00  0.00  0.50  0.50  0.00
  13  13 -1.00  0.00  0.00  0.00 -1.00  0.00  0.00  0.00 -1.00  0.00  0.00  0.00
  14  14  1.00  0.00  0.00  0.00  1.00  0.00  0.00  0.00 -1.00  0.50  0.00  0.50
  15  15 -1.00  0.00  0.00  0.00  1.00  0.00  0.00  0.00  1.00  0.50  0.50  0.00
  16  16  1.00  0.00  0.00  0.00 -1.00  0.00  0.00  0.00  1.00  0.00  0.50  0.50
  17  18  0.00  0.00 -1.00 -1.00  0.00  0.00  0.00 -1.00  0.00  0.00  0.00  0.00
  18  17  0.00 -1.00  0.00  0.00  0.00 -1.00 -1.00  0.00  0.00  0.00  0.00  0.00
  19  20  0.00  0.00  1.00  1.00  0.00  0.00  0.00 -1.00  0.00  0.50  0.00  0.50
  20  19  0.00  1.00  0.00  0.00  0.00 -1.00  1.00  0.00  0.00  0.00  0.50  0.50
  21  22  0.00  0.00 -1.00  1.00  0.00  0.00  0.00  1.00  0.00  0.50  0.50  0.00
  22  21  0.00  1.00  0.00  0.00  0.00  1.00 -1.00  0.00  0.00  0.50  0.00  0.50
  23  24  0.00  0.00  1.00 -1.00  0.00  0.00  0.00  1.00  0.00  0.00  0.50  0.50
  24  23  0.00 -1.00  0.00  0.00  0.00  1.00  1.00  0.00  0.00  0.50  0.50  0.00

 DIRECT LATTICE VECTORS CARTESIAN COMPONENTS (ANGSTROM)
          X                    Y                    Z
   0.563000000000E+01   0.000000000000E+00   0.000000000000E+00
   0.000000000000E+00   0.563000000000E+01   0.000000000000E+00
   0.000000000000E+00   0.000000000000E+00   0.563000000000E+01


 CARTESIAN COORDINATES - PRIMITIVE CELL
 *******************************************************************************
 *      ATOM          X(ANGSTROM)         Y(ANGSTROM)         Z(ANGSTROM)
 *******************************************************************************
    1     6 C     0.000000000000E+00  0.000000000000E+00  0.000000000000E+00
    2     6 C     2.815000000000E+00  0.000000000000E+00  2.815000000000E+00
    3     6 C     2.815000000000E+00  2.815000000000E+00  0.000000000000E+00
    4     6 C     0.000000000000E+00  2.815000000000E+00  2.815000000000E+00
    5     8 O     6.080400000000E-01  6.080400000000E-01  6.080400000000E-01
    6     8 O     2.206960000000E+00 -6.080400000000E-01 -2.206960000000E+00
    7     8 O    -2.206960000000E+00  2.206960000000E+00 -6.080400000000E-01
    8     8 O    -6.080400000000E-01 -2.206960000000E+00  2.206960000000E+00
    9     8 O    -6.080400000000E-01 -6.080400000000E-01 -6.080400000000E-01
   10     8 O    -2.206960000000E+00  6.080400000000E-01  2.206960000000E+00
   11     8 O     2.206960000000E+00 -2.206960000000E+00  6.080400000000E-01
   12     8 O     6.080400000000E-01  2.206960000000E+00 -2.206960000000E+00

 *******************************************************************************
 STARTING BASIS SET HANDLING 
 *******************************************************************************

 Loading internal basis set: POB-TZVP            

 Please cite in your publication:
 Peintinger, M. F., Oliveira, D. V. and Bredow, T. (2013), Consistent Gaussian b
 asis sets of triple-zeta valence with polarization quality for solid-state calc
 ulations. J. Comput. Chem., 34: 451–459. doi: 10.1002/jcc.23153              
                    

 *******************************************************************************
 LOCAL ATOMIC FUNCTIONS BASIS SET
 *******************************************************************************
   ATOM   X(AU)   Y(AU)   Z(AU)  N. TYPE  EXPONENT  S COEF   P COEF   D/F/G COEF
 *******************************************************************************
   1 C    0.000   0.000   0.000
                                  1 S  
                                         1.358E+04 2.225E-04 0.000E+00 0.000E+00
                                         2.035E+03 1.723E-03 0.000E+00 0.000E+00
                                         4.632E+02 8.926E-03 0.000E+00 0.000E+00
                                         1.312E+02 3.573E-02 0.000E+00 0.000E+00
                                         4.285E+01 1.108E-01 0.000E+00 0.000E+00
                                         1.558E+01 2.430E-01 0.000E+00 0.000E+00
                                  2 S  
                                         6.207E+00 4.144E-01 0.000E+00 0.000E+00
                                         2.576E+00 2.374E-01 0.000E+00 0.000E+00
                                  3 S  
                                         4.941E-01 1.000E+00 0.000E+00 0.000E+00
                                  4 S  
                                         1.644E-01 1.000E+00 0.000E+00 0.000E+00
                             5-   7 P  
                                         3.470E+01 0.000E+00 5.333E-03 0.000E+00
                                         7.958E+00 0.000E+00 3.586E-02 0.000E+00
                                         2.378E+00 0.000E+00 1.422E-01 0.000E+00
                                         8.143E-01 0.000E+00 3.427E-01 0.000E+00
                             8-  10 P  
                                         5.662E-01 0.000E+00 1.000E+00 0.000E+00
                            11-  13 P  
                                         2.674E-01 0.000E+00 1.000E+00 0.000E+00
                            14-  18 D  
                                         8.792E-01 0.000E+00 0.000E+00 1.000E+00
   2 C    5.320   0.000   5.320
   3 C    5.320   5.320   0.000
   4 C    0.000   5.320   5.320
   5 O    1.149   1.149   1.149
                                 73 S  
                                         2.703E+04 2.173E-04 0.000E+00 0.000E+00
                                         4.052E+03 1.684E-03 0.000E+00 0.000E+00
                                         9.223E+02 8.740E-03 0.000E+00 0.000E+00
                                         2.612E+02 3.524E-02 0.000E+00 0.000E+00
                                         8.535E+01 1.115E-01 0.000E+00 0.000E+00
                                         3.104E+01 2.559E-01 0.000E+00 0.000E+00
                                 74 S  
                                         1.226E+01 3.977E-01 0.000E+00 0.000E+00
                                         4.999E+00 2.463E-01 0.000E+00 0.000E+00
                                 75 S  
                                         8.479E-01 1.000E+00 0.000E+00 0.000E+00
                                 76 S  
                                         1.851E-01 1.000E+00 0.000E+00 0.000E+00
                            77-  79 P  
                                         6.327E+01 0.000E+00 6.069E-03 0.000E+00
                                         1.463E+01 0.000E+00 4.191E-02 0.000E+00
                                         4.450E+00 0.000E+00 1.615E-01 0.000E+00
                                         1.528E+00 0.000E+00 3.571E-01 0.000E+00
                            80-  82 P  
                                         5.490E-01 0.000E+00 1.000E+00 0.000E+00
                            83-  85 P  
                                         1.824E-01 0.000E+00 1.000E+00 0.000E+00
                            86-  90 D  
                                         5.000E-01 0.000E+00 0.000E+00 1.000E+00
   6 O    4.171  -1.149  -4.171
   7 O   -4.171   4.171  -1.149
   8 O   -1.149  -4.171   4.171
   9 O   -1.149  -1.149  -1.149
  10 O   -4.171   1.149   4.171
  11 O    4.171  -4.171   1.149
  12 O    1.149   4.171  -4.171

 *******************************************************************************
 FINISHED BASIS SET HANDLING 
 *******************************************************************************

 INFORMATION **** SET_MPP **** PCRYSTAL CALCULATION
 INFORMATION **** READM2 **** NEW DEFAULT: FOCK/KS MATRIX MIXING SET TO 30 %
 INFORMATION **** READM2 **** NEW DEFAULT: FULL DIRECT SCF MODE
 INFORMATION **** READM2 **** NEW DEFAULT: COULOMB BIPOLAR BUFFER SET TO 32 Mb
 INFORMATION **** READM2 **** NEW DEFAULT: EXCHANGE BIPOLAR BUFFER SET TO 32 Mb

 *******************************************************************************
 NEW DEFAULT: DFT INTEGRATION GRID INCREASED TO XLGRID
 NEW DEFAULT: LEVEL SHIFTER 6 0
 IF THE SYSTEM IS A METAL USE KEYWORD NOSHIFT
 *******************************************************************************

 *******************************************************************************
 N. OF ATOMS PER CELL        12  COULOMB OVERLAP TOL         (T1) 10**   -6
 NUMBER OF SHELLS            96  COULOMB PENETRATION TOL     (T2) 10**   -6
 NUMBER OF AO               216  EXCHANGE OVERLAP TOL        (T3) 10**   -6
 N. OF ELECTRONS PER CELL    88  EXCHANGE PSEUDO OVP (F(G))  (T4) 10**   -6
 CORE ELECTRONS PER CELL     24  EXCHANGE PSEUDO OVP (P(G))  (T5) 10**  -12
 N. OF SYMMETRY OPERATORS    24  POLE ORDER IN MONO ZONE                  4
 *******************************************************************************
 TYPE OF CALCULATION :  RESTRICTED CLOSED SHELL
 KOHN-SHAM HAMILTONIAN

 (EXCHANGE)[CORRELATION] FUNCTIONAL:(BECKE 88)[LEE-YANG-PARR]

 NON-LOCAL WEIGHTING FACTOR (EXCHANGE) =           0.9000
 NON-LOCAL WEIGHTING FACTOR [CORRELATION] =        0.8100

 HYBRID EXCHANGE - PERCENTAGE OF FOCK EXCHANGE    20.0000
 EIGENVALUE LEVEL SHIFTING OF  0.600 HARTREE

 CAPPA:IS1  8;IS2  8;IS3  8; K PTS MONK NET  45; SYMMOPS:K SPACE  24;G SPACE  24

 *******************************************************************************
 MAX NUMBER OF SCF CYCLES      50  CONVERGENCE ON DELTAP        10**-16
 WEIGHT OF F(I) IN F(I+1)      30% CONVERGENCE ON ENERGY        10**- 6
 EIGENVALUE LEVEL SHIFTING OF  0.600 HARTREE
 SHRINK. FACT.(MONKH.)    8  8  8  NUMBER OF K POINTS IN THE IBZ     45
 SHRINKING FACTOR(GILAT NET)    8  NUMBER OF K POINTS(GILAT NET)     45
 *******************************************************************************
 *** K POINTS COORDINATES (OBLIQUE COORDINATES IN UNITS OF IS =  8)
   1-R(  0  0  0)   2-C(  1  0  0)   3-C(  2  0  0)   4-C(  3  0  0)
   5-R(  4  0  0)   6-C(  1  1  0)   7-C(  2  1  0)   8-C(  3  1  0)
   9-C(  4  1  0)  10-C(  1  2  0)  11-C(  2  2  0)  12-C(  3  2  0)
  13-C(  4  2  0)  14-C(  1  3  0)  15-C(  2  3  0)  16-C(  3  3  0)
  17-C(  4  3  0)  18-C(  1  4  0)  19-C(  2  4  0)  20-C(  3  4  0)
  21-R(  4  4  0)  22-C(  1  1  1)  23-C(  2  1  1)  24-C(  3  1  1)
  25-C(  4  1  1)  26-C(  2  2  1)  27-C(  3  2  1)  28-C(  4  2  1)
  29-C(  2  3  1)  30-C(  3  3  1)  31-C(  4  3  1)  32-C(  2  4  1)
  33-C(  3  4  1)  34-C(  4  4  1)  35-C(  2  2  2)  36-C(  3  2  2)
  37-C(  4  2  2)  38-C(  3  3  2)  39-C(  4  3  2)  40-C(  3  4  2)
  41-C(  4  4  2)  42-C(  3  3  3)  43-C(  4  3  3)  44-C(  4  4  3)
  45-R(  4  4  4)

 DIRECT LATTICE VECTORS COMPON. (A.U.)     RECIP. LATTICE VECTORS COMPON. (A.U.) 
        X            Y            Z              X            Y            Z
   10.6391581    0.0000000    0.0000000      0.5905717    0.0000000    0.0000000
    0.0000000   10.6391581    0.0000000      0.0000000    0.5905717    0.0000000
    0.0000000    0.0000000   10.6391581      0.0000000    0.0000000    0.5905717

 DISK SPACE FOR EIGENVECTORS (FTN 10)     4012416 REALS

 SYMMETRY ADAPTION OF THE BLOCH FUNCTIONS ENABLED
 TTTTTTTTTTTTTTTTTTTTTTTTTTTTTT gordsh1     TELAPSE        3.12 TCPU        0.16

 MATRIX SIZE: P(G)  230688, F(G)   39812, P(G) IRR    5954, F(G) IRR    2459
 MAX G-VECTOR INDEX FOR 1- AND 2-ELECTRON INTEGRALS  81

 TTTTTTTTTTTTTTTTTTTTTTTTTTTTTT INPUT       TELAPSE        3.12 TCPU        0.16

 NEIGHBORS OF THE NON-EQUIVALENT ATOMS

 N = NUMBER OF NEIGHBORS AT DISTANCE R
    ATOM  N     R/ANG      R/AU   NEIGHBORS (ATOM LABELS AND CELL INDICES)
   1 C    2     1.0532     1.9902    5 O    0 0 0    9 O    0 0 0
   1 C    6     3.1798     6.0089    6 O    0 0 0    7 O    0 0 0    8 O    0 0 0
                                    10 O    0 0 0   11 O    0 0 0   12 O    0 0 0
   1 C   12     3.9810     7.5230    2 C    0 0 0    2 C   -1 0 0    2 C    0 0-1
                                     2 C   -1 0-1    3 C    0 0 0    3 C    0-1 0
                                     3 C   -1 0 0    3 C   -1-1 0    4 C    0 0 0
                                     4 C    0 0-1    4 C    0-1 0    4 C    0-1-1
   1 C   12     4.1180     7.7818    6 O   -1 0 0    6 O    0 0 1    7 O    0-1 0
                                     7 O    1 0 0    8 O    0 0-1    8 O    0 1 0
                                    10 O    1 0 0   10 O    0 0-1   11 O    0 1 0
                                    11 O   -1 0 0   12 O    0 0 1   12 O    0-1 0
   1 C    6     4.8789     9.2199    6 O   -1 0 1    7 O    1-1 0    8 O    0 1-1
                                    10 O    1 0-1   11 O   -1 1 0   12 O    0-1 1
   1 C    6     5.0950     9.6282    5 O   -1 0 0    5 O    0-1 0    5 O    0 0-1
                                     9 O    1 0 0    9 O    0 1 0    9 O    0 0 1

   5 O    1     1.0532     1.9902    1 C    0 0 0
   5 O    1     2.1063     3.9804    9 O    0 0 0
   5 O    3     3.1798     6.0089    2 C    0 0 0    3 C    0 0 0    4 C    0 0 0
   5 O    6     3.2374     6.1178   10 O    0 0 0   10 O    1 0 0   11 O    0 0 0
                                    11 O    0 1 0   12 O    0 0 0   12 O    0 0 1
   5 O    6     3.4583     6.5352    6 O    0 0 0    6 O    0 0 1    7 O    0 0 0
                                     7 O    1 0 0    8 O    0 0 0    8 O    0 1 0
   5 O    6     4.1180     7.7818    2 C   -1 0 0    2 C    0 0-1    3 C    0-1 0
                                     3 C   -1 0 0    4 C    0 0-1    4 C    0-1 0


 SYMMETRY ALLOWED INTERNAL DEGREE(S) OF FREEDOM:   1
 TTTTTTTTTTTTTTTTTTTTTTTTTTTTTT SYMM        TELAPSE        4.28 TCPU        1.28
 TTTTTTTTTTTTTTTTTTTTTTTTTTTTTT INT_SCREEN  TELAPSE        4.28 TCPU        1.28
 INFORMATION **** EXCBUF **** EXCH. BIPO BUFFER: WORDS USED =      338562

 DFT PARAMETERS

     ATOM       ELECTRONS   NET CHARGE   R(ANGSTROM)
   1   6  C       6.0000      0.0000     0.77000000
   5   8  O       8.0000      0.0000     0.74000000

 SIZE OF GRID=      17691
 TTTTTTTTTTTTTTTTTTTTTTTTTTTTTT MAKE_GRID2  TELAPSE        4.36 TCPU        1.36
 BECKE WEIGHT FUNCTION
 RADSAFE =     2.00
 TOLERANCES - DENSITY:10**- 6; POTENTIAL:10**- 9; GRID WGT:10**-14

 RADIAL INTEGRATION  - INTERVALS (POINTS,UPPER LIMIT):            1( 75,  4.0*R)

 ANGULAR INTEGRATION - INTERVALS (ACCURACY LEVEL [N. POINTS] UPPER LIMIT):
  1(  4[  86]   0.2)  2(  8[ 194]   0.5)  3( 12[ 350]   0.9)  4( 16[ 974]   3.5)
  5( 12[ 350]9999.0)
 TTTTTTTTTTTTTTTTTTTTTTTTTTTTTT INT_CALC    TELAPSE        4.40 TCPU        1.40
 EEEEEEEEEE INT_CALC TERMINATION  DATE 10 05 2022 TIME 15:58:33.1

 *******************************************************************************
 Ice II                                                                          
 CRYSTAL - SCF - TYPE OF CALCULATION :  RESTRICTED CLOSED SHELL
 *******************************************************************************

 CAPPA:IS1  8;IS2  8;IS3  8; K PTS MONK NET  45; SYMMOPS:K SPACE  24;G SPACE  24

 TTTTTTTTTTTTTTTTTTTTTTTTTTTTTT SDIK        TELAPSE        4.75 TCPU        1.42

 AAAAAAAAAAAAAAAAAAAAAAAAAAAAAAAAAAAAAAAAAAAAAAAAAAAAAAAAAAAAAAAAAAAAAAAAAAAAAAA
         ATOMIC WAVEFUNCTION(S)


 NUCLEAR CHARGE  6.0  SYMMETRY SPECIES            S    P
 N. ELECTRONS    6.0  NUMBER OF PRIMITIVE GTOS   10    6
                      NUMBER OF CONTRACTED GTOS   4    3
                      NUMBER OF CLOSED SHELLS     2    0
                      OPEN SHELL OCCUPATION       0    2

  ZNUC SCFIT  TOTAL HF ENERGY   KINETIC ENERGY   VIRIAL THEOREM ACCURACY
   6.0  10   -3.766702350E+01  3.783137943E+01 -1.995655566E+00  1.6E-06

 NUCLEAR CHARGE  8.0  SYMMETRY SPECIES            S    P
 N. ELECTRONS    8.0  NUMBER OF PRIMITIVE GTOS   10    6
                      NUMBER OF CONTRACTED GTOS   4    3
                      NUMBER OF CLOSED SHELLS     2    0
                      OPEN SHELL OCCUPATION       0    4

  ZNUC SCFIT  TOTAL HF ENERGY   KINETIC ENERGY   VIRIAL THEOREM ACCURACY
   8.0  13   -7.479377997E+01  7.483473100E+01 -1.999452780E+00  5.0E-06

 AAAAAAAAAAAAAAAAAAAAAAAAAAAAAAAAAAAAAAAAAAAAAAAAAAAAAAAAAAAAAAAAAAAAAAAAAAAAAAA

 CHARGE NORMALIZATION FACTOR   1.00000000
 TOTAL ATOMIC CHARGES:
   6.0000000   6.0000000   6.0000000   6.0000000   8.0000000   8.0000000
   8.0000000   8.0000000   8.0000000   8.0000000   8.0000000   8.0000000
 TTTTTTTTTTTTTTTTTTTTTTTTTTTTTT MOQGAD      TELAPSE        5.01 TCPU        1.68
 TTTTTTTTTTTTTTTTTTTTTTTTTTTTTT SHELLX2     TELAPSE        6.47 TCPU        3.01
 TTTTTTTTTTTTTTTTTTTTTTTTTTTTTT MONMO3      TELAPSE        6.98 TCPU        3.51
 NUMERICALLY INTEGRATED DENSITY     88.0000950004
 TTTTTTTTTTTTTTTTTTTTTTTTTTTTTT NUMDFT      TELAPSE        7.13 TCPU        3.66
 CYC   0 ETOT(AU) -7.581467842143E+02 DETOT -7.58E+02 tst  0.00E+00 PX  1.00E+00
 TTTTTTTTTTTTTTTTTTTTTTTTTTTTTT FDIK        TELAPSE        8.57 TCPU        4.45
 INSULATING STATE
 TOP OF VALENCE BANDS -    BAND     44; K    1; EIG -4.3559691E-01 AU
 BOTTOM OF VIRTUAL BANDS - BAND     45; K    1; EIG -1.7685755E-02 AU
 TTTTTTTTTTTTTTTTTTTTTTTTTTTTTT PDIG        TELAPSE        8.62 TCPU        4.49
 CHARGE NORMALIZATION FACTOR   1.00000000
 TOTAL ATOMIC CHARGES:
   4.9110080   4.9110080   4.9110080   4.9110080   8.5444960   8.5444960
   8.5444960   8.5444960   8.5444960   8.5444960   8.5444960   8.5444960
 TTTTTTTTTTTTTTTTTTTTTTTTTTTTTT MOQGAD      TELAPSE        8.63 TCPU        4.50
 TTTTTTTTTTTTTTTTTTTTTTTTTTTTTT SHELLX2     TELAPSE       10.04 TCPU        5.91
 TTTTTTTTTTTTTTTTTTTTTTTTTTTTTT MONMO3      TELAPSE       10.52 TCPU        6.39
 NUMERICALLY INTEGRATED DENSITY     88.0000635961
 TTTTTTTTTTTTTTTTTTTTTTTTTTTTTT NUMDFT      TELAPSE       10.99 TCPU        6.86
 CYC   1 ETOT(AU) -7.536550750613E+02 DETOT  4.49E+00 tst  0.00E+00 PX  1.00E+00
 TTTTTTTTTTTTTTTTTTTTTTTTTTTTTT FDIK        TELAPSE       11.30 TCPU        7.17
 INSULATING STATE
 TOP OF VALENCE BANDS -    BAND     44; K    1; EIG -3.0356430E-01 AU
 BOTTOM OF VIRTUAL BANDS - BAND     45; K    1; EIG  4.5082933E-02 AU
 TTTTTTTTTTTTTTTTTTTTTTTTTTTTTT PDIG        TELAPSE       11.35 TCPU        7.22
 CHARGE NORMALIZATION FACTOR   1.00000000
 TOTAL ATOMIC CHARGES:
   5.2383522   5.2383522   5.2383522   5.2383522   8.3808239   8.3808239
   8.3808239   8.3808239   8.3808239   8.3808239   8.3808239   8.3808239
 TTTTTTTTTTTTTTTTTTTTTTTTTTTTTT MOQGAD      TELAPSE       11.36 TCPU        7.22
 TTTTTTTTTTTTTTTTTTTTTTTTTTTTTT SHELLX2     TELAPSE       12.78 TCPU        8.64
 TTTTTTTTTTTTTTTTTTTTTTTTTTTTTT MONMO3      TELAPSE       13.26 TCPU        9.12
 NUMERICALLY INTEGRATED DENSITY     88.0000770602
 TTTTTTTTTTTTTTTTTTTTTTTTTTTTTT NUMDFT      TELAPSE       13.72 TCPU        9.58
 CYC   2 ETOT(AU) -7.539466846749E+02 DETOT -2.92E-01 tst  9.02E-03 PX  1.24E-01
 TTTTTTTTTTTTTTTTTTTTTTTTTTTTTT FDIK        TELAPSE       14.00 TCPU        9.85
 INSULATING STATE
 TOP OF VALENCE BANDS -    BAND     44; K    1; EIG -3.3754461E-01 AU
 BOTTOM OF VIRTUAL BANDS - BAND     45; K    1; EIG  4.4642318E-02 AU
 TTTTTTTTTTTTTTTTTTTTTTTTTTTTTT PDIG        TELAPSE       14.04 TCPU        9.90
 CHARGE NORMALIZATION FACTOR   1.00000000
 TOTAL ATOMIC CHARGES:
   5.2027920   5.2027920   5.2027920   5.2027920   8.3986040   8.3986040
   8.3986040   8.3986040   8.3986040   8.3986040   8.3986040   8.3986040
 TTTTTTTTTTTTTTTTTTTTTTTTTTTTTT MOQGAD      TELAPSE       14.05 TCPU        9.91
 TTTTTTTTTTTTTTTTTTTTTTTTTTTTTT SHELLX2     TELAPSE       15.47 TCPU       11.32
 TTTTTTTTTTTTTTTTTTTTTTTTTTTTTT MONMO3      TELAPSE       15.95 TCPU       11.80
 NUMERICALLY INTEGRATED DENSITY     88.0000807593
 TTTTTTTTTTTTTTTTTTTTTTTTTTTTTT NUMDFT      TELAPSE       16.42 TCPU       12.27
 CYC   3 ETOT(AU) -7.539527918320E+02 DETOT -6.11E-03 tst  1.07E-04 PX  4.90E-02
 TTTTTTTTTTTTTTTTTTTTTTTTTTTTTT FDIK        TELAPSE       16.75 TCPU       12.60
 INSULATING STATE
 TOP OF VALENCE BANDS -    BAND     44; K    1; EIG -3.5065471E-01 AU
 BOTTOM OF VIRTUAL BANDS - BAND     45; K    1; EIG  4.2220453E-02 AU
 TTTTTTTTTTTTTTTTTTTTTTTTTTTTTT PDIG        TELAPSE       16.80 TCPU       12.64
 CHARGE NORMALIZATION FACTOR   1.00000000
 TOTAL ATOMIC CHARGES:
   5.1544987   5.1544987   5.1544987   5.1544987   8.4227507   8.4227507
   8.4227507   8.4227507   8.4227507   8.4227507   8.4227507   8.4227507
 TTTTTTTTTTTTTTTTTTTTTTTTTTTTTT MOQGAD      TELAPSE       16.81 TCPU       12.65
 TTTTTTTTTTTTTTTTTTTTTTTTTTTTTT SHELLX2     TELAPSE       18.22 TCPU       14.07
 TTTTTTTTTTTTTTTTTTTTTTTTTTTTTT MONMO3      TELAPSE       18.71 TCPU       14.55
 NUMERICALLY INTEGRATED DENSITY     88.0000809399
 TTTTTTTTTTTTTTTTTTTTTTTTTTTTTT NUMDFT      TELAPSE       19.17 TCPU       15.01
 CYC   4 ETOT(AU) -7.539558868247E+02 DETOT -3.09E-03 tst  4.13E-05 PX  3.10E-02
 TTTTTTTTTTTTTTTTTTTTTTTTTTTTTT FDIK        TELAPSE       19.43 TCPU       15.27
 INSULATING STATE
 TOP OF VALENCE BANDS -    BAND     44; K    1; EIG -3.4956255E-01 AU
 BOTTOM OF VIRTUAL BANDS - BAND     45; K    1; EIG  4.2305717E-02 AU
 TTTTTTTTTTTTTTTTTTTTTTTTTTTTTT PDIG        TELAPSE       19.61 TCPU       15.45
 CHARGE NORMALIZATION FACTOR   1.00000000
 TOTAL ATOMIC CHARGES:
   5.1516063   5.1516063   5.1516063   5.1516063   8.4241969   8.4241969
   8.4241969   8.4241969   8.4241969   8.4241969   8.4241969   8.4241969
 TTTTTTTTTTTTTTTTTTTTTTTTTTTTTT MOQGAD      TELAPSE       19.62 TCPU       15.46
 TTTTTTTTTTTTTTTTTTTTTTTTTTTTTT SHELLX2     TELAPSE       21.04 TCPU       16.87
 TTTTTTTTTTTTTTTTTTTTTTTTTTTTTT MONMO3      TELAPSE       21.52 TCPU       17.35
 NUMERICALLY INTEGRATED DENSITY     88.0000811207
 TTTTTTTTTTTTTTTTTTTTTTTTTTTTTT NUMDFT      TELAPSE       21.99 TCPU       17.82
 CYC   5 ETOT(AU) -7.539559536783E+02 DETOT -6.69E-05 tst  5.80E-06 PX  6.38E-03
 TTTTTTTTTTTTTTTTTTTTTTTTTTTTTT FDIK        TELAPSE       22.25 TCPU       18.08
 INSULATING STATE
 TOP OF VALENCE BANDS -    BAND     44; K    1; EIG -3.4935144E-01 AU
 BOTTOM OF VIRTUAL BANDS - BAND     45; K    1; EIG  4.2177448E-02 AU
 TTTTTTTTTTTTTTTTTTTTTTTTTTTTTT PDIG        TELAPSE       22.29 TCPU       18.12
 CHARGE NORMALIZATION FACTOR   1.00000000
 TOTAL ATOMIC CHARGES:
   5.1542075   5.1542075   5.1542075   5.1542075   8.4228962   8.4228962
   8.4228962   8.4228962   8.4228962   8.4228962   8.4228962   8.4228962
 TTTTTTTTTTTTTTTTTTTTTTTTTTTTTT MOQGAD      TELAPSE       22.30 TCPU       18.13
 TTTTTTTTTTTTTTTTTTTTTTTTTTTTTT SHELLX2     TELAPSE       23.72 TCPU       19.55
 TTTTTTTTTTTTTTTTTTTTTTTTTTTTTT MONMO3      TELAPSE       27.15 TCPU       22.97
 NUMERICALLY INTEGRATED DENSITY     88.0000812843
 TTTTTTTTTTTTTTTTTTTTTTTTTTTTTT NUMDFT      TELAPSE       27.62 TCPU       23.44
 CYC   6 ETOT(AU) -7.539559871743E+02 DETOT -3.35E-05 tst  2.27E-06 PX  2.59E-03
 TTTTTTTTTTTTTTTTTTTTTTTTTTTTTT FDIK        TELAPSE       29.44 TCPU       24.27
 INSULATING STATE
 TOP OF VALENCE BANDS -    BAND     44; K    1; EIG -3.4984687E-01 AU
 BOTTOM OF VIRTUAL BANDS - BAND     45; K    1; EIG  4.1957805E-02 AU
 TTTTTTTTTTTTTTTTTTTTTTTTTTTTTT PDIG        TELAPSE       29.49 TCPU       24.32
 CHARGE NORMALIZATION FACTOR   1.00000000
 TOTAL ATOMIC CHARGES:
   5.1538460   5.1538460   5.1538460   5.1538460   8.4230770   8.4230770
   8.4230770   8.4230770   8.4230770   8.4230770   8.4230770   8.4230770
 TTTTTTTTTTTTTTTTTTTTTTTTTTTTTT MOQGAD      TELAPSE       29.50 TCPU       24.32
 TTTTTTTTTTTTTTTTTTTTTTTTTTTTTT SHELLX2     TELAPSE       30.91 TCPU       25.74
 TTTTTTTTTTTTTTTTTTTTTTTTTTTTTT MONMO3      TELAPSE       31.40 TCPU       26.22
 NUMERICALLY INTEGRATED DENSITY     88.0000813391
 TTTTTTTTTTTTTTTTTTTTTTTTTTTTTT NUMDFT      TELAPSE       31.86 TCPU       26.69
 CYC   7 ETOT(AU) -7.539559931873E+02 DETOT -6.01E-06 tst  6.07E-07 PX  2.20E-03
 TTTTTTTTTTTTTTTTTTTTTTTTTTTTTT FDIK        TELAPSE       32.12 TCPU       26.94
 INSULATING STATE
 TOP OF VALENCE BANDS -    BAND     44; K    1; EIG -3.5003220E-01 AU
 BOTTOM OF VIRTUAL BANDS - BAND     45; K    1; EIG  4.1853945E-02 AU
 TTTTTTTTTTTTTTTTTTTTTTTTTTTTTT PDIG        TELAPSE       32.16 TCPU       26.98
 CHARGE NORMALIZATION FACTOR   1.00000000
 TOTAL ATOMIC CHARGES:
   5.1533162   5.1533162   5.1533162   5.1533162   8.4233419   8.4233419
   8.4233419   8.4233419   8.4233419   8.4233419   8.4233419   8.4233419
 TTTTTTTTTTTTTTTTTTTTTTTTTTTTTT MOQGAD      TELAPSE       32.17 TCPU       26.99
 TTTTTTTTTTTTTTTTTTTTTTTTTTTTTT SHELLX2     TELAPSE       33.59 TCPU       28.41
 TTTTTTTTTTTTTTTTTTTTTTTTTTTTTT MONMO3      TELAPSE       34.07 TCPU       28.89
 NUMERICALLY INTEGRATED DENSITY     88.0000813579
 TTTTTTTTTTTTTTTTTTTTTTTTTTTTTT NUMDFT      TELAPSE       34.54 TCPU       29.35
 CYC   8 ETOT(AU) -7.539559952721E+02 DETOT -2.08E-06 tst  1.78E-07 PX  1.25E-03
 TTTTTTTTTTTTTTTTTTTTTTTTTTTTTT FDIK        TELAPSE       34.78 TCPU       29.59
 INSULATING STATE
 TOP OF VALENCE BANDS -    BAND     44; K    1; EIG -3.5006596E-01 AU
 BOTTOM OF VIRTUAL BANDS - BAND     45; K    1; EIG  4.1811642E-02 AU
 TTTTTTTTTTTTTTTTTTTTTTTTTTTTTT PDIG        TELAPSE       34.82 TCPU       29.63
 CHARGE NORMALIZATION FACTOR   1.00000000
 TOTAL ATOMIC CHARGES:
   5.1532051   5.1532051   5.1532051   5.1532051   8.4233975   8.4233975
   8.4233975   8.4233975   8.4233975   8.4233975   8.4233975   8.4233975
 TTTTTTTTTTTTTTTTTTTTTTTTTTTTTT MOQGAD      TELAPSE       34.83 TCPU       29.64
 TTTTTTTTTTTTTTTTTTTTTTTTTTTTTT SHELLX2     TELAPSE       36.25 TCPU       31.05
 TTTTTTTTTTTTTTTTTTTTTTTTTTTTTT MONMO3      TELAPSE       36.73 TCPU       31.54
 NUMERICALLY INTEGRATED DENSITY     88.0000813703
 TTTTTTTTTTTTTTTTTTTTTTTTTTTTTT NUMDFT      TELAPSE       37.20 TCPU       32.00
 CYC   9 ETOT(AU) -7.539559957179E+02 DETOT -4.46E-07 tst  5.99E-08 PX  5.97E-04
 TTTTTTTTTTTTTTTTTTTTTTTTTTTTTT FDIK        TELAPSE       37.44 TCPU       32.24
 INSULATING STATE
 TOP OF VALENCE BANDS -    BAND     44; K    1; EIG -3.5008955E-01 AU
 BOTTOM OF VIRTUAL BANDS - BAND     45; K    1; EIG  4.1787108E-02 AU
 TTTTTTTTTTTTTTTTTTTTTTTTTTTTTT PDIG        TELAPSE       37.48 TCPU       32.29
 CHARGE NORMALIZATION FACTOR   1.00000000
 TOTAL ATOMIC CHARGES:
   5.1531876   5.1531876   5.1531876   5.1531876   8.4234062   8.4234062
   8.4234062   8.4234062   8.4234062   8.4234062   8.4234062   8.4234062
 TTTTTTTTTTTTTTTTTTTTTTTTTTTTTT MOQGAD      TELAPSE       37.49 TCPU       32.30
 TTTTTTTTTTTTTTTTTTTTTTTTTTTTTT SHELLX2     TELAPSE       38.91 TCPU       33.71
 +++ ENERGIES IN A.U. +++
 ::: EXT EL-POLE                                  -7.7044111417583E+02
 ::: EXT EL-SPHEROPOLE                             9.3030114850278E+00
 ::: BIELET ZONE E-E                               9.9727853492904E+02
 ::: TOTAL E-E                                     2.3614043223824E+02
 ::: TOTAL E-N + N-E                              -1.5462369713139E+03
 ::: TOTAL N-N                                    -1.2659191920690E+02
 ::: KINETIC ENERGY                                7.5621071905882E+02
 ::: PSEUDO TOTAL   ENERGY                        -6.8047773922378E+02
 ::: VIRIAL COEFFICIENT                            1.0527135715460E+00
 TTTTTTTTTTTTTTTTTTTTTTTTTTTTTT MONMO3      TELAPSE       39.39 TCPU       34.19
 NUMERICALLY INTEGRATED DENSITY     88.0000813775
 TTTTTTTTTTTTTTTTTTTTTTTTTTTTTT NUMDFT      TELAPSE       39.86 TCPU       34.66
 CYC  10 ETOT(AU) -7.539559958582E+02 DETOT -1.40E-07 tst  1.96E-08 PX  5.97E-04

 == SCF ENDED - CONVERGENCE ON ENERGY      E(AU) -7.5395599585824E+02 CYCLES  10


 ENERGY EXPRESSION=HARTREE+FOCK EXCH*0.20000+(BECKE      EXCH)*0.80000+LYP        CORR


 TOTAL ENERGY(DFT)(AU)( 10) -7.5395599585824E+02 DE-1.4E-07 tester 2.0E-08
 TTTTTTTTTTTTTTTTTTTTTTTTTTTTTT EDFT        TELAPSE       39.86 TCPU       34.66
 EIGENVECTORS IN FORTRAN UNIT  8
 TTTTTTTTTTTTTTTTTTTTTTTTTTTTTT END         TELAPSE       40.10 TCPU       34.74
 EEEEEEEEEE TERMINATION  DATE 10 05 2022 TIME 15:59:08.8
NODE    0 CPU TIME =        34.744
NODE    1 CPU TIME =        35.523
NODE    2 CPU TIME =        34.864
NODE    3 CPU TIME =        33.646
NODE    4 CPU TIME =        35.698
NODE    5 CPU TIME =        36.178
NODE    6 CPU TIME =        35.598
NODE    7 CPU TIME =        31.991
NODE    8 CPU TIME =        33.849
NODE    9 CPU TIME =        35.449
    TOTAL CPU TIME =       347.540
