          10 PROCESSORS WORKING

         
 *******************************************************************************
 *                                                                             *
 *                               CRYSTAL14                                     *
 *                      public : 1.0.4 - Feb 23rd, 2016                        *
 *                       HTTP://WWW.CRYSTAL.UNITO.IT                           *
 *                                                                             *
 *                              MAIN AUTHORS                                   *
 *                                                                             *
 *  R. DOVESI(1,11), V.R. SAUNDERS(2), C. ROETTI(1,11), R. ORLANDO(1,11),      *
 *  C.M. ZICOVICH-WILSON(1,3), F. PASCALE(4), B. CIVALLERI(1,11),              *
 *  K. DOLL(5), N.M. HARRISON(2,6), I. J. BUSH(7), Ph. D'ARCO(8),              *
 *  M. LLUNELL(9), M. CAUSA'(10), Y. NOEL(8)                                   *
 *                                                                             *
 *        CONTRIBUTIONS TO THE CURRENT RELEASE HAVE BEEN GIVEN BY              *
 *                                                                             *
 *  L. MASCHIO(1,11), S. CASASSA(1,11), A. ERBA(1,11), M. FERRABONE(1,11),     *
 *  M. DE LA PIERRE(1,11), M. FERRERO(1,11), V. LACIVITA(1,11),                *
 *  J. BAIMA(1,11), E. ALBANESE(1,11), M.F. PEINTINGER(12), R. BAST(13),       *
 *  M. RERAT(14), B. KIRTMAN(15), R. DEMICHELIS(1,16)                          *
 *                                                                             *
 * (1) THEORETICAL CHEMISTRY GROUP - UNIVERSITA' DI TORINO - TORINO (ITALY)    *
 *     http://www.crystal.unito.it                                             *
 * (2) COMPUTATIONAL SCIENCE & ENGINEERING DEPARTMENT - STFC DARESBURY (UK)    *
 *     http://www.stfc.ac.uk/CSE/randd/cmg/CRYSTAL/25806.aspx                  *
 * (3) UNIVERSIDAD AUTONOMA DEL ESTADO DE MORELOS - CUERNAVACA (MEXICO)        *
 * (4) UNIVERSITE' DE LORRAINE - NANCY (FRANCE)                                *
 * (5) UNIVERSITAET ULM - ULM (GERMANY); (6) IMPERIAL COLLEGE - LONDON (UK)    *
 * (7) NAG - OXFORD (UK); (8) UPMC - SORBONNE UNIVERSITES - PARIS (FRANCE)     *
 * (9) UNIVERSIDAD DE BARCELONA - BARCELONA (SPAIN)                            *
 *(10) UNIVERSITA' DI NAPOLI "FEDERICO II" - NAPOLI (ITALY)                    *
 *(11) NIS - NANOSTRUCTURED INTERFACES AND SURFACES - TORINO (ITALY)           *
 *(12) MPI FUER CHEMISCHE ENERGIEKONVERSION - MUELHEIM AN DER RUHR (GERMANY)   *
 *(13) UNIVERSITY OF STOCKHOLM - STOCKHOLM (SWEDEN)                            *
 *(14) UNIVERSITE' DE PAU ET DES PAYS DE L'ADOUR - PAU (FRANCE)                *
 *(15) UNIVERSITY OF CALIFORNIA SANTA BARBARA - SANTA BARBARA (USA)            *
 *(16) CURTIN UNIVERSITY - PERTH (AUSTRALIA)                                   *
 *                                                                             *
 ********************************************************************************
 EEEEEEEEEE STARTING  DATE 18 05 2022 TIME 13:44:44.6
 DRY-ICE                                                                         

 CRYSTAL CALCULATION
 (INPUT ACCORDING TO THE INTERNATIONAL TABLES FOR X-RAY CRYSTALLOGRAPHY)
 CRYSTAL FAMILY                       :  TRICLINIC   
 CRYSTAL CLASS  (GROTH - 1921)        :  TRICLINIC PEDIAL                     

 SPACE GROUP (NONCENTROSYMMETRIC)     :  P 1             

 LATTICE PARAMETERS  (ANGSTROMS AND DEGREES) - CONVENTIONAL CELL
        A           B           C        ALPHA        BETA       GAMMA
     5.63000     5.63000     5.63000    90.00000    90.00000    90.00000


 NUMBER OF IRREDUCIBLE ATOMS IN THE CONVENTIONAL CELL:   12

 INPUT COORDINATES

 ATOM AT. N.              COORDINATES
   1   6     0.000000000000E+00  0.000000000000E+00  0.000000000000E+00
   2   8     1.400000000000E-01  1.000000000000E-01  1.200000000000E-01
   3   8    -1.000000000000E-01 -1.400000000000E-01 -1.200000000000E-01
   4   6     5.000000000000E-01  2.000000000000E-02  4.900000000000E-01
   5   8     3.700000000000E-01 -9.000000000000E-02 -3.600000000000E-01
   6   8    -4.100000000000E-01  1.300000000000E-01  3.900000000000E-01
   7   6     4.800000000000E-01  5.000000000000E-01  1.000000000000E-02
   8   8    -4.100000000000E-01  3.700000000000E-01 -1.400000000000E-01
   9   8     4.100000000000E-01 -3.700000000000E-01  1.100000000000E-01
  10   6    -2.000000000000E-02  5.000000000000E-01  4.900000000000E-01
  11   8    -1.600000000000E-01 -3.800000000000E-01  4.000000000000E-01
  12   8     1.400000000000E-01  4.000000000000E-01 -4.100000000000E-01

 *******************************************************************************

 << INFORMATION >>: FROM NOW ON, ALL COORDINATES REFER TO THE PRIMITIVE CELL

 *******************************************************************************

 LATTICE PARAMETERS  (ANGSTROMS AND DEGREES) - PRIMITIVE CELL
       A          B          C        ALPHA      BETA     GAMMA        VOLUME
    5.63000    5.63000    5.63000    90.00000  90.00000  90.00000    178.453547

 COORDINATES OF THE EQUIVALENT ATOMS (FRACTIONAL UNITS)

 N. ATOM EQUIV AT. N.          X                  Y                  Z

   1   1   1    6 C     0.00000000000E+00  0.00000000000E+00  0.00000000000E+00

   2   2   1    8 O     1.40000000000E-01  1.00000000000E-01  1.20000000000E-01

   3   3   1    8 O    -1.00000000000E-01 -1.40000000000E-01 -1.20000000000E-01

   4   4   1    6 C    -5.00000000000E-01  2.00000000000E-02  4.90000000000E-01

   5   5   1    8 O     3.70000000000E-01 -9.00000000000E-02 -3.60000000000E-01

   6   6   1    8 O    -4.10000000000E-01  1.30000000000E-01  3.90000000000E-01

   7   7   1    6 C     4.80000000000E-01 -5.00000000000E-01  1.00000000000E-02

   8   8   1    8 O    -4.10000000000E-01  3.70000000000E-01 -1.40000000000E-01

   9   9   1    8 O     4.10000000000E-01 -3.70000000000E-01  1.10000000000E-01

  10  10   1    6 C    -2.00000000000E-02 -5.00000000000E-01  4.90000000000E-01

  11  11   1    8 O    -1.60000000000E-01 -3.80000000000E-01  4.00000000000E-01

  12  12   1    8 O     1.40000000000E-01  4.00000000000E-01 -4.10000000000E-01

 NUMBER OF SYMMETRY OPERATORS         :    1
 *******************************************************************************
 * GEOMETRY EDITING - INPUT COORDINATES ARE GIVEN IN ANGSTROM         
 *******************************************************************************

 GCALCO - MAX INDICES DIRECT LATTICE VECTOR    14    14    14
 NO.OF VECTORS CREATED 6999 STARS  120 RMAX   126.33300 BOHR

 GEOMETRY FOR WAVE FUNCTION - DIMENSIONALITY OF THE SYSTEM    3
 (NON PERIODIC DIRECTION: LATTICE PARAMETER FORMALLY SET TO 500)
 *******************************************************************************
 LATTICE PARAMETERS (ANGSTROMS AND DEGREES) - BOHR = 0.5291772083 ANGSTROM
 PRIMITIVE CELL - CENTRING CODE 1/0 VOLUME=   178.453547 - DENSITY  1.637 g/cm^3
         A              B              C           ALPHA      BETA       GAMMA 
     5.63000000     5.63000000     5.63000000    90.000000  90.000000  90.000000
 *******************************************************************************
 ATOMS IN THE ASYMMETRIC UNIT   12 - ATOMS IN THE UNIT CELL:   12
     ATOM              X/A                 Y/B                 Z/C    
 *******************************************************************************
   1 T   6 C     0.000000000000E+00  0.000000000000E+00  0.000000000000E+00
   2 T   8 O     1.400000000000E-01  1.000000000000E-01  1.200000000000E-01
   3 T   8 O    -1.000000000000E-01 -1.400000000000E-01 -1.200000000000E-01
   4 T   6 C     5.000000000000E-01  2.000000000000E-02  4.900000000000E-01
   5 T   8 O     3.700000000000E-01 -9.000000000000E-02 -3.600000000000E-01
   6 T   8 O    -4.100000000000E-01  1.300000000000E-01  3.900000000000E-01
   7 T   6 C     4.800000000000E-01  5.000000000000E-01  1.000000000000E-02
   8 T   8 O    -4.100000000000E-01  3.700000000000E-01 -1.400000000000E-01
   9 T   8 O     4.100000000000E-01 -3.700000000000E-01  1.100000000000E-01
  10 T   6 C    -2.000000000000E-02  5.000000000000E-01  4.900000000000E-01
  11 T   8 O    -1.600000000000E-01 -3.800000000000E-01  4.000000000000E-01
  12 T   8 O     1.400000000000E-01  4.000000000000E-01 -4.100000000000E-01

 T = ATOM BELONGING TO THE ASYMMETRIC UNIT

 ****    1 SYMMOPS - TRANSLATORS IN FRACTIONAL UNITS
 **** MATRICES AND TRANSLATORS IN THE CRYSTALLOGRAPHIC REFERENCE FRAME
   V INV                    ROTATION MATRICES                   TRANSLATORS
   1   1  1.00  0.00  0.00  0.00  1.00  0.00  0.00  0.00  1.00  0.00  0.00  0.00

 DIRECT LATTICE VECTORS CARTESIAN COMPONENTS (ANGSTROM)
          X                    Y                    Z
   0.563000000000E+01   0.344738073960E-15   0.000000000000E+00
   0.000000000000E+00   0.563000000000E+01   0.000000000000E+00
   0.344738073960E-15   0.344738073960E-15   0.563000000000E+01


 CARTESIAN COORDINATES - PRIMITIVE CELL
 *******************************************************************************
 *      ATOM          X(ANGSTROM)         Y(ANGSTROM)         Z(ANGSTROM)
 *******************************************************************************
    1     6 C     0.000000000000E+00  0.000000000000E+00  0.000000000000E+00
    2     8 O     7.882000000000E-01  5.630000000000E-01  6.756000000000E-01
    3     8 O    -5.630000000000E-01 -7.882000000000E-01 -6.756000000000E-01
    4     6 C     2.815000000000E+00  1.126000000000E-01  2.758700000000E+00
    5     8 O     2.083100000000E+00 -5.067000000000E-01 -2.026800000000E+00
    6     8 O    -2.308300000000E+00  7.319000000000E-01  2.195700000000E+00
    7     6 C     2.702400000000E+00  2.815000000000E+00  5.630000000000E-02
    8     8 O    -2.308300000000E+00  2.083100000000E+00 -7.882000000000E-01
    9     8 O     2.308300000000E+00 -2.083100000000E+00  6.193000000000E-01
   10     6 C    -1.126000000000E-01  2.815000000000E+00  2.758700000000E+00
   11     8 O    -9.008000000000E-01 -2.139400000000E+00  2.252000000000E+00
   12     8 O     7.882000000000E-01  2.252000000000E+00 -2.308300000000E+00

 *******************************************************************************
 STARTING BASIS SET HANDLING 
 *******************************************************************************

 Loading internal basis set: POB-TZVP            

 Please cite in your publication:
 Peintinger, M. F., Oliveira, D. V. and Bredow, T. (2013), Consistent Gaussian b
 asis sets of triple-zeta valence with polarization quality for solid-state calc
 ulations. J. Comput. Chem., 34: 451–459. doi: 10.1002/jcc.23153              
                    

 *******************************************************************************
 LOCAL ATOMIC FUNCTIONS BASIS SET
 *******************************************************************************
   ATOM   X(AU)   Y(AU)   Z(AU)  N. TYPE  EXPONENT  S COEF   P COEF   D/F/G COEF
 *******************************************************************************
   1 C    0.000   0.000   0.000
                                  1 S  
                                         1.358E+04 2.225E-04 0.000E+00 0.000E+00
                                         2.035E+03 1.723E-03 0.000E+00 0.000E+00
                                         4.632E+02 8.926E-03 0.000E+00 0.000E+00
                                         1.312E+02 3.573E-02 0.000E+00 0.000E+00
                                         4.285E+01 1.108E-01 0.000E+00 0.000E+00
                                         1.558E+01 2.430E-01 0.000E+00 0.000E+00
                                  2 S  
                                         6.207E+00 4.144E-01 0.000E+00 0.000E+00
                                         2.576E+00 2.374E-01 0.000E+00 0.000E+00
                                  3 S  
                                         4.941E-01 1.000E+00 0.000E+00 0.000E+00
                                  4 S  
                                         1.644E-01 1.000E+00 0.000E+00 0.000E+00
                             5-   7 P  
                                         3.470E+01 0.000E+00 5.333E-03 0.000E+00
                                         7.958E+00 0.000E+00 3.586E-02 0.000E+00
                                         2.378E+00 0.000E+00 1.422E-01 0.000E+00
                                         8.143E-01 0.000E+00 3.427E-01 0.000E+00
                             8-  10 P  
                                         5.662E-01 0.000E+00 1.000E+00 0.000E+00
                            11-  13 P  
                                         2.674E-01 0.000E+00 1.000E+00 0.000E+00
                            14-  18 D  
                                         8.792E-01 0.000E+00 0.000E+00 1.000E+00
   2 O    1.489   1.064   1.277
                                 19 S  
                                         2.703E+04 2.173E-04 0.000E+00 0.000E+00
                                         4.052E+03 1.684E-03 0.000E+00 0.000E+00
                                         9.223E+02 8.740E-03 0.000E+00 0.000E+00
                                         2.612E+02 3.524E-02 0.000E+00 0.000E+00
                                         8.535E+01 1.115E-01 0.000E+00 0.000E+00
                                         3.104E+01 2.559E-01 0.000E+00 0.000E+00
                                 20 S  
                                         1.226E+01 3.977E-01 0.000E+00 0.000E+00
                                         4.999E+00 2.463E-01 0.000E+00 0.000E+00
                                 21 S  
                                         8.479E-01 1.000E+00 0.000E+00 0.000E+00
                                 22 S  
                                         1.851E-01 1.000E+00 0.000E+00 0.000E+00
                            23-  25 P  
                                         6.327E+01 0.000E+00 6.069E-03 0.000E+00
                                         1.463E+01 0.000E+00 4.191E-02 0.000E+00
                                         4.450E+00 0.000E+00 1.615E-01 0.000E+00
                                         1.528E+00 0.000E+00 3.571E-01 0.000E+00
                            26-  28 P  
                                         5.490E-01 0.000E+00 1.000E+00 0.000E+00
                            29-  31 P  
                                         1.824E-01 0.000E+00 1.000E+00 0.000E+00
                            32-  36 D  
                                         5.000E-01 0.000E+00 0.000E+00 1.000E+00
   3 O   -1.064  -1.489  -1.277
   4 C    5.320   0.213   5.213
   5 O    3.936  -0.958  -3.830
   6 O   -4.362   1.383   4.149
   7 C    5.107   5.320   0.106
   8 O   -4.362   3.936  -1.489
   9 O    4.362  -3.936   1.170
  10 C   -0.213   5.320   5.213
  11 O   -1.702  -4.043   4.256
  12 O    1.489   4.256  -4.362

 *******************************************************************************
 FINISHED BASIS SET HANDLING 
 *******************************************************************************

 INFORMATION **** SET_MPP **** PCRYSTAL CALCULATION
 INFORMATION **** READM2 **** NEW DEFAULT: FOCK/KS MATRIX MIXING SET TO 30 %
 INFORMATION **** READM2 **** NEW DEFAULT: FULL DIRECT SCF MODE
 INFORMATION **** READM2 **** NEW DEFAULT: COULOMB BIPOLAR BUFFER SET TO 32 Mb
 INFORMATION **** READM2 **** NEW DEFAULT: EXCHANGE BIPOLAR BUFFER SET TO 32 Mb

 *******************************************************************************
 NEW DEFAULT: DFT INTEGRATION GRID INCREASED TO XLGRID
 NEW DEFAULT: LEVEL SHIFTER 6 0
 IF THE SYSTEM IS A METAL USE KEYWORD NOSHIFT
 *******************************************************************************

 *******************************************************************************
 N. OF ATOMS PER CELL        12  COULOMB OVERLAP TOL         (T1) 10**   -6
 NUMBER OF SHELLS            96  COULOMB PENETRATION TOL     (T2) 10**   -6
 NUMBER OF AO               216  EXCHANGE OVERLAP TOL        (T3) 10**   -6
 N. OF ELECTRONS PER CELL    88  EXCHANGE PSEUDO OVP (F(G))  (T4) 10**   -6
 CORE ELECTRONS PER CELL     24  EXCHANGE PSEUDO OVP (P(G))  (T5) 10**  -12
 N. OF SYMMETRY OPERATORS     1  POLE ORDER IN MONO ZONE                  4
 *******************************************************************************
 TYPE OF CALCULATION :  RESTRICTED CLOSED SHELL
 KOHN-SHAM HAMILTONIAN

 (EXCHANGE)[CORRELATION] FUNCTIONAL:(BECKE 88)[LEE-YANG-PARR]

 NON-LOCAL WEIGHTING FACTOR (EXCHANGE) =           0.9000
 NON-LOCAL WEIGHTING FACTOR [CORRELATION] =        0.8100

 HYBRID EXCHANGE - PERCENTAGE OF FOCK EXCHANGE    20.0000
 EIGENVALUE LEVEL SHIFTING OF  0.600 HARTREE

 CAPPA:IS1  8;IS2  8;IS3  8; K PTS MONK NET 260; SYMMOPS:K SPACE   2;G SPACE   1

 *******************************************************************************
 MAX NUMBER OF SCF CYCLES      50  CONVERGENCE ON DELTAP        10**-16
 WEIGHT OF F(I) IN F(I+1)      30% CONVERGENCE ON ENERGY        10**- 6
 EIGENVALUE LEVEL SHIFTING OF  0.600 HARTREE
 SHRINK. FACT.(MONKH.)    8  8  8  NUMBER OF K POINTS IN THE IBZ    260
 SHRINKING FACTOR(GILAT NET)    8  NUMBER OF K POINTS(GILAT NET)    260
 *******************************************************************************
 *** K POINTS COORDINATES (OBLIQUE COORDINATES IN UNITS OF IS =  8)
   1-R(  0  0  0)   2-C(  1  0  0)   3-C(  2  0  0)   4-C(  3  0  0)
   5-R(  4  0  0)   6-C(  0  1  0)   7-C(  1  1  0)   8-C(  2  1  0)
   9-C(  3  1  0)  10-C(  4  1  0)  11-C(  5  1  0)  12-C(  6  1  0)
  13-C(  7  1  0)  14-C(  0  2  0)  15-C(  1  2  0)  16-C(  2  2  0)
  17-C(  3  2  0)  18-C(  4  2  0)  19-C(  5  2  0)  20-C(  6  2  0)
  21-C(  7  2  0)  22-C(  0  3  0)  23-C(  1  3  0)  24-C(  2  3  0)
  25-C(  3  3  0)  26-C(  4  3  0)  27-C(  5  3  0)  28-C(  6  3  0)
  29-C(  7  3  0)  30-R(  0  4  0)  31-C(  1  4  0)  32-C(  2  4  0)
  33-C(  3  4  0)  34-R(  4  4  0)  35-C(  0  0  1)  36-C(  1  0  1)
  37-C(  2  0  1)  38-C(  3  0  1)  39-C(  4  0  1)  40-C(  5  0  1)
  41-C(  6  0  1)  42-C(  7  0  1)  43-C(  0  1  1)  44-C(  1  1  1)
  45-C(  2  1  1)  46-C(  3  1  1)  47-C(  4  1  1)  48-C(  5  1  1)
  49-C(  6  1  1)  50-C(  7  1  1)  51-C(  0  2  1)  52-C(  1  2  1)
  53-C(  2  2  1)  54-C(  3  2  1)  55-C(  4  2  1)  56-C(  5  2  1)
  57-C(  6  2  1)  58-C(  7  2  1)  59-C(  0  3  1)  60-C(  1  3  1)
  61-C(  2  3  1)  62-C(  3  3  1)  63-C(  4  3  1)  64-C(  5  3  1)
  65-C(  6  3  1)  66-C(  7  3  1)  67-C(  0  4  1)  68-C(  1  4  1)
  69-C(  2  4  1)  70-C(  3  4  1)  71-C(  4  4  1)  72-C(  5  4  1)
  73-C(  6  4  1)  74-C(  7  4  1)  75-C(  0  5  1)  76-C(  1  5  1)
  77-C(  2  5  1)  78-C(  3  5  1)  79-C(  4  5  1)  80-C(  5  5  1)
  81-C(  6  5  1)  82-C(  7  5  1)  83-C(  0  6  1)  84-C(  1  6  1)
  85-C(  2  6  1)  86-C(  3  6  1)  87-C(  4  6  1)  88-C(  5  6  1)
  89-C(  6  6  1)  90-C(  7  6  1)  91-C(  0  7  1)  92-C(  1  7  1)
  93-C(  2  7  1)  94-C(  3  7  1)  95-C(  4  7  1)  96-C(  5  7  1)
  97-C(  6  7  1)  98-C(  7  7  1)  99-C(  0  0  2) 100-C(  1  0  2)
 101-C(  2  0  2) 102-C(  3  0  2) 103-C(  4  0  2) 104-C(  5  0  2)
 105-C(  6  0  2) 106-C(  7  0  2) 107-C(  0  1  2) 108-C(  1  1  2)
 109-C(  2  1  2) 110-C(  3  1  2) 111-C(  4  1  2) 112-C(  5  1  2)
 113-C(  6  1  2) 114-C(  7  1  2) 115-C(  0  2  2) 116-C(  1  2  2)
 117-C(  2  2  2) 118-C(  3  2  2) 119-C(  4  2  2) 120-C(  5  2  2)
 121-C(  6  2  2) 122-C(  7  2  2) 123-C(  0  3  2) 124-C(  1  3  2)
 125-C(  2  3  2) 126-C(  3  3  2) 127-C(  4  3  2) 128-C(  5  3  2)
 129-C(  6  3  2) 130-C(  7  3  2) 131-C(  0  4  2) 132-C(  1  4  2)
 133-C(  2  4  2) 134-C(  3  4  2) 135-C(  4  4  2) 136-C(  5  4  2)
 137-C(  6  4  2) 138-C(  7  4  2) 139-C(  0  5  2) 140-C(  1  5  2)
 141-C(  2  5  2) 142-C(  3  5  2) 143-C(  4  5  2) 144-C(  5  5  2)
 145-C(  6  5  2) 146-C(  7  5  2) 147-C(  0  6  2) 148-C(  1  6  2)
 149-C(  2  6  2) 150-C(  3  6  2) 151-C(  4  6  2) 152-C(  5  6  2)
 153-C(  6  6  2) 154-C(  7  6  2) 155-C(  0  7  2) 156-C(  1  7  2)
 157-C(  2  7  2) 158-C(  3  7  2) 159-C(  4  7  2) 160-C(  5  7  2)
 161-C(  6  7  2) 162-C(  7  7  2) 163-C(  0  0  3) 164-C(  1  0  3)
 165-C(  2  0  3) 166-C(  3  0  3) 167-C(  4  0  3) 168-C(  5  0  3)
 169-C(  6  0  3) 170-C(  7  0  3) 171-C(  0  1  3) 172-C(  1  1  3)
 173-C(  2  1  3) 174-C(  3  1  3) 175-C(  4  1  3) 176-C(  5  1  3)
 177-C(  6  1  3) 178-C(  7  1  3) 179-C(  0  2  3) 180-C(  1  2  3)
 181-C(  2  2  3) 182-C(  3  2  3) 183-C(  4  2  3) 184-C(  5  2  3)
 185-C(  6  2  3) 186-C(  7  2  3) 187-C(  0  3  3) 188-C(  1  3  3)
 189-C(  2  3  3) 190-C(  3  3  3) 191-C(  4  3  3) 192-C(  5  3  3)
 193-C(  6  3  3) 194-C(  7  3  3) 195-C(  0  4  3) 196-C(  1  4  3)
 197-C(  2  4  3) 198-C(  3  4  3) 199-C(  4  4  3) 200-C(  5  4  3)
 201-C(  6  4  3) 202-C(  7  4  3) 203-C(  0  5  3) 204-C(  1  5  3)
 205-C(  2  5  3) 206-C(  3  5  3) 207-C(  4  5  3) 208-C(  5  5  3)
 209-C(  6  5  3) 210-C(  7  5  3) 211-C(  0  6  3) 212-C(  1  6  3)
 213-C(  2  6  3) 214-C(  3  6  3) 215-C(  4  6  3) 216-C(  5  6  3)
 217-C(  6  6  3) 218-C(  7  6  3) 219-C(  0  7  3) 220-C(  1  7  3)
 221-C(  2  7  3) 222-C(  3  7  3) 223-C(  4  7  3) 224-C(  5  7  3)
 225-C(  6  7  3) 226-C(  7  7  3) 227-R(  0  0  4) 228-C(  1  0  4)
 229-C(  2  0  4) 230-C(  3  0  4) 231-R(  4  0  4) 232-C(  0  1  4)
 233-C(  1  1  4) 234-C(  2  1  4) 235-C(  3  1  4) 236-C(  4  1  4)
 237-C(  5  1  4) 238-C(  6  1  4) 239-C(  7  1  4) 240-C(  0  2  4)
 241-C(  1  2  4) 242-C(  2  2  4) 243-C(  3  2  4) 244-C(  4  2  4)
 245-C(  5  2  4) 246-C(  6  2  4) 247-C(  7  2  4) 248-C(  0  3  4)
 249-C(  1  3  4) 250-C(  2  3  4) 251-C(  3  3  4) 252-C(  4  3  4)
 253-C(  5  3  4) 254-C(  6  3  4) 255-C(  7  3  4) 256-R(  0  4  4)
 257-C(  1  4  4) 258-C(  2  4  4) 259-C(  3  4  4) 260-R(  4  4  4)

 DIRECT LATTICE VECTORS COMPON. (A.U.)     RECIP. LATTICE VECTORS COMPON. (A.U.) 
        X            Y            Z              X            Y            Z
   10.6391581    0.0000000    0.0000000      0.5905717    0.0000000   -0.0000000
    0.0000000   10.6391581    0.0000000     -0.0000000    0.5905717   -0.0000000
    0.0000000    0.0000000   10.6391581      0.0000000    0.0000000    0.5905717

 DISK SPACE FOR EIGENVECTORS (FTN 10)    23887872 REALS

 SYMMETRY ADAPTION OF THE BLOCH FUNCTIONS DISABLED
 TTTTTTTTTTTTTTTTTTTTTTTTTTTTTT gordsh1     TELAPSE        0.61 TCPU        0.10

 MATRIX SIZE: P(G)  228636, F(G)   40539, P(G) IRR  115518, F(G) IRR   40911
 MAX G-VECTOR INDEX FOR 1- AND 2-ELECTRON INTEGRALS  81

 TTTTTTTTTTTTTTTTTTTTTTTTTTTTTT INPUT       TELAPSE        0.62 TCPU        0.11

 NEIGHBORS OF THE NON-EQUIVALENT ATOMS

 N = NUMBER OF NEIGHBORS AT DISTANCE R
    ATOM  N     R/ANG      R/AU   NEIGHBORS (ATOM LABELS AND CELL INDICES)
   1 C    2     1.1810     2.2317    2 O    0 0 0    3 O    0 0 0
   1 C    1     2.9502     5.5752    5 O    0 0 0
   1 C    1     3.1703     5.9911    9 O    0 0 0
   1 C    1     3.2076     6.0615    8 O    0 0 0
   1 C    1     3.2342     6.1117   11 O    0 0 0
   1 C    1     3.2688     6.1771    6 O    0 0 0

   2 O    1     1.1810     2.2317    1 C    0 0 0
   2 O    1     2.3403     4.4226    3 O    0 0 0
   2 O    1     2.9411     5.5579    4 C    0 0 0
   2 O    1     2.9594     5.5924    6 O    1 0 0
   2 O    1     3.0198     5.7066    7 C    0 0 0
   2 O    1     3.0522     5.7678    9 O    0 0 0

   3 O    1     1.1810     2.2317    1 C    0 0 0
   3 O    1     2.3403     4.4226    2 O    0 0 0
   3 O    1     2.9844     5.6398    5 O    0 0 0
   3 O    1     3.0219     5.7106   10 C    0-1-1
   3 O    1     3.0402     5.7451   11 O    0 0-1
   3 O    1     3.1992     6.0456    7 C   -1-1 0

   4 C    1     0.9784     1.8489    6 O    1 0 0
   4 C    1     1.2777     2.4144    5 O    0 0 1
   4 C    1     2.9119     5.5026    8 O    1 0 1
   4 C    1     2.9411     5.5579    2 O    0 0 0
   4 C    1     2.9987     5.6668   11 O    1 0 0
   4 C    1     3.0003     5.6698   12 O    0 0 1

   5 O    1     1.2777     2.4144    4 C    0 0-1
   5 O    1     2.2471     4.2463    6 O    1 0-1
   5 O    1     2.9502     5.5752    1 C    0 0 0
   5 O    1     2.9844     5.6398    3 O    0 0 0
   5 O    1     3.0605     5.7834   12 O    0 0 0
   5 O    1     3.0883     5.8360    9 O    0 0 0

   6 O    1     0.9784     1.8489    4 C   -1 0 0
   6 O    1     2.2471     4.2463    5 O   -1 0 1
   6 O    1     2.9594     5.5924    2 O   -1 0 0
   6 O    1     2.9711     5.6146    8 O    0 0 1
   6 O    1     3.0496     5.7629    7 C   -1 0 0
   6 O    1     3.0785     5.8176   10 C    0 0 0

   7 C    1     1.0040     1.8972    9 O    0 1 0
   7 C    1     1.2777     2.4144    8 O    1 0 0
   7 C    1     3.0198     5.7066    2 O    0 0 0
   7 C    1     3.0496     5.7629    6 O    1 0 0
   7 C    1     3.0636     5.7893   11 O    1 1 0
   7 C    1     3.0939     5.8467   12 O    0 0 0

   8 O    1     1.2777     2.4144    7 C   -1 0 0
   8 O    1     2.2695     4.2888    9 O   -1 1 0
   8 O    1     2.9119     5.5026    4 C   -1 0-1
   8 O    1     2.9594     5.5924   12 O   -1 0 0
   8 O    1     2.9711     5.6146    6 O    0 0-1
   8 O    1     3.1139     5.8843   10 C    0 0-1

   9 O    1     1.0040     1.8972    7 C    0-1 0
   9 O    1     2.2695     4.2888    8 O    1-1 0
   9 O    1     2.9206     5.5190   11 O    1 0 0
   9 O    1     3.0522     5.7678    2 O    0 0 0
   9 O    1     3.0883     5.8360    5 O    0 0 0
   9 O    1     3.1072     5.8718    4 C    0 0 0

  10 C    1     1.1552     2.1830   11 O    0 1 0
  10 C    1     1.2022     2.2719   12 O    0 0 1
  10 C    1     3.0219     5.7106    3 O    0 1 1
  10 C    1     3.0785     5.8176    6 O    0 0 0
  10 C    1     3.1139     5.8843    8 O    0 0 1
  10 C    1     3.1972     6.0419    2 O    0 0 0

  11 O    1     1.1552     2.1830   10 C    0-1 0
  11 O    1     2.3518     4.4443   12 O    0-1 1
  11 O    1     2.9206     5.5190    9 O   -1 0 0
  11 O    1     2.9987     5.6668    4 C   -1 0 0
  11 O    1     3.0402     5.7451    3 O    0 0 1
  11 O    1     3.0636     5.7893    7 C   -1-1 0

  12 O    1     1.2022     2.2719   10 C    0 0-1
  12 O    1     2.3518     4.4443   11 O    0 1-1
  12 O    1     2.9594     5.5924    8 O    1 0 0
  12 O    1     3.0003     5.6698    4 C    0 0-1
  12 O    1     3.0605     5.7834    5 O    0 0 0
  12 O    1     3.0939     5.8467    7 C    0 0 0


 SYMMETRY ALLOWED INTERNAL DEGREE(S) OF FREEDOM:  33
 TTTTTTTTTTTTTTTTTTTTTTTTTTTTTT SYMM        TELAPSE        0.62 TCPU        0.11
 TTTTTTTTTTTTTTTTTTTTTTTTTTTTTT INT_SCREEN  TELAPSE        0.62 TCPU        0.12
 INFORMATION **** EXCBUF **** EXCH. BIPO BUFFER: WORDS USED =      770634

 DFT PARAMETERS

     ATOM       ELECTRONS   NET CHARGE   R(ANGSTROM)
   1   6  C       6.0000      0.0000     0.77000000
   2   8  O       8.0000      0.0000     0.74000000

 SIZE OF GRID=     422703
 TTTTTTTTTTTTTTTTTTTTTTTTTTTTTT MAKE_GRID2  TELAPSE        1.11 TCPU        0.60
 BECKE WEIGHT FUNCTION
 RADSAFE =     2.00
 TOLERANCES - DENSITY:10**- 6; POTENTIAL:10**- 9; GRID WGT:10**-14

 RADIAL INTEGRATION  - INTERVALS (POINTS,UPPER LIMIT):            1( 75,  4.0*R)

 ANGULAR INTEGRATION - INTERVALS (ACCURACY LEVEL [N. POINTS] UPPER LIMIT):
  1(  4[  86]   0.2)  2(  8[ 194]   0.5)  3( 12[ 350]   0.9)  4( 16[ 974]   3.5)
  5( 12[ 350]9999.0)
 TTTTTTTTTTTTTTTTTTTTTTTTTTTTTT INT_CALC    TELAPSE        1.14 TCPU        0.64
 EEEEEEEEEE INT_CALC TERMINATION  DATE 18 05 2022 TIME 13:44:45.2

 *******************************************************************************
 DRY-ICE                                                                         
 CRYSTAL - SCF - TYPE OF CALCULATION :  RESTRICTED CLOSED SHELL
 *******************************************************************************

 CAPPA:IS1  8;IS2  8;IS3  8; K PTS MONK NET 260; SYMMOPS:K SPACE   2;G SPACE   1

 TTTTTTTTTTTTTTTTTTTTTTTTTTTTTT SDIK        TELAPSE        1.51 TCPU        0.95

 AAAAAAAAAAAAAAAAAAAAAAAAAAAAAAAAAAAAAAAAAAAAAAAAAAAAAAAAAAAAAAAAAAAAAAAAAAAAAAA
         ATOMIC WAVEFUNCTION(S)


 NUCLEAR CHARGE  6.0  SYMMETRY SPECIES            S    P
 N. ELECTRONS    6.0  NUMBER OF PRIMITIVE GTOS   10    6
                      NUMBER OF CONTRACTED GTOS   4    3
                      NUMBER OF CLOSED SHELLS     2    0
                      OPEN SHELL OCCUPATION       0    2

  ZNUC SCFIT  TOTAL HF ENERGY   KINETIC ENERGY   VIRIAL THEOREM ACCURACY
   6.0  10   -3.766702350E+01  3.783137943E+01 -1.995655566E+00  1.6E-06

 NUCLEAR CHARGE  8.0  SYMMETRY SPECIES            S    P
 N. ELECTRONS    8.0  NUMBER OF PRIMITIVE GTOS   10    6
                      NUMBER OF CONTRACTED GTOS   4    3
                      NUMBER OF CLOSED SHELLS     2    0
                      OPEN SHELL OCCUPATION       0    4

  ZNUC SCFIT  TOTAL HF ENERGY   KINETIC ENERGY   VIRIAL THEOREM ACCURACY
   8.0  13   -7.479377997E+01  7.483473100E+01 -1.999452780E+00  5.0E-06

 AAAAAAAAAAAAAAAAAAAAAAAAAAAAAAAAAAAAAAAAAAAAAAAAAAAAAAAAAAAAAAAAAAAAAAAAAAAAAAA

 CHARGE NORMALIZATION FACTOR   1.00000000
 TOTAL ATOMIC CHARGES:
   6.0000000   8.0000000   8.0000000   6.0000000   8.0000000   8.0000000
   6.0000000   8.0000000   8.0000000   6.0000000   8.0000000   8.0000000
 TTTTTTTTTTTTTTTTTTTTTTTTTTTTTT MOQGAD      TELAPSE        1.59 TCPU        1.03
 TTTTTTTTTTTTTTTTTTTTTTTTTTTTTT SHELLX2     TELAPSE       19.98 TCPU       19.36
 TTTTTTTTTTTTTTTTTTTTTTTTTTTTTT MONMO3      TELAPSE       21.10 TCPU       20.48
 NUMERICALLY INTEGRATED DENSITY     87.9999947430
 TTTTTTTTTTTTTTTTTTTTTTTTTTTTTT NUMDFT      TELAPSE       22.20 TCPU       21.58
 CYC   0 ETOT(AU) -7.565315886252E+02 DETOT -7.57E+02 tst  0.00E+00 PX  1.00E+00
 TTTTTTTTTTTTTTTTTTTTTTTTTTTTTT FDIK        TELAPSE       27.74 TCPU       27.10
 INSULATING STATE
 TOP OF VALENCE BANDS -    BAND     44; K    1; EIG -3.8671817E-01 AU
 BOTTOM OF VIRTUAL BANDS - BAND     45; K    1; EIG -6.7347786E-02 AU
 TTTTTTTTTTTTTTTTTTTTTTTTTTTTTT PDIG        TELAPSE       28.00 TCPU       27.36
 CHARGE NORMALIZATION FACTOR   1.00000000
 TOTAL ATOMIC CHARGES:
   4.5372678   8.7305533   8.7313089   4.7093848   8.9109178   8.3832233
   4.6437193   8.9166840   8.4413713   4.5588427   8.6756242   8.7611025
 TTTTTTTTTTTTTTTTTTTTTTTTTTTTTT MOQGAD      TELAPSE       28.00 TCPU       27.37
 TTTTTTTTTTTTTTTTTTTTTTTTTTTTTT SHELLX2     TELAPSE       47.48 TCPU       46.79
 TTTTTTTTTTTTTTTTTTTTTTTTTTTTTT MONMO3      TELAPSE       48.65 TCPU       47.96
 NUMERICALLY INTEGRATED DENSITY     87.9999986974
 TTTTTTTTTTTTTTTTTTTTTTTTTTTTTT NUMDFT      TELAPSE       52.01 TCPU       51.31
 CYC   1 ETOT(AU) -7.536101078335E+02 DETOT  2.92E+00 tst  0.00E+00 PX  1.00E+00
 TTTTTTTTTTTTTTTTTTTTTTTTTTTTTT FDIK        TELAPSE       54.41 TCPU       53.70
 INSULATING STATE
 TOP OF VALENCE BANDS -    BAND     44; K    1; EIG -2.4827864E-01 AU
 BOTTOM OF VIRTUAL BANDS - BAND     45; K    1; EIG -4.2798107E-02 AU
 TTTTTTTTTTTTTTTTTTTTTTTTTTTTTT PDIG        TELAPSE       54.67 TCPU       53.95
 CHARGE NORMALIZATION FACTOR   1.00000000
 TOTAL ATOMIC CHARGES:
   5.0530643   8.4894606   8.4604284   5.1324570   8.6856677   8.1815248
   5.0887602   8.6976483   8.2137680   5.0705491   8.4360700   8.4906018
 TTTTTTTTTTTTTTTTTTTTTTTTTTTTTT MOQGAD      TELAPSE       54.67 TCPU       53.96
 TTTTTTTTTTTTTTTTTTTTTTTTTTTTTT SHELLX2     TELAPSE       74.14 TCPU       73.38
 TTTTTTTTTTTTTTTTTTTTTTTTTTTTTT MONMO3      TELAPSE       75.33 TCPU       74.56
 NUMERICALLY INTEGRATED DENSITY     87.9999989494
 TTTTTTTTTTTTTTTTTTTTTTTTTTTTTT NUMDFT      TELAPSE       78.69 TCPU       77.91
 CYC   2 ETOT(AU) -7.539745114194E+02 DETOT -3.64E-01 tst  1.49E-02 PX  1.29E-01
 TTTTTTTTTTTTTTTTTTTTTTTTTTTTTT FDIK        TELAPSE       80.93 TCPU       80.14
 INSULATING STATE
 TOP OF VALENCE BANDS -    BAND     44; K    1; EIG -3.0443189E-01 AU
 BOTTOM OF VIRTUAL BANDS - BAND     45; K    1; EIG -3.3296643E-02 AU
 TTTTTTTTTTTTTTTTTTTTTTTTTTTTTT PDIG        TELAPSE       81.18 TCPU       80.39
 CHARGE NORMALIZATION FACTOR   1.00000000
 TOTAL ATOMIC CHARGES:
   5.0499313   8.4918320   8.4630170   5.1280043   8.6692422   8.2003512
   5.0825964   8.6833106   8.2331289   5.0659991   8.4421802   8.4904068
 TTTTTTTTTTTTTTTTTTTTTTTTTTTTTT MOQGAD      TELAPSE       81.19 TCPU       80.40
 TTTTTTTTTTTTTTTTTTTTTTTTTTTTTT SHELLX2     TELAPSE      100.66 TCPU       99.82
 TTTTTTTTTTTTTTTTTTTTTTTTTTTTTT MONMO3      TELAPSE      101.87 TCPU      101.02
 NUMERICALLY INTEGRATED DENSITY     87.9999990265
 TTTTTTTTTTTTTTTTTTTTTTTTTTTTTT NUMDFT      TELAPSE      105.24 TCPU      104.39
 CYC   3 ETOT(AU) -7.539876767418E+02 DETOT -1.32E-02 tst  1.94E-04 PX  3.17E-02
 TTTTTTTTTTTTTTTTTTTTTTTTTTTTTT FDIK        TELAPSE      107.44 TCPU      106.57
 INSULATING STATE
 TOP OF VALENCE BANDS -    BAND     44; K    1; EIG -3.1881641E-01 AU
 BOTTOM OF VIRTUAL BANDS - BAND     45; K    1; EIG -2.9400370E-02 AU
 TTTTTTTTTTTTTTTTTTTTTTTTTTTTTT PDIG        TELAPSE      107.69 TCPU      106.83
 CHARGE NORMALIZATION FACTOR   1.00000000
 TOTAL ATOMIC CHARGES:
   4.9987377   8.5164133   8.4902382   5.0813164   8.6857964   8.2297808
   5.0345907   8.7005111   8.2635353   5.0146572   8.4677576   8.5166654
 TTTTTTTTTTTTTTTTTTTTTTTTTTTTTT MOQGAD      TELAPSE      107.70 TCPU      106.84
 TTTTTTTTTTTTTTTTTTTTTTTTTTTTTT SHELLX2     TELAPSE      127.17 TCPU      126.26
 TTTTTTTTTTTTTTTTTTTTTTTTTTTTTT MONMO3      TELAPSE      128.40 TCPU      127.48
 NUMERICALLY INTEGRATED DENSITY     87.9999990359
 TTTTTTTTTTTTTTTTTTTTTTTTTTTTTT NUMDFT      TELAPSE      131.76 TCPU      130.83
 CYC   4 ETOT(AU) -7.539922150668E+02 DETOT -4.54E-03 tst  4.18E-05 PX  2.45E-02
 TTTTTTTTTTTTTTTTTTTTTTTTTTTTTT FDIK        TELAPSE      133.89 TCPU      132.95
 INSULATING STATE
 TOP OF VALENCE BANDS -    BAND     44; K    1; EIG -3.1425044E-01 AU
 BOTTOM OF VIRTUAL BANDS - BAND     45; K    1; EIG -2.7605481E-02 AU
 TTTTTTTTTTTTTTTTTTTTTTTTTTTTTT PDIG        TELAPSE      134.14 TCPU      133.20
 CHARGE NORMALIZATION FACTOR   1.00000000
 TOTAL ATOMIC CHARGES:
   5.0020045   8.5153136   8.4883743   5.0810731   8.6819978   8.2334900
   5.0352908   8.6973051   8.2659012   5.0176657   8.4673602   8.5142238
 TTTTTTTTTTTTTTTTTTTTTTTTTTTTTT MOQGAD      TELAPSE      134.15 TCPU      133.21
 TTTTTTTTTTTTTTTTTTTTTTTTTTTTTT SHELLX2     TELAPSE      153.61 TCPU      152.62
 TTTTTTTTTTTTTTTTTTTTTTTTTTTTTT MONMO3      TELAPSE      154.83 TCPU      153.84
 NUMERICALLY INTEGRATED DENSITY     87.9999990362
 TTTTTTTTTTTTTTTTTTTTTTTTTTTTTT NUMDFT      TELAPSE      158.19 TCPU      157.19
 CYC   5 ETOT(AU) -7.539924761604E+02 DETOT -2.61E-04 tst  6.80E-06 PX  3.88E-03
 TTTTTTTTTTTTTTTTTTTTTTTTTTTTTT FDIK        TELAPSE      160.26 TCPU      159.25
 INSULATING STATE
 TOP OF VALENCE BANDS -    BAND     44; K    1; EIG -3.1416848E-01 AU
 BOTTOM OF VIRTUAL BANDS - BAND     45; K    1; EIG -2.7540675E-02 AU
 TTTTTTTTTTTTTTTTTTTTTTTTTTTTTT PDIG        TELAPSE      160.51 TCPU      159.50
 CHARGE NORMALIZATION FACTOR   1.00000000
 TOTAL ATOMIC CHARGES:
   5.0071528   8.5127705   8.4859075   5.0854352   8.6784472   8.2325274
   5.0398262   8.6937809   8.2648333   5.0225868   8.4651767   8.5115555
 TTTTTTTTTTTTTTTTTTTTTTTTTTTTTT MOQGAD      TELAPSE      160.52 TCPU      159.51
 TTTTTTTTTTTTTTTTTTTTTTTTTTTTTT SHELLX2     TELAPSE      179.99 TCPU      178.92
 TTTTTTTTTTTTTTTTTTTTTTTTTTTTTT MONMO3      TELAPSE      181.20 TCPU      180.13
 NUMERICALLY INTEGRATED DENSITY     87.9999990353
 TTTTTTTTTTTTTTTTTTTTTTTTTTTTTT NUMDFT      TELAPSE      184.57 TCPU      183.49
 CYC   6 ETOT(AU) -7.539925409860E+02 DETOT -6.48E-05 tst  3.88E-06 PX  1.67E-03
 TTTTTTTTTTTTTTTTTTTTTTTTTTTTTT FDIK        TELAPSE      186.61 TCPU      185.52
 INSULATING STATE
 TOP OF VALENCE BANDS -    BAND     44; K    1; EIG -3.1517914E-01 AU
 BOTTOM OF VIRTUAL BANDS - BAND     45; K    1; EIG -2.7698914E-02 AU
 TTTTTTTTTTTTTTTTTTTTTTTTTTTTTT PDIG        TELAPSE      186.86 TCPU      185.78
 CHARGE NORMALIZATION FACTOR   1.00000000
 TOTAL ATOMIC CHARGES:
   5.0067063   8.5128197   8.4863613   5.0853429   8.6782199   8.2327807
   5.0396260   8.6934220   8.2653712   5.0220115   8.4653777   8.5119608
 TTTTTTTTTTTTTTTTTTTTTTTTTTTTTT MOQGAD      TELAPSE      186.87 TCPU      185.79
 TTTTTTTTTTTTTTTTTTTTTTTTTTTTTT SHELLX2     TELAPSE      206.34 TCPU      205.20
 TTTTTTTTTTTTTTTTTTTTTTTTTTTTTT MONMO3      TELAPSE      207.57 TCPU      206.43
 NUMERICALLY INTEGRATED DENSITY     87.9999990336
 TTTTTTTTTTTTTTTTTTTTTTTTTTTTTT NUMDFT      TELAPSE      210.94 TCPU      209.79
 CYC   7 ETOT(AU) -7.539925616346E+02 DETOT -2.06E-05 tst  5.72E-07 PX  1.52E-03
 TTTTTTTTTTTTTTTTTTTTTTTTTTTTTT FDIK        TELAPSE      212.93 TCPU      211.77
 INSULATING STATE
 TOP OF VALENCE BANDS -    BAND     44; K    1; EIG -3.1535783E-01 AU
 BOTTOM OF VIRTUAL BANDS - BAND     45; K    1; EIG -2.7739901E-02 AU
 TTTTTTTTTTTTTTTTTTTTTTTTTTTTTT PDIG        TELAPSE      213.19 TCPU      212.03
 CHARGE NORMALIZATION FACTOR   1.00000000
 TOTAL ATOMIC CHARGES:
   5.0063160   8.5129620   8.4866383   5.0848793   8.6782225   8.2332059
   5.0391834   8.6933684   8.2658592   5.0215526   8.4656174   8.5121949
 TTTTTTTTTTTTTTTTTTTTTTTTTTTTTT MOQGAD      TELAPSE      213.20 TCPU      212.04
 TTTTTTTTTTTTTTTTTTTTTTTTTTTTTT SHELLX2     TELAPSE      232.67 TCPU      231.45
 TTTTTTTTTTTTTTTTTTTTTTTTTTTTTT MONMO3      TELAPSE      233.91 TCPU      232.69
 NUMERICALLY INTEGRATED DENSITY     87.9999990319
 TTTTTTTTTTTTTTTTTTTTTTTTTTTTTT NUMDFT      TELAPSE      237.28 TCPU      236.05
 CYC   8 ETOT(AU) -7.539925674994E+02 DETOT -5.86E-06 tst  2.63E-07 PX  8.98E-04
 TTTTTTTTTTTTTTTTTTTTTTTTTTTTTT FDIK        TELAPSE      239.21 TCPU      237.98
 INSULATING STATE
 TOP OF VALENCE BANDS -    BAND     44; K    1; EIG -3.1536101E-01 AU
 BOTTOM OF VIRTUAL BANDS - BAND     45; K    1; EIG -2.7751748E-02 AU
 TTTTTTTTTTTTTTTTTTTTTTTTTTTTTT PDIG        TELAPSE      239.47 TCPU      238.24
 CHARGE NORMALIZATION FACTOR   1.00000000
 TOTAL ATOMIC CHARGES:
   5.0064335   8.5128857   8.4866139   5.0848710   8.6780730   8.2333424
   5.0392058   8.6931825   8.2660197   5.0216233   8.4656077   8.5121416
 TTTTTTTTTTTTTTTTTTTTTTTTTTTTTT MOQGAD      TELAPSE      239.48 TCPU      238.24
 TTTTTTTTTTTTTTTTTTTTTTTTTTTTTT SHELLX2     TELAPSE      258.95 TCPU      257.66
 TTTTTTTTTTTTTTTTTTTTTTTTTTTTTT MONMO3      TELAPSE      260.17 TCPU      258.88
 NUMERICALLY INTEGRATED DENSITY     87.9999990307
 TTTTTTTTTTTTTTTTTTTTTTTTTTTTTT NUMDFT      TELAPSE      263.53 TCPU      262.23
 CYC   9 ETOT(AU) -7.539925690035E+02 DETOT -1.50E-06 tst  1.38E-07 PX  4.74E-04
 TTTTTTTTTTTTTTTTTTTTTTTTTTTTTT FDIK        TELAPSE      265.46 TCPU      264.15
 INSULATING STATE
 TOP OF VALENCE BANDS -    BAND     44; K    1; EIG -3.1540824E-01 AU
 BOTTOM OF VIRTUAL BANDS - BAND     45; K    1; EIG -2.7764619E-02 AU
 TTTTTTTTTTTTTTTTTTTTTTTTTTTTTT PDIG        TELAPSE      265.72 TCPU      264.40
 CHARGE NORMALIZATION FACTOR   1.00000000
 TOTAL ATOMIC CHARGES:
   5.0064796   8.5128422   8.4866203   5.0848695   8.6779952   8.2334101
   5.0392304   8.6930761   8.2661004   5.0216393   8.4655988   8.5121382
 TTTTTTTTTTTTTTTTTTTTTTTTTTTTTT MOQGAD      TELAPSE      265.72 TCPU      264.41
 TTTTTTTTTTTTTTTTTTTTTTTTTTTTTT SHELLX2     TELAPSE      285.21 TCPU      283.84
 TTTTTTTTTTTTTTTTTTTTTTTTTTTTTT MONMO3      TELAPSE      286.45 TCPU      285.08
 NUMERICALLY INTEGRATED DENSITY     87.9999990300
 TTTTTTTTTTTTTTTTTTTTTTTTTTTTTT NUMDFT      TELAPSE      289.82 TCPU      288.44
 CYC  10 ETOT(AU) -7.539925695637E+02 DETOT -5.60E-07 tst  6.28E-08 PX  3.18E-04
 TTTTTTTTTTTTTTTTTTTTTTTTTTTTTT FDIK        TELAPSE      291.78 TCPU      290.39
 INSULATING STATE
 TOP OF VALENCE BANDS -    BAND     44; K    1; EIG -3.1544150E-01 AU
 BOTTOM OF VIRTUAL BANDS - BAND     45; K    1; EIG -2.7774062E-02 AU
 TTTTTTTTTTTTTTTTTTTTTTTTTTTTTT PDIG        TELAPSE      292.03 TCPU      290.64
 CHARGE NORMALIZATION FACTOR   1.00000000
 TOTAL ATOMIC CHARGES:
   5.0064680   8.5128341   8.4866447   5.0848427   8.6779672   8.2334583
   5.0392143   8.6930319   8.2661608   5.0216117   8.4656112   8.5121552
 TTTTTTTTTTTTTTTTTTTTTTTTTTTTTT MOQGAD      TELAPSE      292.04 TCPU      290.65
 TTTTTTTTTTTTTTTTTTTTTTTTTTTTTT SHELLX2     TELAPSE      311.51 TCPU      310.07
 +++ ENERGIES IN A.U. +++
 ::: EXT EL-POLE                                  -7.9802606834841E+02
 ::: EXT EL-SPHEROPOLE                             9.7928047650858E+00
 ::: BIELET ZONE E-E                               1.0107107118416E+03
 ::: TOTAL E-E                                     2.2247744825824E+02
 ::: TOTAL E-N + N-E                              -1.5148598650738E+03
 ::: TOTAL N-N                                    -1.4127449417922E+02
 ::: KINETIC ENERGY                                7.5248604616246E+02
 ::: PSEUDO TOTAL   ENERGY                        -6.8117086483232E+02
 ::: VIRIAL COEFFICIENT                            1.0497435479739E+00
 TTTTTTTTTTTTTTTTTTTTTTTTTTTTTT MONMO3      TELAPSE      312.69 TCPU      311.25
 NUMERICALLY INTEGRATED DENSITY     87.9999990295
 TTTTTTTTTTTTTTTTTTTTTTTTTTTTTT NUMDFT      TELAPSE      316.06 TCPU      314.60
 CYC  11 ETOT(AU) -7.539925698014E+02 DETOT -2.38E-07 tst  3.00E-08 PX  3.18E-04

 == SCF ENDED - CONVERGENCE ON ENERGY      E(AU) -7.5399256980136E+02 CYCLES  11


 ENERGY EXPRESSION=HARTREE+FOCK EXCH*0.20000+(BECKE      EXCH)*0.80000+LYP        CORR


 TOTAL ENERGY(DFT)(AU)( 11) -7.5399256980136E+02 DE-2.4E-07 tester 3.0E-08
 TTTTTTTTTTTTTTTTTTTTTTTTTTTTTT EDFT        TELAPSE      316.06 TCPU      314.60
 EIGENVECTORS IN FORTRAN UNIT 10
 TTTTTTTTTTTTTTTTTTTTTTTTTTTTTT END         TELAPSE      316.33 TCPU      314.85
 EEEEEEEEEE TERMINATION  DATE 18 05 2022 TIME 13:50:00.4
NODE    0 CPU TIME =       314.851
NODE    1 CPU TIME =       314.820
NODE    2 CPU TIME =       314.759
NODE    3 CPU TIME =       314.806
NODE    4 CPU TIME =       314.910
NODE    5 CPU TIME =       314.896
NODE    6 CPU TIME =       314.852
NODE    7 CPU TIME =       314.865
NODE    8 CPU TIME =       314.902
NODE    9 CPU TIME =       314.910
    TOTAL CPU TIME =      3148.570
