          10 PROCESSORS WORKING

         
 *******************************************************************************
 *                                                                             *
 *                               CRYSTAL14                                     *
 *                      public : 1.0.4 - Feb 23rd, 2016                        *
 *                       HTTP://WWW.CRYSTAL.UNITO.IT                           *
 *                                                                             *
 *                              MAIN AUTHORS                                   *
 *                                                                             *
 *  R. DOVESI(1,11), V.R. SAUNDERS(2), C. ROETTI(1,11), R. ORLANDO(1,11),      *
 *  C.M. ZICOVICH-WILSON(1,3), F. PASCALE(4), B. CIVALLERI(1,11),              *
 *  K. DOLL(5), N.M. HARRISON(2,6), I. J. BUSH(7), Ph. D'ARCO(8),              *
 *  M. LLUNELL(9), M. CAUSA'(10), Y. NOEL(8)                                   *
 *                                                                             *
 *        CONTRIBUTIONS TO THE CURRENT RELEASE HAVE BEEN GIVEN BY              *
 *                                                                             *
 *  L. MASCHIO(1,11), S. CASASSA(1,11), A. ERBA(1,11), M. FERRABONE(1,11),     *
 *  M. DE LA PIERRE(1,11), M. FERRERO(1,11), V. LACIVITA(1,11),                *
 *  J. BAIMA(1,11), E. ALBANESE(1,11), M.F. PEINTINGER(12), R. BAST(13),       *
 *  M. RERAT(14), B. KIRTMAN(15), R. DEMICHELIS(1,16)                          *
 *                                                                             *
 * (1) THEORETICAL CHEMISTRY GROUP - UNIVERSITA' DI TORINO - TORINO (ITALY)    *
 *     http://www.crystal.unito.it                                             *
 * (2) COMPUTATIONAL SCIENCE & ENGINEERING DEPARTMENT - STFC DARESBURY (UK)    *
 *     http://www.stfc.ac.uk/CSE/randd/cmg/CRYSTAL/25806.aspx                  *
 * (3) UNIVERSIDAD AUTONOMA DEL ESTADO DE MORELOS - CUERNAVACA (MEXICO)        *
 * (4) UNIVERSITE' DE LORRAINE - NANCY (FRANCE)                                *
 * (5) UNIVERSITAET ULM - ULM (GERMANY); (6) IMPERIAL COLLEGE - LONDON (UK)    *
 * (7) NAG - OXFORD (UK); (8) UPMC - SORBONNE UNIVERSITES - PARIS (FRANCE)     *
 * (9) UNIVERSIDAD DE BARCELONA - BARCELONA (SPAIN)                            *
 *(10) UNIVERSITA' DI NAPOLI "FEDERICO II" - NAPOLI (ITALY)                    *
 *(11) NIS - NANOSTRUCTURED INTERFACES AND SURFACES - TORINO (ITALY)           *
 *(12) MPI FUER CHEMISCHE ENERGIEKONVERSION - MUELHEIM AN DER RUHR (GERMANY)   *
 *(13) UNIVERSITY OF STOCKHOLM - STOCKHOLM (SWEDEN)                            *
 *(14) UNIVERSITE' DE PAU ET DES PAYS DE L'ADOUR - PAU (FRANCE)                *
 *(15) UNIVERSITY OF CALIFORNIA SANTA BARBARA - SANTA BARBARA (USA)            *
 *(16) CURTIN UNIVERSITY - PERTH (AUSTRALIA)                                   *
 *                                                                             *
 ********************************************************************************
 EEEEEEEEEE STARTING  DATE 18 05 2022 TIME 11:47:41.2
 DRY-ICE                                                                         

 CRYSTAL CALCULATION
 (INPUT ACCORDING TO THE INTERNATIONAL TABLES FOR X-RAY CRYSTALLOGRAPHY)
 CRYSTAL FAMILY                       :  TRICLINIC   
 CRYSTAL CLASS  (GROTH - 1921)        :  TRICLINIC PEDIAL                     

 SPACE GROUP (NONCENTROSYMMETRIC)     :  P 1             

 LATTICE PARAMETERS  (ANGSTROMS AND DEGREES) - CONVENTIONAL CELL
        A           B           C        ALPHA        BETA       GAMMA
     5.63000     5.63000     5.63000    90.00000    90.00000    90.00000


 NUMBER OF IRREDUCIBLE ATOMS IN THE CONVENTIONAL CELL:   12

 INPUT COORDINATES

 ATOM AT. N.              COORDINATES
   1   6     0.000000000000E+00  0.000000000000E+00  0.000000000000E+00
   2   8     1.300000000000E-01  1.300000000000E-01  9.000000000000E-02
   3   8    -1.300000000000E-01 -1.300000000000E-01 -9.000000000000E-02
   4   6     5.000000000000E-01  2.000000000000E-02  4.900000000000E-01
   5   8     3.600000000000E-01 -1.000000000000E-01 -3.800000000000E-01
   6   8    -3.700000000000E-01  1.300000000000E-01  3.700000000000E-01
   7   6     4.900000000000E-01  4.900000000000E-01 -2.000000000000E-02
   8   8    -3.700000000000E-01  4.100000000000E-01 -1.100000000000E-01
   9   8     3.500000000000E-01 -3.900000000000E-01  9.000000000000E-02
  10   6    -2.000000000000E-02  5.000000000000E-01  4.900000000000E-01
  11   8    -1.400000000000E-01 -4.000000000000E-01  3.800000000000E-01
  12   8     1.000000000000E-01  3.600000000000E-01 -3.800000000000E-01

 *******************************************************************************

 << INFORMATION >>: FROM NOW ON, ALL COORDINATES REFER TO THE PRIMITIVE CELL

 *******************************************************************************

 LATTICE PARAMETERS  (ANGSTROMS AND DEGREES) - PRIMITIVE CELL
       A          B          C        ALPHA      BETA     GAMMA        VOLUME
    5.63000    5.63000    5.63000    90.00000  90.00000  90.00000    178.453547

 COORDINATES OF THE EQUIVALENT ATOMS (FRACTIONAL UNITS)

 N. ATOM EQUIV AT. N.          X                  Y                  Z

   1   1   1    6 C     0.00000000000E+00  0.00000000000E+00  0.00000000000E+00

   2   2   1    8 O     1.30000000000E-01  1.30000000000E-01  9.00000000000E-02

   3   3   1    8 O    -1.30000000000E-01 -1.30000000000E-01 -9.00000000000E-02

   4   4   1    6 C    -5.00000000000E-01  2.00000000000E-02  4.90000000000E-01

   5   5   1    8 O     3.60000000000E-01 -1.00000000000E-01 -3.80000000000E-01

   6   6   1    8 O    -3.70000000000E-01  1.30000000000E-01  3.70000000000E-01

   7   7   1    6 C     4.90000000000E-01  4.90000000000E-01 -2.00000000000E-02

   8   8   1    8 O    -3.70000000000E-01  4.10000000000E-01 -1.10000000000E-01

   9   9   1    8 O     3.50000000000E-01 -3.90000000000E-01  9.00000000000E-02

  10  10   1    6 C    -2.00000000000E-02 -5.00000000000E-01  4.90000000000E-01

  11  11   1    8 O    -1.40000000000E-01 -4.00000000000E-01  3.80000000000E-01

  12  12   1    8 O     1.00000000000E-01  3.60000000000E-01 -3.80000000000E-01

 NUMBER OF SYMMETRY OPERATORS         :    1
 *******************************************************************************
 * GEOMETRY EDITING - INPUT COORDINATES ARE GIVEN IN ANGSTROM         
 *******************************************************************************

 GCALCO - MAX INDICES DIRECT LATTICE VECTOR    14    14    14
 NO.OF VECTORS CREATED 6999 STARS  120 RMAX   126.33300 BOHR

 GEOMETRY FOR WAVE FUNCTION - DIMENSIONALITY OF THE SYSTEM    3
 (NON PERIODIC DIRECTION: LATTICE PARAMETER FORMALLY SET TO 500)
 *******************************************************************************
 LATTICE PARAMETERS (ANGSTROMS AND DEGREES) - BOHR = 0.5291772083 ANGSTROM
 PRIMITIVE CELL - CENTRING CODE 1/0 VOLUME=   178.453547 - DENSITY  1.637 g/cm^3
         A              B              C           ALPHA      BETA       GAMMA 
     5.63000000     5.63000000     5.63000000    90.000000  90.000000  90.000000
 *******************************************************************************
 ATOMS IN THE ASYMMETRIC UNIT   12 - ATOMS IN THE UNIT CELL:   12
     ATOM              X/A                 Y/B                 Z/C    
 *******************************************************************************
   1 T   6 C     0.000000000000E+00  0.000000000000E+00  0.000000000000E+00
   2 T   8 O     1.300000000000E-01  1.300000000000E-01  9.000000000000E-02
   3 T   8 O    -1.300000000000E-01 -1.300000000000E-01 -9.000000000000E-02
   4 T   6 C     5.000000000000E-01  2.000000000000E-02  4.900000000000E-01
   5 T   8 O     3.600000000000E-01 -1.000000000000E-01 -3.800000000000E-01
   6 T   8 O    -3.700000000000E-01  1.300000000000E-01  3.700000000000E-01
   7 T   6 C     4.900000000000E-01  4.900000000000E-01 -2.000000000000E-02
   8 T   8 O    -3.700000000000E-01  4.100000000000E-01 -1.100000000000E-01
   9 T   8 O     3.500000000000E-01 -3.900000000000E-01  9.000000000000E-02
  10 T   6 C    -2.000000000000E-02  5.000000000000E-01  4.900000000000E-01
  11 T   8 O    -1.400000000000E-01 -4.000000000000E-01  3.800000000000E-01
  12 T   8 O     1.000000000000E-01  3.600000000000E-01 -3.800000000000E-01

 T = ATOM BELONGING TO THE ASYMMETRIC UNIT

 ****    1 SYMMOPS - TRANSLATORS IN FRACTIONAL UNITS
 **** MATRICES AND TRANSLATORS IN THE CRYSTALLOGRAPHIC REFERENCE FRAME
   V INV                    ROTATION MATRICES                   TRANSLATORS
   1   1  1.00  0.00  0.00  0.00  1.00  0.00  0.00  0.00  1.00  0.00  0.00  0.00

 DIRECT LATTICE VECTORS CARTESIAN COMPONENTS (ANGSTROM)
          X                    Y                    Z
   0.563000000000E+01   0.344738073960E-15   0.000000000000E+00
   0.000000000000E+00   0.563000000000E+01   0.000000000000E+00
   0.344738073960E-15   0.344738073960E-15   0.563000000000E+01


 CARTESIAN COORDINATES - PRIMITIVE CELL
 *******************************************************************************
 *      ATOM          X(ANGSTROM)         Y(ANGSTROM)         Z(ANGSTROM)
 *******************************************************************************
    1     6 C     0.000000000000E+00  0.000000000000E+00  0.000000000000E+00
    2     8 O     7.319000000000E-01  7.319000000000E-01  5.067000000000E-01
    3     8 O    -7.319000000000E-01 -7.319000000000E-01 -5.067000000000E-01
    4     6 C     2.815000000000E+00  1.126000000000E-01  2.758700000000E+00
    5     8 O     2.026800000000E+00 -5.630000000000E-01 -2.139400000000E+00
    6     8 O    -2.083100000000E+00  7.319000000000E-01  2.083100000000E+00
    7     6 C     2.758700000000E+00  2.758700000000E+00 -1.126000000000E-01
    8     8 O    -2.083100000000E+00  2.308300000000E+00 -6.193000000000E-01
    9     8 O     1.970500000000E+00 -2.195700000000E+00  5.067000000000E-01
   10     6 C    -1.126000000000E-01  2.815000000000E+00  2.758700000000E+00
   11     8 O    -7.882000000000E-01 -2.252000000000E+00  2.139400000000E+00
   12     8 O     5.630000000000E-01  2.026800000000E+00 -2.139400000000E+00

 *******************************************************************************
 STARTING BASIS SET HANDLING 
 *******************************************************************************

 Loading internal basis set: POB-TZVP            

 Please cite in your publication:
 Peintinger, M. F., Oliveira, D. V. and Bredow, T. (2013), Consistent Gaussian b
 asis sets of triple-zeta valence with polarization quality for solid-state calc
 ulations. J. Comput. Chem., 34: 451–459. doi: 10.1002/jcc.23153              
                    

 *******************************************************************************
 LOCAL ATOMIC FUNCTIONS BASIS SET
 *******************************************************************************
   ATOM   X(AU)   Y(AU)   Z(AU)  N. TYPE  EXPONENT  S COEF   P COEF   D/F/G COEF
 *******************************************************************************
   1 C    0.000   0.000   0.000
                                  1 S  
                                         1.358E+04 2.225E-04 0.000E+00 0.000E+00
                                         2.035E+03 1.723E-03 0.000E+00 0.000E+00
                                         4.632E+02 8.926E-03 0.000E+00 0.000E+00
                                         1.312E+02 3.573E-02 0.000E+00 0.000E+00
                                         4.285E+01 1.108E-01 0.000E+00 0.000E+00
                                         1.558E+01 2.430E-01 0.000E+00 0.000E+00
                                  2 S  
                                         6.207E+00 4.144E-01 0.000E+00 0.000E+00
                                         2.576E+00 2.374E-01 0.000E+00 0.000E+00
                                  3 S  
                                         4.941E-01 1.000E+00 0.000E+00 0.000E+00
                                  4 S  
                                         1.644E-01 1.000E+00 0.000E+00 0.000E+00
                             5-   7 P  
                                         3.470E+01 0.000E+00 5.333E-03 0.000E+00
                                         7.958E+00 0.000E+00 3.586E-02 0.000E+00
                                         2.378E+00 0.000E+00 1.422E-01 0.000E+00
                                         8.143E-01 0.000E+00 3.427E-01 0.000E+00
                             8-  10 P  
                                         5.662E-01 0.000E+00 1.000E+00 0.000E+00
                            11-  13 P  
                                         2.674E-01 0.000E+00 1.000E+00 0.000E+00
                            14-  18 D  
                                         8.792E-01 0.000E+00 0.000E+00 1.000E+00
   2 O    1.383   1.383   0.958
                                 19 S  
                                         2.703E+04 2.173E-04 0.000E+00 0.000E+00
                                         4.052E+03 1.684E-03 0.000E+00 0.000E+00
                                         9.223E+02 8.740E-03 0.000E+00 0.000E+00
                                         2.612E+02 3.524E-02 0.000E+00 0.000E+00
                                         8.535E+01 1.115E-01 0.000E+00 0.000E+00
                                         3.104E+01 2.559E-01 0.000E+00 0.000E+00
                                 20 S  
                                         1.226E+01 3.977E-01 0.000E+00 0.000E+00
                                         4.999E+00 2.463E-01 0.000E+00 0.000E+00
                                 21 S  
                                         8.479E-01 1.000E+00 0.000E+00 0.000E+00
                                 22 S  
                                         1.851E-01 1.000E+00 0.000E+00 0.000E+00
                            23-  25 P  
                                         6.327E+01 0.000E+00 6.069E-03 0.000E+00
                                         1.463E+01 0.000E+00 4.191E-02 0.000E+00
                                         4.450E+00 0.000E+00 1.615E-01 0.000E+00
                                         1.528E+00 0.000E+00 3.571E-01 0.000E+00
                            26-  28 P  
                                         5.490E-01 0.000E+00 1.000E+00 0.000E+00
                            29-  31 P  
                                         1.824E-01 0.000E+00 1.000E+00 0.000E+00
                            32-  36 D  
                                         5.000E-01 0.000E+00 0.000E+00 1.000E+00
   3 O   -1.383  -1.383  -0.958
   4 C    5.320   0.213   5.213
   5 O    3.830  -1.064  -4.043
   6 O   -3.936   1.383   3.936
   7 C    5.213   5.213  -0.213
   8 O   -3.936   4.362  -1.170
   9 O    3.724  -4.149   0.958
  10 C   -0.213   5.320   5.213
  11 O   -1.489  -4.256   4.043
  12 O    1.064   3.830  -4.043

 *******************************************************************************
 FINISHED BASIS SET HANDLING 
 *******************************************************************************

 INFORMATION **** SET_MPP **** PCRYSTAL CALCULATION
 INFORMATION **** READM2 **** NEW DEFAULT: FOCK/KS MATRIX MIXING SET TO 30 %
 INFORMATION **** READM2 **** NEW DEFAULT: FULL DIRECT SCF MODE
 INFORMATION **** READM2 **** NEW DEFAULT: COULOMB BIPOLAR BUFFER SET TO 32 Mb
 INFORMATION **** READM2 **** NEW DEFAULT: EXCHANGE BIPOLAR BUFFER SET TO 32 Mb

 *******************************************************************************
 NEW DEFAULT: DFT INTEGRATION GRID INCREASED TO XLGRID
 NEW DEFAULT: LEVEL SHIFTER 6 0
 IF THE SYSTEM IS A METAL USE KEYWORD NOSHIFT
 *******************************************************************************

 *******************************************************************************
 N. OF ATOMS PER CELL        12  COULOMB OVERLAP TOL         (T1) 10**   -6
 NUMBER OF SHELLS            96  COULOMB PENETRATION TOL     (T2) 10**   -6
 NUMBER OF AO               216  EXCHANGE OVERLAP TOL        (T3) 10**   -6
 N. OF ELECTRONS PER CELL    88  EXCHANGE PSEUDO OVP (F(G))  (T4) 10**   -6
 CORE ELECTRONS PER CELL     24  EXCHANGE PSEUDO OVP (P(G))  (T5) 10**  -12
 N. OF SYMMETRY OPERATORS     1  POLE ORDER IN MONO ZONE                  4
 *******************************************************************************
 TYPE OF CALCULATION :  RESTRICTED CLOSED SHELL
 KOHN-SHAM HAMILTONIAN

 (EXCHANGE)[CORRELATION] FUNCTIONAL:(BECKE 88)[LEE-YANG-PARR]

 NON-LOCAL WEIGHTING FACTOR (EXCHANGE) =           0.9000
 NON-LOCAL WEIGHTING FACTOR [CORRELATION] =        0.8100

 HYBRID EXCHANGE - PERCENTAGE OF FOCK EXCHANGE    20.0000
 EIGENVALUE LEVEL SHIFTING OF  0.600 HARTREE

 CAPPA:IS1  8;IS2  8;IS3  8; K PTS MONK NET 260; SYMMOPS:K SPACE   2;G SPACE   1

 *******************************************************************************
 MAX NUMBER OF SCF CYCLES      50  CONVERGENCE ON DELTAP        10**-16
 WEIGHT OF F(I) IN F(I+1)      30% CONVERGENCE ON ENERGY        10**- 6
 EIGENVALUE LEVEL SHIFTING OF  0.600 HARTREE
 SHRINK. FACT.(MONKH.)    8  8  8  NUMBER OF K POINTS IN THE IBZ    260
 SHRINKING FACTOR(GILAT NET)    8  NUMBER OF K POINTS(GILAT NET)    260
 *******************************************************************************
 *** K POINTS COORDINATES (OBLIQUE COORDINATES IN UNITS OF IS =  8)
   1-R(  0  0  0)   2-C(  1  0  0)   3-C(  2  0  0)   4-C(  3  0  0)
   5-R(  4  0  0)   6-C(  0  1  0)   7-C(  1  1  0)   8-C(  2  1  0)
   9-C(  3  1  0)  10-C(  4  1  0)  11-C(  5  1  0)  12-C(  6  1  0)
  13-C(  7  1  0)  14-C(  0  2  0)  15-C(  1  2  0)  16-C(  2  2  0)
  17-C(  3  2  0)  18-C(  4  2  0)  19-C(  5  2  0)  20-C(  6  2  0)
  21-C(  7  2  0)  22-C(  0  3  0)  23-C(  1  3  0)  24-C(  2  3  0)
  25-C(  3  3  0)  26-C(  4  3  0)  27-C(  5  3  0)  28-C(  6  3  0)
  29-C(  7  3  0)  30-R(  0  4  0)  31-C(  1  4  0)  32-C(  2  4  0)
  33-C(  3  4  0)  34-R(  4  4  0)  35-C(  0  0  1)  36-C(  1  0  1)
  37-C(  2  0  1)  38-C(  3  0  1)  39-C(  4  0  1)  40-C(  5  0  1)
  41-C(  6  0  1)  42-C(  7  0  1)  43-C(  0  1  1)  44-C(  1  1  1)
  45-C(  2  1  1)  46-C(  3  1  1)  47-C(  4  1  1)  48-C(  5  1  1)
  49-C(  6  1  1)  50-C(  7  1  1)  51-C(  0  2  1)  52-C(  1  2  1)
  53-C(  2  2  1)  54-C(  3  2  1)  55-C(  4  2  1)  56-C(  5  2  1)
  57-C(  6  2  1)  58-C(  7  2  1)  59-C(  0  3  1)  60-C(  1  3  1)
  61-C(  2  3  1)  62-C(  3  3  1)  63-C(  4  3  1)  64-C(  5  3  1)
  65-C(  6  3  1)  66-C(  7  3  1)  67-C(  0  4  1)  68-C(  1  4  1)
  69-C(  2  4  1)  70-C(  3  4  1)  71-C(  4  4  1)  72-C(  5  4  1)
  73-C(  6  4  1)  74-C(  7  4  1)  75-C(  0  5  1)  76-C(  1  5  1)
  77-C(  2  5  1)  78-C(  3  5  1)  79-C(  4  5  1)  80-C(  5  5  1)
  81-C(  6  5  1)  82-C(  7  5  1)  83-C(  0  6  1)  84-C(  1  6  1)
  85-C(  2  6  1)  86-C(  3  6  1)  87-C(  4  6  1)  88-C(  5  6  1)
  89-C(  6  6  1)  90-C(  7  6  1)  91-C(  0  7  1)  92-C(  1  7  1)
  93-C(  2  7  1)  94-C(  3  7  1)  95-C(  4  7  1)  96-C(  5  7  1)
  97-C(  6  7  1)  98-C(  7  7  1)  99-C(  0  0  2) 100-C(  1  0  2)
 101-C(  2  0  2) 102-C(  3  0  2) 103-C(  4  0  2) 104-C(  5  0  2)
 105-C(  6  0  2) 106-C(  7  0  2) 107-C(  0  1  2) 108-C(  1  1  2)
 109-C(  2  1  2) 110-C(  3  1  2) 111-C(  4  1  2) 112-C(  5  1  2)
 113-C(  6  1  2) 114-C(  7  1  2) 115-C(  0  2  2) 116-C(  1  2  2)
 117-C(  2  2  2) 118-C(  3  2  2) 119-C(  4  2  2) 120-C(  5  2  2)
 121-C(  6  2  2) 122-C(  7  2  2) 123-C(  0  3  2) 124-C(  1  3  2)
 125-C(  2  3  2) 126-C(  3  3  2) 127-C(  4  3  2) 128-C(  5  3  2)
 129-C(  6  3  2) 130-C(  7  3  2) 131-C(  0  4  2) 132-C(  1  4  2)
 133-C(  2  4  2) 134-C(  3  4  2) 135-C(  4  4  2) 136-C(  5  4  2)
 137-C(  6  4  2) 138-C(  7  4  2) 139-C(  0  5  2) 140-C(  1  5  2)
 141-C(  2  5  2) 142-C(  3  5  2) 143-C(  4  5  2) 144-C(  5  5  2)
 145-C(  6  5  2) 146-C(  7  5  2) 147-C(  0  6  2) 148-C(  1  6  2)
 149-C(  2  6  2) 150-C(  3  6  2) 151-C(  4  6  2) 152-C(  5  6  2)
 153-C(  6  6  2) 154-C(  7  6  2) 155-C(  0  7  2) 156-C(  1  7  2)
 157-C(  2  7  2) 158-C(  3  7  2) 159-C(  4  7  2) 160-C(  5  7  2)
 161-C(  6  7  2) 162-C(  7  7  2) 163-C(  0  0  3) 164-C(  1  0  3)
 165-C(  2  0  3) 166-C(  3  0  3) 167-C(  4  0  3) 168-C(  5  0  3)
 169-C(  6  0  3) 170-C(  7  0  3) 171-C(  0  1  3) 172-C(  1  1  3)
 173-C(  2  1  3) 174-C(  3  1  3) 175-C(  4  1  3) 176-C(  5  1  3)
 177-C(  6  1  3) 178-C(  7  1  3) 179-C(  0  2  3) 180-C(  1  2  3)
 181-C(  2  2  3) 182-C(  3  2  3) 183-C(  4  2  3) 184-C(  5  2  3)
 185-C(  6  2  3) 186-C(  7  2  3) 187-C(  0  3  3) 188-C(  1  3  3)
 189-C(  2  3  3) 190-C(  3  3  3) 191-C(  4  3  3) 192-C(  5  3  3)
 193-C(  6  3  3) 194-C(  7  3  3) 195-C(  0  4  3) 196-C(  1  4  3)
 197-C(  2  4  3) 198-C(  3  4  3) 199-C(  4  4  3) 200-C(  5  4  3)
 201-C(  6  4  3) 202-C(  7  4  3) 203-C(  0  5  3) 204-C(  1  5  3)
 205-C(  2  5  3) 206-C(  3  5  3) 207-C(  4  5  3) 208-C(  5  5  3)
 209-C(  6  5  3) 210-C(  7  5  3) 211-C(  0  6  3) 212-C(  1  6  3)
 213-C(  2  6  3) 214-C(  3  6  3) 215-C(  4  6  3) 216-C(  5  6  3)
 217-C(  6  6  3) 218-C(  7  6  3) 219-C(  0  7  3) 220-C(  1  7  3)
 221-C(  2  7  3) 222-C(  3  7  3) 223-C(  4  7  3) 224-C(  5  7  3)
 225-C(  6  7  3) 226-C(  7  7  3) 227-R(  0  0  4) 228-C(  1  0  4)
 229-C(  2  0  4) 230-C(  3  0  4) 231-R(  4  0  4) 232-C(  0  1  4)
 233-C(  1  1  4) 234-C(  2  1  4) 235-C(  3  1  4) 236-C(  4  1  4)
 237-C(  5  1  4) 238-C(  6  1  4) 239-C(  7  1  4) 240-C(  0  2  4)
 241-C(  1  2  4) 242-C(  2  2  4) 243-C(  3  2  4) 244-C(  4  2  4)
 245-C(  5  2  4) 246-C(  6  2  4) 247-C(  7  2  4) 248-C(  0  3  4)
 249-C(  1  3  4) 250-C(  2  3  4) 251-C(  3  3  4) 252-C(  4  3  4)
 253-C(  5  3  4) 254-C(  6  3  4) 255-C(  7  3  4) 256-R(  0  4  4)
 257-C(  1  4  4) 258-C(  2  4  4) 259-C(  3  4  4) 260-R(  4  4  4)

 DIRECT LATTICE VECTORS COMPON. (A.U.)     RECIP. LATTICE VECTORS COMPON. (A.U.) 
        X            Y            Z              X            Y            Z
   10.6391581    0.0000000    0.0000000      0.5905717    0.0000000   -0.0000000
    0.0000000   10.6391581    0.0000000     -0.0000000    0.5905717   -0.0000000
    0.0000000    0.0000000   10.6391581      0.0000000    0.0000000    0.5905717

 DISK SPACE FOR EIGENVECTORS (FTN 10)    23887872 REALS

 SYMMETRY ADAPTION OF THE BLOCH FUNCTIONS DISABLED
 TTTTTTTTTTTTTTTTTTTTTTTTTTTTTT gordsh1     TELAPSE        0.67 TCPU        0.22

 MATRIX SIZE: P(G)  228972, F(G)   40578, P(G) IRR  115686, F(G) IRR   40950
 MAX G-VECTOR INDEX FOR 1- AND 2-ELECTRON INTEGRALS  81

 TTTTTTTTTTTTTTTTTTTTTTTTTTTTTT INPUT       TELAPSE        0.69 TCPU        0.25

 NEIGHBORS OF THE NON-EQUIVALENT ATOMS

 N = NUMBER OF NEIGHBORS AT DISTANCE R
    ATOM  N     R/ANG      R/AU   NEIGHBORS (ATOM LABELS AND CELL INDICES)
   1 C    2     1.1524     2.1778    2 O    0 0 0    3 O    0 0 0
   1 C    1     2.9934     5.6568    9 O    0 0 0
   1 C    2     3.0003     5.6698    5 O    0 0 0   12 O    0 0 0
   1 C    1     3.0355     5.7363    6 O    0 0 0
   1 C    1     3.1703     5.9911    8 O    0 0 0
   1 C    1     3.2047     6.0559   11 O    0 0 0

   2 O    1     1.1524     2.1778    1 C    0 0 0
   2 O    1     2.3049     4.3556    3 O    0 0 0
   2 O    1     2.9325     5.5416    7 C    0 0 0
   2 O    1     2.9508     5.5762   12 O    0 0 0
   2 O    1     2.9727     5.6176    9 O    0 1 0
   2 O    1     3.1296     5.9141    4 C    0 0 0

   3 O    1     1.1524     2.1778    1 C    0 0 0
   3 O    1     2.3049     4.3556    2 O    0 0 0
   3 O    1     2.9233     5.5242    8 O    0-1 0
   3 O    1     3.0511     5.7658    7 C   -1-1 0
   3 O    1     3.0522     5.7678   11 O    0 0 0
   3 O    1     3.2101     6.0662    5 O    0 0 0

   4 C    1     1.1729     2.2164    6 O    1 0 0
   4 C    1     1.2702     2.4003    5 O    0 0 1
   4 C    1     3.0449     5.7540   12 O    0 0 1
   4 C    1     3.1296     5.9141    2 O    0 0 0
   4 C    1     3.1753     6.0005   11 O    1 0 0
   4 C    1     3.2293     6.1025    8 O    1 0 1

   5 O    1     1.2702     2.4003    4 C    0 0-1
   5 O    1     2.4431     4.6167    6 O    1 0-1
   5 O    1     2.9749     5.6217   12 O    0 0 0
   5 O    1     3.0003     5.6698    1 C    0 0 0
   5 O    1     3.1098     5.8766    9 O    0 0 0
   5 O    1     3.1578     5.9674    7 C    0-1 0

   6 O    1     1.1729     2.2164    4 C   -1 0 0
   6 O    1     2.4431     4.6167    5 O   -1 0 1
   6 O    1     2.9459     5.5670   10 C    0 0 0
   6 O    1     2.9465     5.5681   11 O    0 1 0
   6 O    1     3.0355     5.7363    1 C    0 0 0
   6 O    1     3.0904     5.8399    7 C   -1 0 0

   7 C    1     1.0396     1.9646    8 O    1 0 0
   7 C    1     1.2088     2.2843    9 O    0 1 0
   7 C    1     2.9325     5.5416    2 O    0 0 0
   7 C    1     3.0511     5.7658    3 O    1 1 0
   7 C    1     3.0765     5.8137   12 O    0 0 0
   7 C    1     3.0904     5.8399    6 O    1 0 0

   8 O    1     1.0396     1.9646    7 C   -1 0 0
   8 O    1     2.2407     4.2343    9 O   -1 1 0
   8 O    1     2.9233     5.5242    3 O    0 1 0
   8 O    1     3.0350     5.7353   10 C    0 0-1
   8 O    1     3.0646     5.7913   12 O    0 0 0
   8 O    1     3.1286     5.9122    6 O    0 0 0

   9 O    1     1.2088     2.2843    7 C    0-1 0
   9 O    1     2.2407     4.2343    8 O    1-1 0
   9 O    1     2.9727     5.6176    2 O    0-1 0
   9 O    1     2.9934     5.6568    1 C    0 0 0
   9 O    1     3.1098     5.8766    5 O    0 0 0
   9 O    1     3.1296     5.9141   10 C    0-1 0

  10 C    1     1.0756     2.0326   11 O    0 1 0
  10 C    1     1.2702     2.4003   12 O    0 0 1
  10 C    1     2.9459     5.5670    6 O    0 0 0
  10 C    1     3.0350     5.7353    8 O    0 0 1
  10 C    1     3.1296     5.9141    9 O    0 1 0
  10 C    1     3.1818     6.0128    2 O    0 0 0

  11 O    1     1.0756     2.0326   10 C    0-1 0
  11 O    1     2.3403     4.4226   12 O    0-1 1
  11 O    1     2.9465     5.5681    6 O    0-1 0
  11 O    1     3.0522     5.7678    3 O    0 0 0
  11 O    1     3.1296     5.9141    7 C   -1-1 0
  11 O    1     3.1753     6.0005    4 C   -1 0 0

  12 O    1     1.2702     2.4003   10 C    0 0-1
  12 O    1     2.3403     4.4226   11 O    0 1-1
  12 O    1     2.9508     5.5762    2 O    0 0 0
  12 O    1     2.9749     5.6217    5 O    0 0 0
  12 O    1     3.0003     5.6698    1 C    0 0 0
  12 O    1     3.0449     5.7540    4 C    0 0-1


 SYMMETRY ALLOWED INTERNAL DEGREE(S) OF FREEDOM:  33
 TTTTTTTTTTTTTTTTTTTTTTTTTTTTTT SYMM        TELAPSE        0.69 TCPU        0.25
 TTTTTTTTTTTTTTTTTTTTTTTTTTTTTT INT_SCREEN  TELAPSE        0.70 TCPU        0.26
 INFORMATION **** EXCBUF **** EXCH. BIPO BUFFER: WORDS USED =      771984

 DFT PARAMETERS

     ATOM       ELECTRONS   NET CHARGE   R(ANGSTROM)
   1   6  C       6.0000      0.0000     0.77000000
   2   8  O       8.0000      0.0000     0.74000000

 SIZE OF GRID=     422905
 TTTTTTTTTTTTTTTTTTTTTTTTTTTTTT MAKE_GRID2  TELAPSE        1.18 TCPU        0.74
 BECKE WEIGHT FUNCTION
 RADSAFE =     2.00
 TOLERANCES - DENSITY:10**- 6; POTENTIAL:10**- 9; GRID WGT:10**-14

 RADIAL INTEGRATION  - INTERVALS (POINTS,UPPER LIMIT):            1( 75,  4.0*R)

 ANGULAR INTEGRATION - INTERVALS (ACCURACY LEVEL [N. POINTS] UPPER LIMIT):
  1(  4[  86]   0.2)  2(  8[ 194]   0.5)  3( 12[ 350]   0.9)  4( 16[ 974]   3.5)
  5( 12[ 350]9999.0)
 TTTTTTTTTTTTTTTTTTTTTTTTTTTTTT INT_CALC    TELAPSE        1.22 TCPU        0.77
 EEEEEEEEEE INT_CALC TERMINATION  DATE 18 05 2022 TIME 11:47:41.8

 *******************************************************************************
 DRY-ICE                                                                         
 CRYSTAL - SCF - TYPE OF CALCULATION :  RESTRICTED CLOSED SHELL
 *******************************************************************************

 CAPPA:IS1  8;IS2  8;IS3  8; K PTS MONK NET 260; SYMMOPS:K SPACE   2;G SPACE   1

 TTTTTTTTTTTTTTTTTTTTTTTTTTTTTT SDIK        TELAPSE        1.60 TCPU        1.10

 AAAAAAAAAAAAAAAAAAAAAAAAAAAAAAAAAAAAAAAAAAAAAAAAAAAAAAAAAAAAAAAAAAAAAAAAAAAAAAA
         ATOMIC WAVEFUNCTION(S)


 NUCLEAR CHARGE  6.0  SYMMETRY SPECIES            S    P
 N. ELECTRONS    6.0  NUMBER OF PRIMITIVE GTOS   10    6
                      NUMBER OF CONTRACTED GTOS   4    3
                      NUMBER OF CLOSED SHELLS     2    0
                      OPEN SHELL OCCUPATION       0    2

  ZNUC SCFIT  TOTAL HF ENERGY   KINETIC ENERGY   VIRIAL THEOREM ACCURACY
   6.0  10   -3.766702350E+01  3.783137943E+01 -1.995655566E+00  1.6E-06

 NUCLEAR CHARGE  8.0  SYMMETRY SPECIES            S    P
 N. ELECTRONS    8.0  NUMBER OF PRIMITIVE GTOS   10    6
                      NUMBER OF CONTRACTED GTOS   4    3
                      NUMBER OF CLOSED SHELLS     2    0
                      OPEN SHELL OCCUPATION       0    4

  ZNUC SCFIT  TOTAL HF ENERGY   KINETIC ENERGY   VIRIAL THEOREM ACCURACY
   8.0  13   -7.479377997E+01  7.483473100E+01 -1.999452780E+00  5.0E-06

 AAAAAAAAAAAAAAAAAAAAAAAAAAAAAAAAAAAAAAAAAAAAAAAAAAAAAAAAAAAAAAAAAAAAAAAAAAAAAAA

 CHARGE NORMALIZATION FACTOR   1.00000000
 TOTAL ATOMIC CHARGES:
   6.0000000   8.0000000   8.0000000   6.0000000   8.0000000   8.0000000
   6.0000000   8.0000000   8.0000000   6.0000000   8.0000000   8.0000000
 TTTTTTTTTTTTTTTTTTTTTTTTTTTTTT MOQGAD      TELAPSE        1.61 TCPU        1.11
 TTTTTTTTTTTTTTTTTTTTTTTTTTTTTT SHELLX2     TELAPSE       20.48 TCPU       19.93
 TTTTTTTTTTTTTTTTTTTTTTTTTTTTTT MONMO3      TELAPSE       21.46 TCPU       20.91
 NUMERICALLY INTEGRATED DENSITY     88.0000031949
 TTTTTTTTTTTTTTTTTTTTTTTTTTTTTT NUMDFT      TELAPSE       22.58 TCPU       22.02
 CYC   0 ETOT(AU) -7.563329346850E+02 DETOT -7.56E+02 tst  0.00E+00 PX  1.00E+00
 TTTTTTTTTTTTTTTTTTTTTTTTTTTTTT FDIK        TELAPSE       28.02 TCPU       27.43
 INSULATING STATE
 TOP OF VALENCE BANDS -    BAND     44; K  227; EIG -3.8520006E-01 AU
 TOP OF VALENCE BANDS -    BAND     44; K    1; EIG -3.8551237E-01 AU
 BOTTOM OF VIRTUAL BANDS - BAND     45; K    1; EIG -4.9121669E-02 AU
 TTTTTTTTTTTTTTTTTTTTTTTTTTTTTT PDIG        TELAPSE       28.28 TCPU       27.70
 CHARGE NORMALIZATION FACTOR   1.00000000
 TOTAL ATOMIC CHARGES:
   4.6306099   8.6847563   8.6844217   4.4804077   8.8413408   8.6751544
   4.6806180   8.5059758   8.8171400   4.6004781   8.5295623   8.8695348
 TTTTTTTTTTTTTTTTTTTTTTTTTTTTTT MOQGAD      TELAPSE       28.29 TCPU       27.71
 TTTTTTTTTTTTTTTTTTTTTTTTTTTTTT SHELLX2     TELAPSE       48.28 TCPU       47.64
 TTTTTTTTTTTTTTTTTTTTTTTTTTTTTT MONMO3      TELAPSE       49.28 TCPU       48.64
 NUMERICALLY INTEGRATED DENSITY     88.0000023194
 TTTTTTTTTTTTTTTTTTTTTTTTTTTTTT NUMDFT      TELAPSE       52.68 TCPU       52.03
 CYC   1 ETOT(AU) -7.537343122129E+02 DETOT  2.60E+00 tst  0.00E+00 PX  1.00E+00
 TTTTTTTTTTTTTTTTTTTTTTTTTTTTTT FDIK        TELAPSE       55.03 TCPU       54.37
 INSULATING STATE
 TOP OF VALENCE BANDS -    BAND     44; K    1; EIG -2.7786079E-01 AU
 BOTTOM OF VIRTUAL BANDS - BAND     45; K  145; EIG -2.8307981E-02 AU
 BOTTOM OF VIRTUAL BANDS - BAND     45; K    1; EIG -2.4733655E-02 AU
 TTTTTTTTTTTTTTTTTTTTTTTTTTTTTT PDIG        TELAPSE       55.29 TCPU       54.63
 CHARGE NORMALIZATION FACTOR   1.00000000
 TOTAL ATOMIC CHARGES:
   5.0845824   8.4569465   8.4575874   5.0391380   8.5455806   8.4153194
   5.1008807   8.2986499   8.6027506   5.0825082   8.2926066   8.6234497
 TTTTTTTTTTTTTTTTTTTTTTTTTTTTTT MOQGAD      TELAPSE       55.30 TCPU       54.64
 TTTTTTTTTTTTTTTTTTTTTTTTTTTTTT SHELLX2     TELAPSE       75.29 TCPU       74.57
 TTTTTTTTTTTTTTTTTTTTTTTTTTTTTT MONMO3      TELAPSE       76.31 TCPU       75.60
 NUMERICALLY INTEGRATED DENSITY     88.0000039577
 TTTTTTTTTTTTTTTTTTTTTTTTTTTTTT NUMDFT      TELAPSE       79.71 TCPU       78.99
 CYC   2 ETOT(AU) -7.540966612016E+02 DETOT -3.62E-01 tst  1.87E-02 PX  1.42E-01
 TTTTTTTTTTTTTTTTTTTTTTTTTTTTTT FDIK        TELAPSE       81.96 TCPU       81.20
 INSULATING STATE
 TOP OF VALENCE BANDS -    BAND     44; K    1; EIG -3.2810309E-01 AU
 BOTTOM OF VIRTUAL BANDS - BAND     45; K    1; EIG -1.1328572E-02 AU
 TTTTTTTTTTTTTTTTTTTTTTTTTTTTTT PDIG        TELAPSE       82.22 TCPU       81.46
 CHARGE NORMALIZATION FACTOR   1.00000000
 TOTAL ATOMIC CHARGES:
   5.0809588   8.4570379   8.4604716   5.0420355   8.5390521   8.4211364
   5.0945116   8.3115686   8.5948590   5.0814119   8.3056199   8.6113368
 TTTTTTTTTTTTTTTTTTTTTTTTTTTTTT MOQGAD      TELAPSE       82.22 TCPU       81.46
 TTTTTTTTTTTTTTTTTTTTTTTTTTTTTT SHELLX2     TELAPSE      102.22 TCPU      101.41
 TTTTTTTTTTTTTTTTTTTTTTTTTTTTTT MONMO3      TELAPSE      103.24 TCPU      102.42
 NUMERICALLY INTEGRATED DENSITY     88.0000042117
 TTTTTTTTTTTTTTTTTTTTTTTTTTTTTT NUMDFT      TELAPSE      106.63 TCPU      105.80
 CYC   3 ETOT(AU) -7.541097649191E+02 DETOT -1.31E-02 tst  1.31E-04 PX  3.18E-02
 TTTTTTTTTTTTTTTTTTTTTTTTTTTTTT FDIK        TELAPSE      108.81 TCPU      107.97
 INSULATING STATE
 TOP OF VALENCE BANDS -    BAND     44; K    1; EIG -3.3901147E-01 AU
 BOTTOM OF VIRTUAL BANDS - BAND     45; K    1; EIG -8.9032277E-03 AU
 TTTTTTTTTTTTTTTTTTTTTTTTTTTTTT PDIG        TELAPSE      109.07 TCPU      108.23
 CHARGE NORMALIZATION FACTOR   1.00000000
 TOTAL ATOMIC CHARGES:
   5.0335835   8.4804127   8.4841238   4.9894264   8.5656105   8.4481007
   5.0475606   8.3389262   8.6138604   5.0324082   8.3339785   8.6320085
 TTTTTTTTTTTTTTTTTTTTTTTTTTTTTT MOQGAD      TELAPSE      109.07 TCPU      108.23
 TTTTTTTTTTTTTTTTTTTTTTTTTTTTTT SHELLX2     TELAPSE      129.05 TCPU      128.16
 TTTTTTTTTTTTTTTTTTTTTTTTTTTTTT MONMO3      TELAPSE      130.08 TCPU      129.19
 NUMERICALLY INTEGRATED DENSITY     88.0000041357
 TTTTTTTTTTTTTTTTTTTTTTTTTTTTTT NUMDFT      TELAPSE      133.47 TCPU      132.57
 CYC   4 ETOT(AU) -7.541142703052E+02 DETOT -4.51E-03 tst  5.20E-05 PX  2.58E-02
 TTTTTTTTTTTTTTTTTTTTTTTTTTTTTT FDIK        TELAPSE      135.57 TCPU      134.66
 INSULATING STATE
 TOP OF VALENCE BANDS -    BAND     44; K    1; EIG -3.3394437E-01 AU
 BOTTOM OF VIRTUAL BANDS - BAND     45; K    1; EIG -7.0239630E-03 AU
 TTTTTTTTTTTTTTTTTTTTTTTTTTTTTT PDIG        TELAPSE      135.83 TCPU      134.91
 CHARGE NORMALIZATION FACTOR   1.00000000
 TOTAL ATOMIC CHARGES:
   5.0342955   8.4800849   8.4836203   4.9950141   8.5614139   8.4470523
   5.0471284   8.3412212   8.6117864   5.0347246   8.3349252   8.6287334
 TTTTTTTTTTTTTTTTTTTTTTTTTTTTTT MOQGAD      TELAPSE      135.83 TCPU      134.92
 TTTTTTTTTTTTTTTTTTTTTTTTTTTTTT SHELLX2     TELAPSE      155.81 TCPU      154.84
 TTTTTTTTTTTTTTTTTTTTTTTTTTTTTT MONMO3      TELAPSE      156.82 TCPU      155.85
 NUMERICALLY INTEGRATED DENSITY     88.0000041539
 TTTTTTTTTTTTTTTTTTTTTTTTTTTTTT NUMDFT      TELAPSE      160.21 TCPU      159.24
 CYC   5 ETOT(AU) -7.541145331468E+02 DETOT -2.63E-04 tst  8.84E-06 PX  3.71E-03
 TTTTTTTTTTTTTTTTTTTTTTTTTTTTTT FDIK        TELAPSE      165.16 TCPU      161.26
 INSULATING STATE
 TOP OF VALENCE BANDS -    BAND     44; K    1; EIG -3.3371255E-01 AU
 BOTTOM OF VIRTUAL BANDS - BAND     45; K    1; EIG -6.9713884E-03 AU
 TTTTTTTTTTTTTTTTTTTTTTTTTTTTTT PDIG        TELAPSE      165.41 TCPU      161.51
 CHARGE NORMALIZATION FACTOR   1.00000000
 TOTAL ATOMIC CHARGES:
   5.0386195   8.4779204   8.4814003   5.0006118   8.5581704   8.4448455
   5.0512818   8.3399194   8.6088455   5.0397176   8.3333368   8.6253311
 TTTTTTTTTTTTTTTTTTTTTTTTTTTTTT MOQGAD      TELAPSE      165.42 TCPU      161.52
 TTTTTTTTTTTTTTTTTTTTTTTTTTTTTT SHELLX2     TELAPSE      185.41 TCPU      181.46
 TTTTTTTTTTTTTTTTTTTTTTTTTTTTTT MONMO3      TELAPSE      186.44 TCPU      182.48
 NUMERICALLY INTEGRATED DENSITY     88.0000041756
 TTTTTTTTTTTTTTTTTTTTTTTTTTTTTT NUMDFT      TELAPSE      189.83 TCPU      185.86
 CYC   6 ETOT(AU) -7.541145944274E+02 DETOT -6.13E-05 tst  5.59E-06 PX  1.56E-03
 TTTTTTTTTTTTTTTTTTTTTTTTTTTTTT FDIK        TELAPSE      191.86 TCPU      187.89
 INSULATING STATE
 TOP OF VALENCE BANDS -    BAND     44; K    1; EIG -3.3460630E-01 AU
 BOTTOM OF VIRTUAL BANDS - BAND     45; K    1; EIG -7.1847074E-03 AU
 TTTTTTTTTTTTTTTTTTTTTTTTTTTTTT PDIG        TELAPSE      192.15 TCPU      188.18
 CHARGE NORMALIZATION FACTOR   1.00000000
 TOTAL ATOMIC CHARGES:
   5.0383061   8.4780788   8.4815195   4.9998299   8.5586239   8.4452468
   5.0511501   8.3402011   8.6086462   5.0393860   8.3337509   8.6252609
 TTTTTTTTTTTTTTTTTTTTTTTTTTTTTT MOQGAD      TELAPSE      192.16 TCPU      188.19
 TTTTTTTTTTTTTTTTTTTTTTTTTTTTTT SHELLX2     TELAPSE      212.15 TCPU      208.12
 TTTTTTTTTTTTTTTTTTTTTTTTTTTTTT MONMO3      TELAPSE      213.17 TCPU      209.13
 NUMERICALLY INTEGRATED DENSITY     88.0000041768
 TTTTTTTTTTTTTTTTTTTTTTTTTTTTTT NUMDFT      TELAPSE      216.55 TCPU      212.51
 CYC   7 ETOT(AU) -7.541146139745E+02 DETOT -1.95E-05 tst  4.88E-07 PX  1.52E-03
 TTTTTTTTTTTTTTTTTTTTTTTTTTTTTT FDIK        TELAPSE      218.60 TCPU      214.56
 INSULATING STATE
 TOP OF VALENCE BANDS -    BAND     44; K    1; EIG -3.3475882E-01 AU
 BOTTOM OF VIRTUAL BANDS - BAND     45; K    1; EIG -7.2378904E-03 AU
 TTTTTTTTTTTTTTTTTTTTTTTTTTTTTT PDIG        TELAPSE      218.86 TCPU      214.81
 CHARGE NORMALIZATION FACTOR   1.00000000
 TOTAL ATOMIC CHARGES:
   5.0378302   8.4783274   8.4817287   4.9994226   8.5587786   8.4455360
   5.0507021   8.3405805   8.6086876   5.0389608   8.3341378   8.6253077
 TTTTTTTTTTTTTTTTTTTTTTTTTTTTTT MOQGAD      TELAPSE      218.87 TCPU      214.82
 TTTTTTTTTTTTTTTTTTTTTTTTTTTTTT SHELLX2     TELAPSE      238.86 TCPU      234.76
 TTTTTTTTTTTTTTTTTTTTTTTTTTTTTT MONMO3      TELAPSE      239.86 TCPU      235.75
 NUMERICALLY INTEGRATED DENSITY     88.0000041750
 TTTTTTTTTTTTTTTTTTTTTTTTTTTTTT NUMDFT      TELAPSE      243.25 TCPU      239.14
 CYC   8 ETOT(AU) -7.541146191469E+02 DETOT -5.17E-06 tst  1.72E-07 PX  9.49E-04
 TTTTTTTTTTTTTTTTTTTTTTTTTTTTTT FDIK        TELAPSE      245.17 TCPU      241.05
 INSULATING STATE
 TOP OF VALENCE BANDS -    BAND     44; K    1; EIG -3.3475214E-01 AU
 BOTTOM OF VIRTUAL BANDS - BAND     45; K    1; EIG -7.2533088E-03 AU
 TTTTTTTTTTTTTTTTTTTTTTTTTTTTTT PDIG        TELAPSE      245.42 TCPU      241.30
 CHARGE NORMALIZATION FACTOR   1.00000000
 TOTAL ATOMIC CHARGES:
   5.0378295   8.4783346   8.4817128   4.9995742   8.5586481   8.4455341
   5.0506952   8.3406830   8.6085773   5.0390282   8.3342261   8.6251571
 TTTTTTTTTTTTTTTTTTTTTTTTTTTTTT MOQGAD      TELAPSE      245.43 TCPU      241.31
 TTTTTTTTTTTTTTTTTTTTTTTTTTTTTT SHELLX2     TELAPSE      265.42 TCPU      261.24
 TTTTTTTTTTTTTTTTTTTTTTTTTTTTTT MONMO3      TELAPSE      266.44 TCPU      262.26
 NUMERICALLY INTEGRATED DENSITY     88.0000041746
 TTTTTTTTTTTTTTTTTTTTTTTTTTTTTT NUMDFT      TELAPSE      269.84 TCPU      265.65
 CYC   9 ETOT(AU) -7.541146203039E+02 DETOT -1.16E-06 tst  8.29E-08 PX  5.01E-04
 TTTTTTTTTTTTTTTTTTTTTTTTTTTTTT FDIK        TELAPSE      271.76 TCPU      267.57
 INSULATING STATE
 TOP OF VALENCE BANDS -    BAND     44; K    1; EIG -3.3478712E-01 AU
 BOTTOM OF VIRTUAL BANDS - BAND     45; K    1; EIG -7.2704006E-03 AU
 TTTTTTTTTTTTTTTTTTTTTTTTTTTTTT PDIG        TELAPSE      272.02 TCPU      267.82
 CHARGE NORMALIZATION FACTOR   1.00000000
 TOTAL ATOMIC CHARGES:
   5.0378400   8.4783330   8.4816985   4.9996017   8.5586212   8.4455438
   5.0507038   8.3407284   8.6085147   5.0390593   8.3342697   8.6250859
 TTTTTTTTTTTTTTTTTTTTTTTTTTTTTT MOQGAD      TELAPSE      272.02 TCPU      267.83
 TTTTTTTTTTTTTTTTTTTTTTTTTTTTTT SHELLX2     TELAPSE      292.01 TCPU      287.77
 TTTTTTTTTTTTTTTTTTTTTTTTTTTTTT MONMO3      TELAPSE      293.03 TCPU      288.77
 NUMERICALLY INTEGRATED DENSITY     88.0000041743
 TTTTTTTTTTTTTTTTTTTTTTTTTTTTTT NUMDFT      TELAPSE      296.41 TCPU      292.15
 CYC  10 ETOT(AU) -7.541146207061E+02 DETOT -4.02E-07 tst  3.31E-08 PX  3.36E-04
 TTTTTTTTTTTTTTTTTTTTTTTTTTTTTT FDIK        TELAPSE      298.36 TCPU      294.09
 INSULATING STATE
 TOP OF VALENCE BANDS -    BAND     44; K    1; EIG -3.3481334E-01 AU
 BOTTOM OF VIRTUAL BANDS - BAND     45; K    1; EIG -7.2819172E-03 AU
 TTTTTTTTTTTTTTTTTTTTTTTTTTTTTT PDIG        TELAPSE      298.62 TCPU      294.35
 CHARGE NORMALIZATION FACTOR   1.00000000
 TOTAL ATOMIC CHARGES:
   5.0378170   8.4783469   8.4817044   4.9995707   8.5586271   8.4455744
   5.0506867   8.3407648   8.6084905   5.0390395   8.3343150   8.6250630
 TTTTTTTTTTTTTTTTTTTTTTTTTTTTTT MOQGAD      TELAPSE      298.62 TCPU      294.35
 TTTTTTTTTTTTTTTTTTTTTTTTTTTTTT SHELLX2     TELAPSE      318.60 TCPU      314.28
 +++ ENERGIES IN A.U. +++
 ::: EXT EL-POLE                                  -8.0139988844590E+02
 ::: EXT EL-SPHEROPOLE                             9.8304139468967E+00
 ::: BIELET ZONE E-E                               1.0116356428523E+03
 ::: TOTAL E-E                                     2.2006616835333E+02
 ::: TOTAL E-N + N-E                              -1.5091417250023E+03
 ::: TOTAL N-N                                    -1.4395308020709E+02
 ::: KINETIC ENERGY                                7.5162418316727E+02
 ::: PSEUDO TOTAL   ENERGY                        -6.8140445368878E+02
 ::: VIRIAL COEFFICIENT                            1.0490009255032E+00
 TTTTTTTTTTTTTTTTTTTTTTTTTTTTTT MONMO3      TELAPSE      319.63 TCPU      315.31
 NUMERICALLY INTEGRATED DENSITY     88.0000041740
 TTTTTTTTTTTTTTTTTTTTTTTTTTTTTT NUMDFT      TELAPSE      323.01 TCPU      318.68
 CYC  11 ETOT(AU) -7.541146208702E+02 DETOT -1.64E-07 tst  1.32E-08 PX  3.36E-04

 == SCF ENDED - CONVERGENCE ON ENERGY      E(AU) -7.5411462087025E+02 CYCLES  11


 ENERGY EXPRESSION=HARTREE+FOCK EXCH*0.20000+(BECKE      EXCH)*0.80000+LYP        CORR


 TOTAL ENERGY(DFT)(AU)( 11) -7.5411462087025E+02 DE-1.6E-07 tester 1.3E-08
 TTTTTTTTTTTTTTTTTTTTTTTTTTTTTT EDFT        TELAPSE      323.01 TCPU      318.68
 EIGENVECTORS IN FORTRAN UNIT 10
 TTTTTTTTTTTTTTTTTTTTTTTTTTTTTT END         TELAPSE      323.27 TCPU      318.93
 EEEEEEEEEE TERMINATION  DATE 18 05 2022 TIME 11:53:03.9
NODE    0 CPU TIME =       318.931
NODE    1 CPU TIME =       318.922
NODE    2 CPU TIME =       318.928
NODE    3 CPU TIME =       318.877
NODE    4 CPU TIME =       318.906
NODE    5 CPU TIME =       318.837
NODE    6 CPU TIME =       318.915
NODE    7 CPU TIME =       318.956
NODE    8 CPU TIME =       318.752
NODE    9 CPU TIME =       318.847
    TOTAL CPU TIME =      3188.872
