          10 PROCESSORS WORKING

         
 *******************************************************************************
 *                                                                             *
 *                               CRYSTAL14                                     *
 *                      public : 1.0.4 - Feb 23rd, 2016                        *
 *                       HTTP://WWW.CRYSTAL.UNITO.IT                           *
 *                                                                             *
 *                              MAIN AUTHORS                                   *
 *                                                                             *
 *  R. DOVESI(1,11), V.R. SAUNDERS(2), C. ROETTI(1,11), R. ORLANDO(1,11),      *
 *  C.M. ZICOVICH-WILSON(1,3), F. PASCALE(4), B. CIVALLERI(1,11),              *
 *  K. DOLL(5), N.M. HARRISON(2,6), I. J. BUSH(7), Ph. D'ARCO(8),              *
 *  M. LLUNELL(9), M. CAUSA'(10), Y. NOEL(8)                                   *
 *                                                                             *
 *        CONTRIBUTIONS TO THE CURRENT RELEASE HAVE BEEN GIVEN BY              *
 *                                                                             *
 *  L. MASCHIO(1,11), S. CASASSA(1,11), A. ERBA(1,11), M. FERRABONE(1,11),     *
 *  M. DE LA PIERRE(1,11), M. FERRERO(1,11), V. LACIVITA(1,11),                *
 *  J. BAIMA(1,11), E. ALBANESE(1,11), M.F. PEINTINGER(12), R. BAST(13),       *
 *  M. RERAT(14), B. KIRTMAN(15), R. DEMICHELIS(1,16)                          *
 *                                                                             *
 * (1) THEORETICAL CHEMISTRY GROUP - UNIVERSITA' DI TORINO - TORINO (ITALY)    *
 *     http://www.crystal.unito.it                                             *
 * (2) COMPUTATIONAL SCIENCE & ENGINEERING DEPARTMENT - STFC DARESBURY (UK)    *
 *     http://www.stfc.ac.uk/CSE/randd/cmg/CRYSTAL/25806.aspx                  *
 * (3) UNIVERSIDAD AUTONOMA DEL ESTADO DE MORELOS - CUERNAVACA (MEXICO)        *
 * (4) UNIVERSITE' DE LORRAINE - NANCY (FRANCE)                                *
 * (5) UNIVERSITAET ULM - ULM (GERMANY); (6) IMPERIAL COLLEGE - LONDON (UK)    *
 * (7) NAG - OXFORD (UK); (8) UPMC - SORBONNE UNIVERSITES - PARIS (FRANCE)     *
 * (9) UNIVERSIDAD DE BARCELONA - BARCELONA (SPAIN)                            *
 *(10) UNIVERSITA' DI NAPOLI "FEDERICO II" - NAPOLI (ITALY)                    *
 *(11) NIS - NANOSTRUCTURED INTERFACES AND SURFACES - TORINO (ITALY)           *
 *(12) MPI FUER CHEMISCHE ENERGIEKONVERSION - MUELHEIM AN DER RUHR (GERMANY)   *
 *(13) UNIVERSITY OF STOCKHOLM - STOCKHOLM (SWEDEN)                            *
 *(14) UNIVERSITE' DE PAU ET DES PAYS DE L'ADOUR - PAU (FRANCE)                *
 *(15) UNIVERSITY OF CALIFORNIA SANTA BARBARA - SANTA BARBARA (USA)            *
 *(16) CURTIN UNIVERSITY - PERTH (AUSTRALIA)                                   *
 *                                                                             *
 ********************************************************************************
 EEEEEEEEEE STARTING  DATE 18 05 2022 TIME 15:20:06.6
 DRY-ICE                                                                         

 CRYSTAL CALCULATION
 (INPUT ACCORDING TO THE INTERNATIONAL TABLES FOR X-RAY CRYSTALLOGRAPHY)
 CRYSTAL FAMILY                       :  TRICLINIC   
 CRYSTAL CLASS  (GROTH - 1921)        :  TRICLINIC PEDIAL                     

 SPACE GROUP (NONCENTROSYMMETRIC)     :  P 1             

 LATTICE PARAMETERS  (ANGSTROMS AND DEGREES) - CONVENTIONAL CELL
        A           B           C        ALPHA        BETA       GAMMA
     5.63000     5.63000     5.63000    90.00000    90.00000    90.00000


 NUMBER OF IRREDUCIBLE ATOMS IN THE CONVENTIONAL CELL:   12

 INPUT COORDINATES

 ATOM AT. N.              COORDINATES
   1   6     1.000000000000E-02 -1.000000000000E-02  0.000000000000E+00
   2   8     1.200000000000E-01  1.200000000000E-01  1.200000000000E-01
   3   8    -1.200000000000E-01 -1.200000000000E-01 -1.200000000000E-01
   4   6     4.900000000000E-01  1.000000000000E-02  5.000000000000E-01
   5   8     4.200000000000E-01 -1.200000000000E-01 -3.600000000000E-01
   6   8    -4.000000000000E-01  1.000000000000E-01  3.600000000000E-01
   7   6     4.900000000000E-01  4.900000000000E-01  0.000000000000E+00
   8   8    -3.600000000000E-01  4.000000000000E-01 -1.200000000000E-01
   9   8     4.100000000000E-01 -3.600000000000E-01  1.500000000000E-01
  10   6    -1.000000000000E-02  4.900000000000E-01  5.000000000000E-01
  11   8    -1.100000000000E-01 -3.500000000000E-01  3.700000000000E-01
  12   8     1.600000000000E-01  3.800000000000E-01 -4.000000000000E-01

 *******************************************************************************

 << INFORMATION >>: FROM NOW ON, ALL COORDINATES REFER TO THE PRIMITIVE CELL

 *******************************************************************************

 LATTICE PARAMETERS  (ANGSTROMS AND DEGREES) - PRIMITIVE CELL
       A          B          C        ALPHA      BETA     GAMMA        VOLUME
    5.63000    5.63000    5.63000    90.00000  90.00000  90.00000    178.453547

 COORDINATES OF THE EQUIVALENT ATOMS (FRACTIONAL UNITS)

 N. ATOM EQUIV AT. N.          X                  Y                  Z

   1   1   1    6 C     1.00000000000E-02 -1.00000000000E-02  0.00000000000E+00

   2   2   1    8 O     1.20000000000E-01  1.20000000000E-01  1.20000000000E-01

   3   3   1    8 O    -1.20000000000E-01 -1.20000000000E-01 -1.20000000000E-01

   4   4   1    6 C     4.90000000000E-01  1.00000000000E-02 -5.00000000000E-01

   5   5   1    8 O     4.20000000000E-01 -1.20000000000E-01 -3.60000000000E-01

   6   6   1    8 O    -4.00000000000E-01  1.00000000000E-01  3.60000000000E-01

   7   7   1    6 C     4.90000000000E-01  4.90000000000E-01  0.00000000000E+00

   8   8   1    8 O    -3.60000000000E-01  4.00000000000E-01 -1.20000000000E-01

   9   9   1    8 O     4.10000000000E-01 -3.60000000000E-01  1.50000000000E-01

  10  10   1    6 C    -1.00000000000E-02  4.90000000000E-01 -5.00000000000E-01

  11  11   1    8 O    -1.10000000000E-01 -3.50000000000E-01  3.70000000000E-01

  12  12   1    8 O     1.60000000000E-01  3.80000000000E-01 -4.00000000000E-01

 NUMBER OF SYMMETRY OPERATORS         :    1
 *******************************************************************************
 * GEOMETRY EDITING - INPUT COORDINATES ARE GIVEN IN ANGSTROM         
 *******************************************************************************

 GCALCO - MAX INDICES DIRECT LATTICE VECTOR    14    14    14
 NO.OF VECTORS CREATED 6999 STARS  120 RMAX   126.33300 BOHR

 GEOMETRY FOR WAVE FUNCTION - DIMENSIONALITY OF THE SYSTEM    3
 (NON PERIODIC DIRECTION: LATTICE PARAMETER FORMALLY SET TO 500)
 *******************************************************************************
 LATTICE PARAMETERS (ANGSTROMS AND DEGREES) - BOHR = 0.5291772083 ANGSTROM
 PRIMITIVE CELL - CENTRING CODE 1/0 VOLUME=   178.453547 - DENSITY  1.637 g/cm^3
         A              B              C           ALPHA      BETA       GAMMA 
     5.63000000     5.63000000     5.63000000    90.000000  90.000000  90.000000
 *******************************************************************************
 ATOMS IN THE ASYMMETRIC UNIT   12 - ATOMS IN THE UNIT CELL:   12
     ATOM              X/A                 Y/B                 Z/C    
 *******************************************************************************
   1 T   6 C     1.000000000000E-02 -1.000000000000E-02  0.000000000000E+00
   2 T   8 O     1.200000000000E-01  1.200000000000E-01  1.200000000000E-01
   3 T   8 O    -1.200000000000E-01 -1.200000000000E-01 -1.200000000000E-01
   4 T   6 C     4.900000000000E-01  1.000000000000E-02 -5.000000000000E-01
   5 T   8 O     4.200000000000E-01 -1.200000000000E-01 -3.600000000000E-01
   6 T   8 O    -4.000000000000E-01  1.000000000000E-01  3.600000000000E-01
   7 T   6 C     4.900000000000E-01  4.900000000000E-01  0.000000000000E+00
   8 T   8 O    -3.600000000000E-01  4.000000000000E-01 -1.200000000000E-01
   9 T   8 O     4.100000000000E-01 -3.600000000000E-01  1.500000000000E-01
  10 T   6 C    -1.000000000000E-02  4.900000000000E-01 -5.000000000000E-01
  11 T   8 O    -1.100000000000E-01 -3.500000000000E-01  3.700000000000E-01
  12 T   8 O     1.600000000000E-01  3.800000000000E-01 -4.000000000000E-01

 T = ATOM BELONGING TO THE ASYMMETRIC UNIT

 ****    1 SYMMOPS - TRANSLATORS IN FRACTIONAL UNITS
 **** MATRICES AND TRANSLATORS IN THE CRYSTALLOGRAPHIC REFERENCE FRAME
   V INV                    ROTATION MATRICES                   TRANSLATORS
   1   1  1.00  0.00  0.00  0.00  1.00  0.00  0.00  0.00  1.00  0.00  0.00  0.00

 DIRECT LATTICE VECTORS CARTESIAN COMPONENTS (ANGSTROM)
          X                    Y                    Z
   0.563000000000E+01   0.344738073960E-15   0.000000000000E+00
   0.000000000000E+00   0.563000000000E+01   0.000000000000E+00
   0.344738073960E-15   0.344738073960E-15   0.563000000000E+01


 CARTESIAN COORDINATES - PRIMITIVE CELL
 *******************************************************************************
 *      ATOM          X(ANGSTROM)         Y(ANGSTROM)         Z(ANGSTROM)
 *******************************************************************************
    1     6 C     5.630000000000E-02 -5.630000000000E-02  0.000000000000E+00
    2     8 O     6.756000000000E-01  6.756000000000E-01  6.756000000000E-01
    3     8 O    -6.756000000000E-01 -6.756000000000E-01 -6.756000000000E-01
    4     6 C     2.758700000000E+00  5.630000000000E-02  2.815000000000E+00
    5     8 O     2.364600000000E+00 -6.756000000000E-01 -2.026800000000E+00
    6     8 O    -2.252000000000E+00  5.630000000000E-01  2.026800000000E+00
    7     6 C     2.758700000000E+00  2.758700000000E+00  0.000000000000E+00
    8     8 O    -2.026800000000E+00  2.252000000000E+00 -6.756000000000E-01
    9     8 O     2.308300000000E+00 -2.026800000000E+00  8.445000000000E-01
   10     6 C    -5.630000000000E-02  2.758700000000E+00  2.815000000000E+00
   11     8 O    -6.193000000000E-01 -1.970500000000E+00  2.083100000000E+00
   12     8 O     9.008000000000E-01  2.139400000000E+00 -2.252000000000E+00

 *******************************************************************************
 STARTING BASIS SET HANDLING 
 *******************************************************************************

 Loading internal basis set: POB-TZVP            

 Please cite in your publication:
 Peintinger, M. F., Oliveira, D. V. and Bredow, T. (2013), Consistent Gaussian b
 asis sets of triple-zeta valence with polarization quality for solid-state calc
 ulations. J. Comput. Chem., 34: 451–459. doi: 10.1002/jcc.23153              
                    

 *******************************************************************************
 LOCAL ATOMIC FUNCTIONS BASIS SET
 *******************************************************************************
   ATOM   X(AU)   Y(AU)   Z(AU)  N. TYPE  EXPONENT  S COEF   P COEF   D/F/G COEF
 *******************************************************************************
   1 C    0.106  -0.106   0.000
                                  1 S  
                                         1.358E+04 2.225E-04 0.000E+00 0.000E+00
                                         2.035E+03 1.723E-03 0.000E+00 0.000E+00
                                         4.632E+02 8.926E-03 0.000E+00 0.000E+00
                                         1.312E+02 3.573E-02 0.000E+00 0.000E+00
                                         4.285E+01 1.108E-01 0.000E+00 0.000E+00
                                         1.558E+01 2.430E-01 0.000E+00 0.000E+00
                                  2 S  
                                         6.207E+00 4.144E-01 0.000E+00 0.000E+00
                                         2.576E+00 2.374E-01 0.000E+00 0.000E+00
                                  3 S  
                                         4.941E-01 1.000E+00 0.000E+00 0.000E+00
                                  4 S  
                                         1.644E-01 1.000E+00 0.000E+00 0.000E+00
                             5-   7 P  
                                         3.470E+01 0.000E+00 5.333E-03 0.000E+00
                                         7.958E+00 0.000E+00 3.586E-02 0.000E+00
                                         2.378E+00 0.000E+00 1.422E-01 0.000E+00
                                         8.143E-01 0.000E+00 3.427E-01 0.000E+00
                             8-  10 P  
                                         5.662E-01 0.000E+00 1.000E+00 0.000E+00
                            11-  13 P  
                                         2.674E-01 0.000E+00 1.000E+00 0.000E+00
                            14-  18 D  
                                         8.792E-01 0.000E+00 0.000E+00 1.000E+00
   2 O    1.277   1.277   1.277
                                 19 S  
                                         2.703E+04 2.173E-04 0.000E+00 0.000E+00
                                         4.052E+03 1.684E-03 0.000E+00 0.000E+00
                                         9.223E+02 8.740E-03 0.000E+00 0.000E+00
                                         2.612E+02 3.524E-02 0.000E+00 0.000E+00
                                         8.535E+01 1.115E-01 0.000E+00 0.000E+00
                                         3.104E+01 2.559E-01 0.000E+00 0.000E+00
                                 20 S  
                                         1.226E+01 3.977E-01 0.000E+00 0.000E+00
                                         4.999E+00 2.463E-01 0.000E+00 0.000E+00
                                 21 S  
                                         8.479E-01 1.000E+00 0.000E+00 0.000E+00
                                 22 S  
                                         1.851E-01 1.000E+00 0.000E+00 0.000E+00
                            23-  25 P  
                                         6.327E+01 0.000E+00 6.069E-03 0.000E+00
                                         1.463E+01 0.000E+00 4.191E-02 0.000E+00
                                         4.450E+00 0.000E+00 1.615E-01 0.000E+00
                                         1.528E+00 0.000E+00 3.571E-01 0.000E+00
                            26-  28 P  
                                         5.490E-01 0.000E+00 1.000E+00 0.000E+00
                            29-  31 P  
                                         1.824E-01 0.000E+00 1.000E+00 0.000E+00
                            32-  36 D  
                                         5.000E-01 0.000E+00 0.000E+00 1.000E+00
   3 O   -1.277  -1.277  -1.277
   4 C    5.213   0.106   5.320
   5 O    4.468  -1.277  -3.830
   6 O   -4.256   1.064   3.830
   7 C    5.213   5.213   0.000
   8 O   -3.830   4.256  -1.277
   9 O    4.362  -3.830   1.596
  10 C   -0.106   5.213   5.320
  11 O   -1.170  -3.724   3.936
  12 O    1.702   4.043  -4.256

 *******************************************************************************
 FINISHED BASIS SET HANDLING 
 *******************************************************************************

 INFORMATION **** SET_MPP **** PCRYSTAL CALCULATION
 INFORMATION **** READM2 **** NEW DEFAULT: FOCK/KS MATRIX MIXING SET TO 30 %
 INFORMATION **** READM2 **** NEW DEFAULT: FULL DIRECT SCF MODE
 INFORMATION **** READM2 **** NEW DEFAULT: COULOMB BIPOLAR BUFFER SET TO 32 Mb
 INFORMATION **** READM2 **** NEW DEFAULT: EXCHANGE BIPOLAR BUFFER SET TO 32 Mb

 *******************************************************************************
 NEW DEFAULT: DFT INTEGRATION GRID INCREASED TO XLGRID
 NEW DEFAULT: LEVEL SHIFTER 6 0
 IF THE SYSTEM IS A METAL USE KEYWORD NOSHIFT
 *******************************************************************************

 *******************************************************************************
 N. OF ATOMS PER CELL        12  COULOMB OVERLAP TOL         (T1) 10**   -6
 NUMBER OF SHELLS            96  COULOMB PENETRATION TOL     (T2) 10**   -6
 NUMBER OF AO               216  EXCHANGE OVERLAP TOL        (T3) 10**   -6
 N. OF ELECTRONS PER CELL    88  EXCHANGE PSEUDO OVP (F(G))  (T4) 10**   -6
 CORE ELECTRONS PER CELL     24  EXCHANGE PSEUDO OVP (P(G))  (T5) 10**  -12
 N. OF SYMMETRY OPERATORS     1  POLE ORDER IN MONO ZONE                  4
 *******************************************************************************
 TYPE OF CALCULATION :  RESTRICTED CLOSED SHELL
 KOHN-SHAM HAMILTONIAN

 (EXCHANGE)[CORRELATION] FUNCTIONAL:(BECKE 88)[LEE-YANG-PARR]

 NON-LOCAL WEIGHTING FACTOR (EXCHANGE) =           0.9000
 NON-LOCAL WEIGHTING FACTOR [CORRELATION] =        0.8100

 HYBRID EXCHANGE - PERCENTAGE OF FOCK EXCHANGE    20.0000
 EIGENVALUE LEVEL SHIFTING OF  0.600 HARTREE

 CAPPA:IS1  8;IS2  8;IS3  8; K PTS MONK NET 260; SYMMOPS:K SPACE   2;G SPACE   1

 *******************************************************************************
 MAX NUMBER OF SCF CYCLES      50  CONVERGENCE ON DELTAP        10**-16
 WEIGHT OF F(I) IN F(I+1)      30% CONVERGENCE ON ENERGY        10**- 6
 EIGENVALUE LEVEL SHIFTING OF  0.600 HARTREE
 SHRINK. FACT.(MONKH.)    8  8  8  NUMBER OF K POINTS IN THE IBZ    260
 SHRINKING FACTOR(GILAT NET)    8  NUMBER OF K POINTS(GILAT NET)    260
 *******************************************************************************
 *** K POINTS COORDINATES (OBLIQUE COORDINATES IN UNITS OF IS =  8)
   1-R(  0  0  0)   2-C(  1  0  0)   3-C(  2  0  0)   4-C(  3  0  0)
   5-R(  4  0  0)   6-C(  0  1  0)   7-C(  1  1  0)   8-C(  2  1  0)
   9-C(  3  1  0)  10-C(  4  1  0)  11-C(  5  1  0)  12-C(  6  1  0)
  13-C(  7  1  0)  14-C(  0  2  0)  15-C(  1  2  0)  16-C(  2  2  0)
  17-C(  3  2  0)  18-C(  4  2  0)  19-C(  5  2  0)  20-C(  6  2  0)
  21-C(  7  2  0)  22-C(  0  3  0)  23-C(  1  3  0)  24-C(  2  3  0)
  25-C(  3  3  0)  26-C(  4  3  0)  27-C(  5  3  0)  28-C(  6  3  0)
  29-C(  7  3  0)  30-R(  0  4  0)  31-C(  1  4  0)  32-C(  2  4  0)
  33-C(  3  4  0)  34-R(  4  4  0)  35-C(  0  0  1)  36-C(  1  0  1)
  37-C(  2  0  1)  38-C(  3  0  1)  39-C(  4  0  1)  40-C(  5  0  1)
  41-C(  6  0  1)  42-C(  7  0  1)  43-C(  0  1  1)  44-C(  1  1  1)
  45-C(  2  1  1)  46-C(  3  1  1)  47-C(  4  1  1)  48-C(  5  1  1)
  49-C(  6  1  1)  50-C(  7  1  1)  51-C(  0  2  1)  52-C(  1  2  1)
  53-C(  2  2  1)  54-C(  3  2  1)  55-C(  4  2  1)  56-C(  5  2  1)
  57-C(  6  2  1)  58-C(  7  2  1)  59-C(  0  3  1)  60-C(  1  3  1)
  61-C(  2  3  1)  62-C(  3  3  1)  63-C(  4  3  1)  64-C(  5  3  1)
  65-C(  6  3  1)  66-C(  7  3  1)  67-C(  0  4  1)  68-C(  1  4  1)
  69-C(  2  4  1)  70-C(  3  4  1)  71-C(  4  4  1)  72-C(  5  4  1)
  73-C(  6  4  1)  74-C(  7  4  1)  75-C(  0  5  1)  76-C(  1  5  1)
  77-C(  2  5  1)  78-C(  3  5  1)  79-C(  4  5  1)  80-C(  5  5  1)
  81-C(  6  5  1)  82-C(  7  5  1)  83-C(  0  6  1)  84-C(  1  6  1)
  85-C(  2  6  1)  86-C(  3  6  1)  87-C(  4  6  1)  88-C(  5  6  1)
  89-C(  6  6  1)  90-C(  7  6  1)  91-C(  0  7  1)  92-C(  1  7  1)
  93-C(  2  7  1)  94-C(  3  7  1)  95-C(  4  7  1)  96-C(  5  7  1)
  97-C(  6  7  1)  98-C(  7  7  1)  99-C(  0  0  2) 100-C(  1  0  2)
 101-C(  2  0  2) 102-C(  3  0  2) 103-C(  4  0  2) 104-C(  5  0  2)
 105-C(  6  0  2) 106-C(  7  0  2) 107-C(  0  1  2) 108-C(  1  1  2)
 109-C(  2  1  2) 110-C(  3  1  2) 111-C(  4  1  2) 112-C(  5  1  2)
 113-C(  6  1  2) 114-C(  7  1  2) 115-C(  0  2  2) 116-C(  1  2  2)
 117-C(  2  2  2) 118-C(  3  2  2) 119-C(  4  2  2) 120-C(  5  2  2)
 121-C(  6  2  2) 122-C(  7  2  2) 123-C(  0  3  2) 124-C(  1  3  2)
 125-C(  2  3  2) 126-C(  3  3  2) 127-C(  4  3  2) 128-C(  5  3  2)
 129-C(  6  3  2) 130-C(  7  3  2) 131-C(  0  4  2) 132-C(  1  4  2)
 133-C(  2  4  2) 134-C(  3  4  2) 135-C(  4  4  2) 136-C(  5  4  2)
 137-C(  6  4  2) 138-C(  7  4  2) 139-C(  0  5  2) 140-C(  1  5  2)
 141-C(  2  5  2) 142-C(  3  5  2) 143-C(  4  5  2) 144-C(  5  5  2)
 145-C(  6  5  2) 146-C(  7  5  2) 147-C(  0  6  2) 148-C(  1  6  2)
 149-C(  2  6  2) 150-C(  3  6  2) 151-C(  4  6  2) 152-C(  5  6  2)
 153-C(  6  6  2) 154-C(  7  6  2) 155-C(  0  7  2) 156-C(  1  7  2)
 157-C(  2  7  2) 158-C(  3  7  2) 159-C(  4  7  2) 160-C(  5  7  2)
 161-C(  6  7  2) 162-C(  7  7  2) 163-C(  0  0  3) 164-C(  1  0  3)
 165-C(  2  0  3) 166-C(  3  0  3) 167-C(  4  0  3) 168-C(  5  0  3)
 169-C(  6  0  3) 170-C(  7  0  3) 171-C(  0  1  3) 172-C(  1  1  3)
 173-C(  2  1  3) 174-C(  3  1  3) 175-C(  4  1  3) 176-C(  5  1  3)
 177-C(  6  1  3) 178-C(  7  1  3) 179-C(  0  2  3) 180-C(  1  2  3)
 181-C(  2  2  3) 182-C(  3  2  3) 183-C(  4  2  3) 184-C(  5  2  3)
 185-C(  6  2  3) 186-C(  7  2  3) 187-C(  0  3  3) 188-C(  1  3  3)
 189-C(  2  3  3) 190-C(  3  3  3) 191-C(  4  3  3) 192-C(  5  3  3)
 193-C(  6  3  3) 194-C(  7  3  3) 195-C(  0  4  3) 196-C(  1  4  3)
 197-C(  2  4  3) 198-C(  3  4  3) 199-C(  4  4  3) 200-C(  5  4  3)
 201-C(  6  4  3) 202-C(  7  4  3) 203-C(  0  5  3) 204-C(  1  5  3)
 205-C(  2  5  3) 206-C(  3  5  3) 207-C(  4  5  3) 208-C(  5  5  3)
 209-C(  6  5  3) 210-C(  7  5  3) 211-C(  0  6  3) 212-C(  1  6  3)
 213-C(  2  6  3) 214-C(  3  6  3) 215-C(  4  6  3) 216-C(  5  6  3)
 217-C(  6  6  3) 218-C(  7  6  3) 219-C(  0  7  3) 220-C(  1  7  3)
 221-C(  2  7  3) 222-C(  3  7  3) 223-C(  4  7  3) 224-C(  5  7  3)
 225-C(  6  7  3) 226-C(  7  7  3) 227-R(  0  0  4) 228-C(  1  0  4)
 229-C(  2  0  4) 230-C(  3  0  4) 231-R(  4  0  4) 232-C(  0  1  4)
 233-C(  1  1  4) 234-C(  2  1  4) 235-C(  3  1  4) 236-C(  4  1  4)
 237-C(  5  1  4) 238-C(  6  1  4) 239-C(  7  1  4) 240-C(  0  2  4)
 241-C(  1  2  4) 242-C(  2  2  4) 243-C(  3  2  4) 244-C(  4  2  4)
 245-C(  5  2  4) 246-C(  6  2  4) 247-C(  7  2  4) 248-C(  0  3  4)
 249-C(  1  3  4) 250-C(  2  3  4) 251-C(  3  3  4) 252-C(  4  3  4)
 253-C(  5  3  4) 254-C(  6  3  4) 255-C(  7  3  4) 256-R(  0  4  4)
 257-C(  1  4  4) 258-C(  2  4  4) 259-C(  3  4  4) 260-R(  4  4  4)

 DIRECT LATTICE VECTORS COMPON. (A.U.)     RECIP. LATTICE VECTORS COMPON. (A.U.) 
        X            Y            Z              X            Y            Z
   10.6391581    0.0000000    0.0000000      0.5905717    0.0000000   -0.0000000
    0.0000000   10.6391581    0.0000000     -0.0000000    0.5905717   -0.0000000
    0.0000000    0.0000000   10.6391581      0.0000000    0.0000000    0.5905717

 DISK SPACE FOR EIGENVECTORS (FTN 10)    23887872 REALS

 SYMMETRY ADAPTION OF THE BLOCH FUNCTIONS DISABLED
 TTTTTTTTTTTTTTTTTTTTTTTTTTTTTT gordsh1     TELAPSE        0.55 TCPU        0.11

 MATRIX SIZE: P(G)  228334, F(G)   40667, P(G) IRR  115367, F(G) IRR   41039
 MAX G-VECTOR INDEX FOR 1- AND 2-ELECTRON INTEGRALS  81

 TTTTTTTTTTTTTTTTTTTTTTTTTTTTTT INPUT       TELAPSE        0.57 TCPU        0.13

 NEIGHBORS OF THE NON-EQUIVALENT ATOMS

 N = NUMBER OF NEIGHBORS AT DISTANCE R
    ATOM  N     R/ANG      R/AU   NEIGHBORS (ATOM LABELS AND CELL INDICES)
   1 C    2     1.1729     2.2164    2 O    0 0 0    3 O    0 0 0
   1 C    1     2.9086     5.4964   11 O    0 0 0
   1 C    1     3.1093     5.8757    9 O    0 0 0
   1 C    2     3.1336     5.9217    5 O    0 0 0    6 O    0 0 0
   1 C    1     3.1818     6.0128    8 O    0 0 0
   1 C    1     3.2567     6.1542   12 O    0 0 0

   2 O    1     1.1729     2.2164    1 C    0 0 0
   2 O    1     2.3403     4.4226    3 O    0 0 0
   2 O    1     3.0224     5.7116    7 C    0 0 0
   2 O    1     3.0235     5.7135    6 O    1 0 0
   2 O    1     3.0496     5.7629    4 C    0 0 0
   2 O    1     3.0744     5.8098   10 C    0 0 0

   3 O    1     1.1729     2.2164    1 C    0 0 0
   3 O    1     2.3403     4.4226    2 O    0 0 0
   3 O    1     2.9211     5.5201    5 O   -1 0 0
   3 O    1     3.0214     5.7096    8 O    0-1 0
   3 O    1     3.0480     5.7599   11 O    0 0 0
   3 O    1     3.1276     5.9102   10 C    0-1-1

   4 C    1     1.1232     2.1225    6 O    1 0 0
   4 C    1     1.1455     2.1647    5 O    0 0 1
   4 C    1     2.8475     5.3809   12 O    0 0 1
   4 C    1     2.9026     5.4851    9 O    0 0 0
   4 C    1     3.0496     5.7629    2 O    0 0 0
   4 C    1     3.1169     5.8901   11 O    1 0 0

   5 O    1     1.1455     2.1647    4 C    0 0-1
   5 O    1     2.2464     4.2450    6 O    1 0-1
   5 O    1     2.9211     5.5201    3 O    1 0 0
   5 O    1     3.0140     5.6957    7 C    0-1 0
   5 O    1     3.0724     5.8059    9 O    0 0-1
   5 O    1     3.1336     5.9217    1 C    0 0 0

   6 O    1     1.1232     2.1225    4 C   -1 0 0
   6 O    1     2.2464     4.2450    5 O   -1 0 1
   6 O    1     3.0145     5.6967   11 O    0 0 0
   6 O    1     3.0235     5.7135    2 O   -1 0 0
   6 O    1     3.0412     5.7471    9 O   -1 0 0
   6 O    1     3.0516     5.7668    7 C   -1 0 0

   7 C    1     1.1943     2.2569    8 O    1 0 0
   7 C    1     1.2764     2.4121    9 O    0 1 0
   7 C    1     2.9844     5.6398   12 O    0 0 0
   7 C    1     3.0140     5.6957    5 O    0 1 0
   7 C    1     3.0224     5.7116    2 O    0 0 0
   7 C    1     3.0516     5.7668    6 O    1 0 0

   8 O    1     1.1943     2.2569    7 C   -1 0 0
   8 O    1     2.4111     4.5562    9 O   -1 1 0
   8 O    1     2.9524     5.5792   10 C    0 0-1
   8 O    1     3.0214     5.7096    3 O    0 1 0
   8 O    1     3.1306     5.9160   12 O   -1 0 0
   8 O    1     3.1798     6.0090    4 C   -1 0-1

   9 O    1     1.2764     2.4121    7 C    0-1 0
   9 O    1     2.4111     4.5562    8 O    1-1 0
   9 O    1     2.9026     5.4851    4 C    0 0 0
   9 O    1     2.9733     5.6186   11 O    1 0 0
   9 O    1     3.0412     5.7471    6 O    1 0 0
   9 O    1     3.0724     5.8059    5 O    0 0 1

  10 C    1     1.2714     2.4027   12 O    0 0 1
  10 C    1     1.2900     2.4377   11 O    0 1 0
  10 C    1     2.9524     5.5792    8 O    0 0 1
  10 C    1     3.0744     5.8098    2 O    0 0 0
  10 C    1     3.1276     5.9102    3 O    0 1 1
  10 C    1     3.1918     6.0316    9 O    0 1 0

  11 O    1     1.2900     2.4377   10 C    0-1 0
  11 O    1     2.5096     4.7425   12 O    0-1 1
  11 O    1     2.9086     5.4964    1 C    0 0 0
  11 O    1     2.9733     5.6186    9 O   -1 0 0
  11 O    1     3.0145     5.6967    6 O    0 0 0
  11 O    1     3.0480     5.7599    3 O    0 0 0

  12 O    1     1.2714     2.4027   10 C    0 0-1
  12 O    1     2.5096     4.7425   11 O    0 1-1
  12 O    1     2.8475     5.3809    4 C    0 0-1
  12 O    1     2.9844     5.6398    7 C    0 0 0
  12 O    1     3.0816     5.8234    2 O    0 0-1
  12 O    1     3.1306     5.9160    8 O    1 0 0


 SYMMETRY ALLOWED INTERNAL DEGREE(S) OF FREEDOM:  33
 TTTTTTTTTTTTTTTTTTTTTTTTTTTTTT SYMM        TELAPSE        0.57 TCPU        0.13
 TTTTTTTTTTTTTTTTTTTTTTTTTTTTTT INT_SCREEN  TELAPSE        0.57 TCPU        0.13
 INFORMATION **** EXCBUF **** EXCH. BIPO BUFFER: WORDS USED =      774288

 DFT PARAMETERS

     ATOM       ELECTRONS   NET CHARGE   R(ANGSTROM)
   1   6  C       6.0000      0.0000     0.77000000
   2   8  O       8.0000      0.0000     0.74000000

 SIZE OF GRID=     423143
 TTTTTTTTTTTTTTTTTTTTTTTTTTTTTT MAKE_GRID2  TELAPSE        1.05 TCPU        0.61
 BECKE WEIGHT FUNCTION
 RADSAFE =     2.00
 TOLERANCES - DENSITY:10**- 6; POTENTIAL:10**- 9; GRID WGT:10**-14

 RADIAL INTEGRATION  - INTERVALS (POINTS,UPPER LIMIT):            1( 75,  4.0*R)

 ANGULAR INTEGRATION - INTERVALS (ACCURACY LEVEL [N. POINTS] UPPER LIMIT):
  1(  4[  86]   0.2)  2(  8[ 194]   0.5)  3( 12[ 350]   0.9)  4( 16[ 974]   3.5)
  5( 12[ 350]9999.0)
 TTTTTTTTTTTTTTTTTTTTTTTTTTTTTT INT_CALC    TELAPSE        1.09 TCPU        0.65
 EEEEEEEEEE INT_CALC TERMINATION  DATE 18 05 2022 TIME 15:20:07.2

 *******************************************************************************
 DRY-ICE                                                                         
 CRYSTAL - SCF - TYPE OF CALCULATION :  RESTRICTED CLOSED SHELL
 *******************************************************************************

 CAPPA:IS1  8;IS2  8;IS3  8; K PTS MONK NET 260; SYMMOPS:K SPACE   2;G SPACE   1

 TTTTTTTTTTTTTTTTTTTTTTTTTTTTTT SDIK        TELAPSE        1.45 TCPU        0.97

 AAAAAAAAAAAAAAAAAAAAAAAAAAAAAAAAAAAAAAAAAAAAAAAAAAAAAAAAAAAAAAAAAAAAAAAAAAAAAAA
         ATOMIC WAVEFUNCTION(S)


 NUCLEAR CHARGE  6.0  SYMMETRY SPECIES            S    P
 N. ELECTRONS    6.0  NUMBER OF PRIMITIVE GTOS   10    6
                      NUMBER OF CONTRACTED GTOS   4    3
                      NUMBER OF CLOSED SHELLS     2    0
                      OPEN SHELL OCCUPATION       0    2

  ZNUC SCFIT  TOTAL HF ENERGY   KINETIC ENERGY   VIRIAL THEOREM ACCURACY
   6.0  10   -3.766702350E+01  3.783137943E+01 -1.995655566E+00  1.6E-06

 NUCLEAR CHARGE  8.0  SYMMETRY SPECIES            S    P
 N. ELECTRONS    8.0  NUMBER OF PRIMITIVE GTOS   10    6
                      NUMBER OF CONTRACTED GTOS   4    3
                      NUMBER OF CLOSED SHELLS     2    0
                      OPEN SHELL OCCUPATION       0    4

  ZNUC SCFIT  TOTAL HF ENERGY   KINETIC ENERGY   VIRIAL THEOREM ACCURACY
   8.0  13   -7.479377997E+01  7.483473100E+01 -1.999452780E+00  5.0E-06

 AAAAAAAAAAAAAAAAAAAAAAAAAAAAAAAAAAAAAAAAAAAAAAAAAAAAAAAAAAAAAAAAAAAAAAAAAAAAAAA

 CHARGE NORMALIZATION FACTOR   1.00000000
 TOTAL ATOMIC CHARGES:
   6.0000000   8.0000000   8.0000000   6.0000000   8.0000000   8.0000000
   6.0000000   8.0000000   8.0000000   6.0000000   8.0000000   8.0000000
 TTTTTTTTTTTTTTTTTTTTTTTTTTTTTT MOQGAD      TELAPSE        1.54 TCPU        1.06
 TTTTTTTTTTTTTTTTTTTTTTTTTTTTTT SHELLX2     TELAPSE       20.41 TCPU       19.88
 TTTTTTTTTTTTTTTTTTTTTTTTTTTTTT MONMO3      TELAPSE       21.88 TCPU       21.34
 NUMERICALLY INTEGRATED DENSITY     87.9999865213
 TTTTTTTTTTTTTTTTTTTTTTTTTTTTTT NUMDFT      TELAPSE       23.02 TCPU       22.48
 CYC   0 ETOT(AU) -7.557587402943E+02 DETOT -7.56E+02 tst  0.00E+00 PX  1.00E+00
 TTTTTTTTTTTTTTTTTTTTTTTTTTTTTT FDIK        TELAPSE       31.66 TCPU       31.02
 INSULATING STATE
 TOP OF VALENCE BANDS -    BAND     44; K   30; EIG -3.7229435E-01 AU
 TOP OF VALENCE BANDS -    BAND     44; K    1; EIG -3.7269236E-01 AU
 BOTTOM OF VIRTUAL BANDS - BAND     45; K    1; EIG -1.1559679E-01 AU
 TTTTTTTTTTTTTTTTTTTTTTTTTTTTTT PDIG        TELAPSE       36.17 TCPU       31.26
 CHARGE NORMALIZATION FACTOR   1.00000000
 TOTAL ATOMIC CHARGES:
   4.5879396   8.7086867   8.7028460   4.6298784   8.7106872   8.6664844
   4.3942441   8.7359517   8.8706737   4.3273742   8.8424556   8.8227784
 TTTTTTTTTTTTTTTTTTTTTTTTTTTTTT MOQGAD      TELAPSE       36.18 TCPU       31.27
 TTTTTTTTTTTTTTTTTTTTTTTTTTTTTT SHELLX2     TELAPSE       56.20 TCPU       51.24
 TTTTTTTTTTTTTTTTTTTTTTTTTTTTTT MONMO3      TELAPSE       57.74 TCPU       52.77
 NUMERICALLY INTEGRATED DENSITY     87.9999922556
 TTTTTTTTTTTTTTTTTTTTTTTTTTTTTT NUMDFT      TELAPSE       61.18 TCPU       56.20
 CYC   1 ETOT(AU) -7.536608181584E+02 DETOT  2.10E+00 tst  0.00E+00 PX  1.00E+00
 TTTTTTTTTTTTTTTTTTTTTTTTTTTTTT FDIK        TELAPSE       63.59 TCPU       58.60
 INSULATING STATE
 TOP OF VALENCE BANDS -    BAND     44; K    1; EIG -2.7527685E-01 AU
 BOTTOM OF VIRTUAL BANDS - BAND     45; K    1; EIG -1.2662121E-01 AU
 TTTTTTTTTTTTTTTTTTTTTTTTTTTTTT PDIG        TELAPSE       63.84 TCPU       58.86
 CHARGE NORMALIZATION FACTOR   1.00000000
 TOTAL ATOMIC CHARGES:
   5.0745203   8.4822317   8.4420606   5.0713934   8.4840754   8.4495310
   4.9790508   8.4651200   8.5570873   4.9744505   8.4915889   8.5288901
 TTTTTTTTTTTTTTTTTTTTTTTTTTTTTT MOQGAD      TELAPSE       63.85 TCPU       58.86
 TTTTTTTTTTTTTTTTTTTTTTTTTTTTTT SHELLX2     TELAPSE       83.87 TCPU       78.83
 TTTTTTTTTTTTTTTTTTTTTTTTTTTTTT MONMO3      TELAPSE       85.41 TCPU       80.36
 NUMERICALLY INTEGRATED DENSITY     87.9999913838
 TTTTTTTTTTTTTTTTTTTTTTTTTTTTTT NUMDFT      TELAPSE       88.83 TCPU       83.77
 CYC   2 ETOT(AU) -7.540795607660E+02 DETOT -4.19E-01 tst  2.51E-02 PX  1.67E-01
 TTTTTTTTTTTTTTTTTTTTTTTTTTTTTT FDIK        TELAPSE       91.04 TCPU       85.98
 INSULATING STATE
 TOP OF VALENCE BANDS -    BAND     44; K    1; EIG -3.3500234E-01 AU
 BOTTOM OF VIRTUAL BANDS - BAND     45; K    1; EIG -1.0903259E-01 AU
 TTTTTTTTTTTTTTTTTTTTTTTTTTTTTT PDIG        TELAPSE       94.02 TCPU       88.95
 CHARGE NORMALIZATION FACTOR   1.00000000
 TOTAL ATOMIC CHARGES:
   5.0736205   8.4804948   8.4439467   5.0705101   8.4811535   8.4509730
   4.9916026   8.4621750   8.5478012   4.9895862   8.4898596   8.5182769
 TTTTTTTTTTTTTTTTTTTTTTTTTTTTTT MOQGAD      TELAPSE       94.02 TCPU       88.95
 TTTTTTTTTTTTTTTTTTTTTTTTTTTTTT SHELLX2     TELAPSE      114.04 TCPU      108.91
 TTTTTTTTTTTTTTTTTTTTTTTTTTTTTT MONMO3      TELAPSE      115.49 TCPU      110.36
 NUMERICALLY INTEGRATED DENSITY     87.9999912626
 TTTTTTTTTTTTTTTTTTTTTTTTTTTTTT NUMDFT      TELAPSE      118.89 TCPU      113.76
 CYC   3 ETOT(AU) -7.540990331591E+02 DETOT -1.95E-02 tst  2.78E-04 PX  3.97E-02
 TTTTTTTTTTTTTTTTTTTTTTTTTTTTTT FDIK        TELAPSE      121.08 TCPU      115.93
 INSULATING STATE
 TOP OF VALENCE BANDS -    BAND     44; K    1; EIG -3.4402144E-01 AU
 BOTTOM OF VIRTUAL BANDS - BAND     45; K    1; EIG -9.9591345E-02 AU
 TTTTTTTTTTTTTTTTTTTTTTTTTTTTTT PDIG        TELAPSE      121.33 TCPU      116.18
 CHARGE NORMALIZATION FACTOR   1.00000000
 TOTAL ATOMIC CHARGES:
   5.0246446   8.5027311   8.4702577   5.0243916   8.5031692   8.4740124
   4.9383856   8.4883820   8.5750029   4.9331638   8.5214484   8.5444107
 TTTTTTTTTTTTTTTTTTTTTTTTTTTTTT MOQGAD      TELAPSE      121.34 TCPU      116.19
 TTTTTTTTTTTTTTTTTTTTTTTTTTTTTT SHELLX2     TELAPSE      141.35 TCPU      136.15
 TTTTTTTTTTTTTTTTTTTTTTTTTTTTTT MONMO3      TELAPSE      142.68 TCPU      137.48
 NUMERICALLY INTEGRATED DENSITY     87.9999912890
 TTTTTTTTTTTTTTTTTTTTTTTTTTTTTT NUMDFT      TELAPSE      146.08 TCPU      140.87
 CYC   4 ETOT(AU) -7.541045475530E+02 DETOT -5.51E-03 tst  7.99E-05 PX  2.88E-02
 TTTTTTTTTTTTTTTTTTTTTTTTTTTTTT FDIK        TELAPSE      148.12 TCPU      142.90
 INSULATING STATE
 TOP OF VALENCE BANDS -    BAND     44; K    1; EIG -3.3646100E-01 AU
 BOTTOM OF VIRTUAL BANDS - BAND     45; K    1; EIG -9.5962053E-02 AU
 TTTTTTTTTTTTTTTTTTTTTTTTTTTTTT PDIG        TELAPSE      148.38 TCPU      143.16
 CHARGE NORMALIZATION FACTOR   1.00000000
 TOTAL ATOMIC CHARGES:
   5.0265298   8.5021822   8.4687760   5.0245355   8.5024450   8.4742581
   4.9446483   8.4869594   8.5702167   4.9431990   8.5152204   8.5410296
 TTTTTTTTTTTTTTTTTTTTTTTTTTTTTT MOQGAD      TELAPSE      148.38 TCPU      143.16
 TTTTTTTTTTTTTTTTTTTTTTTTTTTTTT SHELLX2     TELAPSE      168.40 TCPU      163.12
 TTTTTTTTTTTTTTTTTTTTTTTTTTTTTT MONMO3      TELAPSE      169.72 TCPU      164.45
 NUMERICALLY INTEGRATED DENSITY     87.9999912698
 TTTTTTTTTTTTTTTTTTTTTTTTTTTTTT NUMDFT      TELAPSE      173.14 TCPU      167.86
 CYC   5 ETOT(AU) -7.541050500349E+02 DETOT -5.02E-04 tst  5.35E-05 PX  5.36E-03
 TTTTTTTTTTTTTTTTTTTTTTTTTTTTTT FDIK        TELAPSE      185.05 TCPU      176.10
 INSULATING STATE
 TOP OF VALENCE BANDS -    BAND     44; K    1; EIG -3.3638140E-01 AU
 BOTTOM OF VIRTUAL BANDS - BAND     45; K    1; EIG -9.5563964E-02 AU
 TTTTTTTTTTTTTTTTTTTTTTTTTTTTTT PDIG        TELAPSE      185.30 TCPU      176.36
 CHARGE NORMALIZATION FACTOR   1.00000000
 TOTAL ATOMIC CHARGES:
   5.0315599   8.4995768   8.4662885   5.0289727   8.5001856   8.4719452
   4.9509939   8.4840350   8.5668045   4.9500217   8.5121210   8.5374951
 TTTTTTTTTTTTTTTTTTTTTTTTTTTTTT MOQGAD      TELAPSE      185.31 TCPU      176.37
 TTTTTTTTTTTTTTTTTTTTTTTTTTTTTT SHELLX2     TELAPSE      205.33 TCPU      196.33
 TTTTTTTTTTTTTTTTTTTTTTTTTTTTTT MONMO3      TELAPSE      206.65 TCPU      197.65
 NUMERICALLY INTEGRATED DENSITY     87.9999912554
 TTTTTTTTTTTTTTTTTTTTTTTTTTTTTT NUMDFT      TELAPSE      210.06 TCPU      201.05
 CYC   6 ETOT(AU) -7.541051562194E+02 DETOT -1.06E-04 tst  2.39E-05 PX  1.90E-03
 TTTTTTTTTTTTTTTTTTTTTTTTTTTTTT FDIK        TELAPSE      212.06 TCPU      203.04
 INSULATING STATE
 TOP OF VALENCE BANDS -    BAND     44; K    1; EIG -3.3744524E-01 AU
 BOTTOM OF VIRTUAL BANDS - BAND     45; K    1; EIG -9.5622530E-02 AU
 TTTTTTTTTTTTTTTTTTTTTTTTTTTTTT PDIG        TELAPSE      212.31 TCPU      203.29
 CHARGE NORMALIZATION FACTOR   1.00000000
 TOTAL ATOMIC CHARGES:
   5.0313085   8.4994037   8.4666791   5.0288764   8.5003022   8.4718417
   4.9503879   8.4841420   8.5673061   4.9488401   8.5132619   8.5376502
 TTTTTTTTTTTTTTTTTTTTTTTTTTTTTT MOQGAD      TELAPSE      212.33 TCPU      203.31
 TTTTTTTTTTTTTTTTTTTTTTTTTTTTTT SHELLX2     TELAPSE      232.26 TCPU      223.18
 TTTTTTTTTTTTTTTTTTTTTTTTTTTTTT MONMO3      TELAPSE      233.67 TCPU      224.59
 NUMERICALLY INTEGRATED DENSITY     87.9999912521
 TTTTTTTTTTTTTTTTTTTTTTTTTTTTTT NUMDFT      TELAPSE      237.07 TCPU      227.98
 CYC   7 ETOT(AU) -7.541051976999E+02 DETOT -4.15E-05 tst  4.98E-06 PX  1.85E-03
 TTTTTTTTTTTTTTTTTTTTTTTTTTTTTT FDIK        TELAPSE      238.91 TCPU      229.82
 INSULATING STATE
 TOP OF VALENCE BANDS -    BAND     44; K    1; EIG -3.3751639E-01 AU
 BOTTOM OF VIRTUAL BANDS - BAND     45; K    1; EIG -9.5602264E-02 AU
 TTTTTTTTTTTTTTTTTTTTTTTTTTTTTT PDIG        TELAPSE      242.60 TCPU      230.10
 CHARGE NORMALIZATION FACTOR   1.00000000
 TOTAL ATOMIC CHARGES:
   5.0308446   8.4995434   8.4669891   5.0284392   8.5005366   8.4719975
   4.9500563   8.4843482   8.5674295   4.9485543   8.5135113   8.5377499
 TTTTTTTTTTTTTTTTTTTTTTTTTTTTTT MOQGAD      TELAPSE      242.61 TCPU      230.11
 TTTTTTTTTTTTTTTTTTTTTTTTTTTTTT SHELLX2     TELAPSE      262.53 TCPU      249.98
 TTTTTTTTTTTTTTTTTTTTTTTTTTTTTT MONMO3      TELAPSE      263.95 TCPU      251.40
 NUMERICALLY INTEGRATED DENSITY     87.9999912508
 TTTTTTTTTTTTTTTTTTTTTTTTTTTTTT NUMDFT      TELAPSE      267.35 TCPU      254.79
 CYC   8 ETOT(AU) -7.541052101127E+02 DETOT -1.24E-05 tst  2.23E-06 PX  9.07E-04
 TTTTTTTTTTTTTTTTTTTTTTTTTTTTTT FDIK        TELAPSE      269.04 TCPU      256.47
 INSULATING STATE
 TOP OF VALENCE BANDS -    BAND     44; K    1; EIG -3.3747826E-01 AU
 BOTTOM OF VIRTUAL BANDS - BAND     45; K    1; EIG -9.5578387E-02 AU
 TTTTTTTTTTTTTTTTTTTTTTTTTTTTTT PDIG        TELAPSE      269.35 TCPU      256.78
 CHARGE NORMALIZATION FACTOR   1.00000000
 TOTAL ATOMIC CHARGES:
   5.0309104   8.4994750   8.4669870   5.0284483   8.5005396   8.4719602
   4.9503154   8.4842656   8.5672493   4.9489021   8.5133901   8.5375569
 TTTTTTTTTTTTTTTTTTTTTTTTTTTTTT MOQGAD      TELAPSE      269.36 TCPU      256.79
 TTTTTTTTTTTTTTTTTTTTTTTTTTTTTT SHELLX2     TELAPSE      289.28 TCPU      276.66
 TTTTTTTTTTTTTTTTTTTTTTTTTTTTTT MONMO3      TELAPSE      290.70 TCPU      278.07
 NUMERICALLY INTEGRATED DENSITY     87.9999912495
 TTTTTTTTTTTTTTTTTTTTTTTTTTTTTT NUMDFT      TELAPSE      294.11 TCPU      281.47
 CYC   9 ETOT(AU) -7.541052142963E+02 DETOT -4.18E-06 tst  1.13E-06 PX  5.93E-04
 TTTTTTTTTTTTTTTTTTTTTTTTTTTTTT FDIK        TELAPSE      295.93 TCPU      283.28
 INSULATING STATE
 TOP OF VALENCE BANDS -    BAND     44; K    1; EIG -3.3751338E-01 AU
 BOTTOM OF VIRTUAL BANDS - BAND     45; K    1; EIG -9.5568722E-02 AU
 TTTTTTTTTTTTTTTTTTTTTTTTTTTTTT PDIG        TELAPSE      296.18 TCPU      283.53
 CHARGE NORMALIZATION FACTOR   1.00000000
 TOTAL ATOMIC CHARGES:
   5.0309528   8.4994158   8.4670022   5.0284872   8.5005308   8.4719152
   4.9504044   8.4842245   8.5671969   4.9489618   8.5134324   8.5374760
 TTTTTTTTTTTTTTTTTTTTTTTTTTTTTT MOQGAD      TELAPSE      296.19 TCPU      283.54
 TTTTTTTTTTTTTTTTTTTTTTTTTTTTTT SHELLX2     TELAPSE      316.12 TCPU      303.42
 TTTTTTTTTTTTTTTTTTTTTTTTTTTTTT MONMO3      TELAPSE      317.53 TCPU      304.83
 NUMERICALLY INTEGRATED DENSITY     87.9999912488
 TTTTTTTTTTTTTTTTTTTTTTTTTTTTTT NUMDFT      TELAPSE      320.92 TCPU      308.21
 CYC  10 ETOT(AU) -7.541052161005E+02 DETOT -1.80E-06 tst  4.60E-07 PX  4.04E-04
 TTTTTTTTTTTTTTTTTTTTTTTTTTTTTT FDIK        TELAPSE      322.75 TCPU      310.03
 INSULATING STATE
 TOP OF VALENCE BANDS -    BAND     44; K    1; EIG -3.3753563E-01 AU
 BOTTOM OF VIRTUAL BANDS - BAND     45; K    1; EIG -9.5565767E-02 AU
 TTTTTTTTTTTTTTTTTTTTTTTTTTTTTT PDIG        TELAPSE      325.75 TCPU      310.30
 CHARGE NORMALIZATION FACTOR   1.00000000
 TOTAL ATOMIC CHARGES:
   5.0309428   8.4993949   8.4670324   5.0284876   8.5005383   8.4718980
   4.9504000   8.4842359   8.5671864   4.9489467   8.5134798   8.5374571
 TTTTTTTTTTTTTTTTTTTTTTTTTTTTTT MOQGAD      TELAPSE      325.76 TCPU      310.31
 TTTTTTTTTTTTTTTTTTTTTTTTTTTTTT SHELLX2     TELAPSE      345.68 TCPU      330.17
 TTTTTTTTTTTTTTTTTTTTTTTTTTTTTT MONMO3      TELAPSE      347.10 TCPU      331.59
 NUMERICALLY INTEGRATED DENSITY     87.9999912484
 TTTTTTTTTTTTTTTTTTTTTTTTTTTTTT NUMDFT      TELAPSE      350.50 TCPU      334.98
 CYC  11 ETOT(AU) -7.541052168919E+02 DETOT -7.91E-07 tst  1.90E-07 PX  2.76E-04
 TTTTTTTTTTTTTTTTTTTTTTTTTTTTTT FDIK        TELAPSE      352.23 TCPU      336.71
 INSULATING STATE
 TOP OF VALENCE BANDS -    BAND     44; K    1; EIG -3.3754295E-01 AU
 BOTTOM OF VIRTUAL BANDS - BAND     45; K    1; EIG -9.5564865E-02 AU
 TTTTTTTTTTTTTTTTTTTTTTTTTTTTTT PDIG        TELAPSE      352.49 TCPU      336.96
 CHARGE NORMALIZATION FACTOR   1.00000000
 TOTAL ATOMIC CHARGES:
   5.0309369   8.4993848   8.4670488   5.0284814   8.5005465   8.4718903
   4.9504039   8.4842450   8.5671705   4.9489506   8.5134987   8.5374427
 TTTTTTTTTTTTTTTTTTTTTTTTTTTTTT MOQGAD      TELAPSE      352.49 TCPU      336.96
 TTTTTTTTTTTTTTTTTTTTTTTTTTTTTT SHELLX2     TELAPSE      372.40 TCPU      356.82
 +++ ENERGIES IN A.U. +++
 ::: EXT EL-POLE                                  -8.1051726374686E+02
 ::: EXT EL-SPHEROPOLE                             9.9215036106038E+00
 ::: BIELET ZONE E-E                               1.0158239250484E+03
 ::: TOTAL E-E                                     2.1522816491214E+02
 ::: TOTAL E-N + N-E                              -1.4978725803162E+03
 ::: TOTAL N-N                                    -1.4930773909580E+02
 ::: KINETIC ENERGY                                7.5031399848951E+02
 ::: PSEUDO TOTAL   ENERGY                        -6.8163815601039E+02
 ::: VIRIAL COEFFICIENT                            1.0479595929678E+00
 TTTTTTTTTTTTTTTTTTTTTTTTTTTTTT MONMO3      TELAPSE      373.84 TCPU      358.26
 NUMERICALLY INTEGRATED DENSITY     87.9999912483
 TTTTTTTTTTTTTTTTTTTTTTTTTTTTTT NUMDFT      TELAPSE      377.24 TCPU      361.64
 CYC  12 ETOT(AU) -7.541052172077E+02 DETOT -3.16E-07 tst  8.42E-08 PX  2.76E-04

 == SCF ENDED - CONVERGENCE ON ENERGY      E(AU) -7.5410521720773E+02 CYCLES  12


 ENERGY EXPRESSION=HARTREE+FOCK EXCH*0.20000+(BECKE      EXCH)*0.80000+LYP        CORR


 TOTAL ENERGY(DFT)(AU)( 12) -7.5410521720773E+02 DE-3.2E-07 tester 8.4E-08
 TTTTTTTTTTTTTTTTTTTTTTTTTTTTTT EDFT        TELAPSE      377.24 TCPU      361.65
 EIGENVECTORS IN FORTRAN UNIT  8
 TTTTTTTTTTTTTTTTTTTTTTTTTTTTTT END         TELAPSE      377.50 TCPU      361.90
 EEEEEEEEEE TERMINATION  DATE 18 05 2022 TIME 15:26:23.6
NODE    0 CPU TIME =       361.899
NODE    1 CPU TIME =       366.069
NODE    2 CPU TIME =       366.189
NODE    3 CPU TIME =       362.743
NODE    4 CPU TIME =       367.030
NODE    5 CPU TIME =       366.425
NODE    6 CPU TIME =       363.407
NODE    7 CPU TIME =       363.878
NODE    8 CPU TIME =       363.348
NODE    9 CPU TIME =       366.700
    TOTAL CPU TIME =      3647.690
