          10 PROCESSORS WORKING

         
 *******************************************************************************
 *                                                                             *
 *                               CRYSTAL14                                     *
 *                      public : 1.0.4 - Feb 23rd, 2016                        *
 *                       HTTP://WWW.CRYSTAL.UNITO.IT                           *
 *                                                                             *
 *                              MAIN AUTHORS                                   *
 *                                                                             *
 *  R. DOVESI(1,11), V.R. SAUNDERS(2), C. ROETTI(1,11), R. ORLANDO(1,11),      *
 *  C.M. ZICOVICH-WILSON(1,3), F. PASCALE(4), B. CIVALLERI(1,11),              *
 *  K. DOLL(5), N.M. HARRISON(2,6), I. J. BUSH(7), Ph. D'ARCO(8),              *
 *  M. LLUNELL(9), M. CAUSA'(10), Y. NOEL(8)                                   *
 *                                                                             *
 *        CONTRIBUTIONS TO THE CURRENT RELEASE HAVE BEEN GIVEN BY              *
 *                                                                             *
 *  L. MASCHIO(1,11), S. CASASSA(1,11), A. ERBA(1,11), M. FERRABONE(1,11),     *
 *  M. DE LA PIERRE(1,11), M. FERRERO(1,11), V. LACIVITA(1,11),                *
 *  J. BAIMA(1,11), E. ALBANESE(1,11), M.F. PEINTINGER(12), R. BAST(13),       *
 *  M. RERAT(14), B. KIRTMAN(15), R. DEMICHELIS(1,16)                          *
 *                                                                             *
 * (1) THEORETICAL CHEMISTRY GROUP - UNIVERSITA' DI TORINO - TORINO (ITALY)    *
 *     http://www.crystal.unito.it                                             *
 * (2) COMPUTATIONAL SCIENCE & ENGINEERING DEPARTMENT - STFC DARESBURY (UK)    *
 *     http://www.stfc.ac.uk/CSE/randd/cmg/CRYSTAL/25806.aspx                  *
 * (3) UNIVERSIDAD AUTONOMA DEL ESTADO DE MORELOS - CUERNAVACA (MEXICO)        *
 * (4) UNIVERSITE' DE LORRAINE - NANCY (FRANCE)                                *
 * (5) UNIVERSITAET ULM - ULM (GERMANY); (6) IMPERIAL COLLEGE - LONDON (UK)    *
 * (7) NAG - OXFORD (UK); (8) UPMC - SORBONNE UNIVERSITES - PARIS (FRANCE)     *
 * (9) UNIVERSIDAD DE BARCELONA - BARCELONA (SPAIN)                            *
 *(10) UNIVERSITA' DI NAPOLI "FEDERICO II" - NAPOLI (ITALY)                    *
 *(11) NIS - NANOSTRUCTURED INTERFACES AND SURFACES - TORINO (ITALY)           *
 *(12) MPI FUER CHEMISCHE ENERGIEKONVERSION - MUELHEIM AN DER RUHR (GERMANY)   *
 *(13) UNIVERSITY OF STOCKHOLM - STOCKHOLM (SWEDEN)                            *
 *(14) UNIVERSITE' DE PAU ET DES PAYS DE L'ADOUR - PAU (FRANCE)                *
 *(15) UNIVERSITY OF CALIFORNIA SANTA BARBARA - SANTA BARBARA (USA)            *
 *(16) CURTIN UNIVERSITY - PERTH (AUSTRALIA)                                   *
 *                                                                             *
 ********************************************************************************
 EEEEEEEEEE STARTING  DATE 18 05 2022 TIME 11:02:29.3
 DRY-ICE                                                                         

 CRYSTAL CALCULATION
 (INPUT ACCORDING TO THE INTERNATIONAL TABLES FOR X-RAY CRYSTALLOGRAPHY)
 CRYSTAL FAMILY                       :  TRICLINIC   
 CRYSTAL CLASS  (GROTH - 1921)        :  TRICLINIC PEDIAL                     

 SPACE GROUP (NONCENTROSYMMETRIC)     :  P 1             

 LATTICE PARAMETERS  (ANGSTROMS AND DEGREES) - CONVENTIONAL CELL
        A           B           C        ALPHA        BETA       GAMMA
     5.63000     5.63000     5.63000    90.00000    90.00000    90.00000


 NUMBER OF IRREDUCIBLE ATOMS IN THE CONVENTIONAL CELL:   12

 INPUT COORDINATES

 ATOM AT. N.              COORDINATES
   1   6     0.000000000000E+00  0.000000000000E+00  0.000000000000E+00
   2   8     1.000000000000E-01  1.400000000000E-01  1.200000000000E-01
   3   8    -1.100000000000E-01 -1.100000000000E-01 -1.400000000000E-01
   4   6     5.000000000000E-01  2.000000000000E-02  4.900000000000E-01
   5   8     3.400000000000E-01 -1.200000000000E-01 -4.000000000000E-01
   6   8    -3.500000000000E-01  1.100000000000E-01  3.700000000000E-01
   7   6     4.900000000000E-01  4.900000000000E-01 -2.000000000000E-02
   8   8    -3.800000000000E-01  4.200000000000E-01 -1.400000000000E-01
   9   8     3.700000000000E-01 -3.700000000000E-01  9.000000000000E-02
  10   6    -2.000000000000E-02  5.000000000000E-01  4.900000000000E-01
  11   8    -1.200000000000E-01 -4.200000000000E-01  3.600000000000E-01
  12   8     1.200000000000E-01  3.800000000000E-01 -3.500000000000E-01

 *******************************************************************************

 << INFORMATION >>: FROM NOW ON, ALL COORDINATES REFER TO THE PRIMITIVE CELL

 *******************************************************************************

 LATTICE PARAMETERS  (ANGSTROMS AND DEGREES) - PRIMITIVE CELL
       A          B          C        ALPHA      BETA     GAMMA        VOLUME
    5.63000    5.63000    5.63000    90.00000  90.00000  90.00000    178.453547

 COORDINATES OF THE EQUIVALENT ATOMS (FRACTIONAL UNITS)

 N. ATOM EQUIV AT. N.          X                  Y                  Z

   1   1   1    6 C     0.00000000000E+00  0.00000000000E+00  0.00000000000E+00

   2   2   1    8 O     1.00000000000E-01  1.40000000000E-01  1.20000000000E-01

   3   3   1    8 O    -1.10000000000E-01 -1.10000000000E-01 -1.40000000000E-01

   4   4   1    6 C    -5.00000000000E-01  2.00000000000E-02  4.90000000000E-01

   5   5   1    8 O     3.40000000000E-01 -1.20000000000E-01 -4.00000000000E-01

   6   6   1    8 O    -3.50000000000E-01  1.10000000000E-01  3.70000000000E-01

   7   7   1    6 C     4.90000000000E-01  4.90000000000E-01 -2.00000000000E-02

   8   8   1    8 O    -3.80000000000E-01  4.20000000000E-01 -1.40000000000E-01

   9   9   1    8 O     3.70000000000E-01 -3.70000000000E-01  9.00000000000E-02

  10  10   1    6 C    -2.00000000000E-02 -5.00000000000E-01  4.90000000000E-01

  11  11   1    8 O    -1.20000000000E-01 -4.20000000000E-01  3.60000000000E-01

  12  12   1    8 O     1.20000000000E-01  3.80000000000E-01 -3.50000000000E-01

 NUMBER OF SYMMETRY OPERATORS         :    1
 *******************************************************************************
 * GEOMETRY EDITING - INPUT COORDINATES ARE GIVEN IN ANGSTROM         
 *******************************************************************************

 GCALCO - MAX INDICES DIRECT LATTICE VECTOR    14    14    14
 NO.OF VECTORS CREATED 6999 STARS  120 RMAX   126.33300 BOHR

 GEOMETRY FOR WAVE FUNCTION - DIMENSIONALITY OF THE SYSTEM    3
 (NON PERIODIC DIRECTION: LATTICE PARAMETER FORMALLY SET TO 500)
 *******************************************************************************
 LATTICE PARAMETERS (ANGSTROMS AND DEGREES) - BOHR = 0.5291772083 ANGSTROM
 PRIMITIVE CELL - CENTRING CODE 1/0 VOLUME=   178.453547 - DENSITY  1.637 g/cm^3
         A              B              C           ALPHA      BETA       GAMMA 
     5.63000000     5.63000000     5.63000000    90.000000  90.000000  90.000000
 *******************************************************************************
 ATOMS IN THE ASYMMETRIC UNIT   12 - ATOMS IN THE UNIT CELL:   12
     ATOM              X/A                 Y/B                 Z/C    
 *******************************************************************************
   1 T   6 C     0.000000000000E+00  0.000000000000E+00  0.000000000000E+00
   2 T   8 O     1.000000000000E-01  1.400000000000E-01  1.200000000000E-01
   3 T   8 O    -1.100000000000E-01 -1.100000000000E-01 -1.400000000000E-01
   4 T   6 C     5.000000000000E-01  2.000000000000E-02  4.900000000000E-01
   5 T   8 O     3.400000000000E-01 -1.200000000000E-01 -4.000000000000E-01
   6 T   8 O    -3.500000000000E-01  1.100000000000E-01  3.700000000000E-01
   7 T   6 C     4.900000000000E-01  4.900000000000E-01 -2.000000000000E-02
   8 T   8 O    -3.800000000000E-01  4.200000000000E-01 -1.400000000000E-01
   9 T   8 O     3.700000000000E-01 -3.700000000000E-01  9.000000000000E-02
  10 T   6 C    -2.000000000000E-02  5.000000000000E-01  4.900000000000E-01
  11 T   8 O    -1.200000000000E-01 -4.200000000000E-01  3.600000000000E-01
  12 T   8 O     1.200000000000E-01  3.800000000000E-01 -3.500000000000E-01

 T = ATOM BELONGING TO THE ASYMMETRIC UNIT

 ****    1 SYMMOPS - TRANSLATORS IN FRACTIONAL UNITS
 **** MATRICES AND TRANSLATORS IN THE CRYSTALLOGRAPHIC REFERENCE FRAME
   V INV                    ROTATION MATRICES                   TRANSLATORS
   1   1  1.00  0.00  0.00  0.00  1.00  0.00  0.00  0.00  1.00  0.00  0.00  0.00

 DIRECT LATTICE VECTORS CARTESIAN COMPONENTS (ANGSTROM)
          X                    Y                    Z
   0.563000000000E+01   0.344738073960E-15   0.000000000000E+00
   0.000000000000E+00   0.563000000000E+01   0.000000000000E+00
   0.344738073960E-15   0.344738073960E-15   0.563000000000E+01


 CARTESIAN COORDINATES - PRIMITIVE CELL
 *******************************************************************************
 *      ATOM          X(ANGSTROM)         Y(ANGSTROM)         Z(ANGSTROM)
 *******************************************************************************
    1     6 C     0.000000000000E+00  0.000000000000E+00  0.000000000000E+00
    2     8 O     5.630000000000E-01  7.882000000000E-01  6.756000000000E-01
    3     8 O    -6.193000000000E-01 -6.193000000000E-01 -7.882000000000E-01
    4     6 C     2.815000000000E+00  1.126000000000E-01  2.758700000000E+00
    5     8 O     1.914200000000E+00 -6.756000000000E-01 -2.252000000000E+00
    6     8 O    -1.970500000000E+00  6.193000000000E-01  2.083100000000E+00
    7     6 C     2.758700000000E+00  2.758700000000E+00 -1.126000000000E-01
    8     8 O    -2.139400000000E+00  2.364600000000E+00 -7.882000000000E-01
    9     8 O     2.083100000000E+00 -2.083100000000E+00  5.067000000000E-01
   10     6 C    -1.126000000000E-01  2.815000000000E+00  2.758700000000E+00
   11     8 O    -6.756000000000E-01 -2.364600000000E+00  2.026800000000E+00
   12     8 O     6.756000000000E-01  2.139400000000E+00 -1.970500000000E+00

 *******************************************************************************
 STARTING BASIS SET HANDLING 
 *******************************************************************************

 Loading internal basis set: POB-TZVP            

 Please cite in your publication:
 Peintinger, M. F., Oliveira, D. V. and Bredow, T. (2013), Consistent Gaussian b
 asis sets of triple-zeta valence with polarization quality for solid-state calc
 ulations. J. Comput. Chem., 34: 451–459. doi: 10.1002/jcc.23153              
                    

 *******************************************************************************
 LOCAL ATOMIC FUNCTIONS BASIS SET
 *******************************************************************************
   ATOM   X(AU)   Y(AU)   Z(AU)  N. TYPE  EXPONENT  S COEF   P COEF   D/F/G COEF
 *******************************************************************************
   1 C    0.000   0.000   0.000
                                  1 S  
                                         1.358E+04 2.225E-04 0.000E+00 0.000E+00
                                         2.035E+03 1.723E-03 0.000E+00 0.000E+00
                                         4.632E+02 8.926E-03 0.000E+00 0.000E+00
                                         1.312E+02 3.573E-02 0.000E+00 0.000E+00
                                         4.285E+01 1.108E-01 0.000E+00 0.000E+00
                                         1.558E+01 2.430E-01 0.000E+00 0.000E+00
                                  2 S  
                                         6.207E+00 4.144E-01 0.000E+00 0.000E+00
                                         2.576E+00 2.374E-01 0.000E+00 0.000E+00
                                  3 S  
                                         4.941E-01 1.000E+00 0.000E+00 0.000E+00
                                  4 S  
                                         1.644E-01 1.000E+00 0.000E+00 0.000E+00
                             5-   7 P  
                                         3.470E+01 0.000E+00 5.333E-03 0.000E+00
                                         7.958E+00 0.000E+00 3.586E-02 0.000E+00
                                         2.378E+00 0.000E+00 1.422E-01 0.000E+00
                                         8.143E-01 0.000E+00 3.427E-01 0.000E+00
                             8-  10 P  
                                         5.662E-01 0.000E+00 1.000E+00 0.000E+00
                            11-  13 P  
                                         2.674E-01 0.000E+00 1.000E+00 0.000E+00
                            14-  18 D  
                                         8.792E-01 0.000E+00 0.000E+00 1.000E+00
   2 O    1.064   1.489   1.277
                                 19 S  
                                         2.703E+04 2.173E-04 0.000E+00 0.000E+00
                                         4.052E+03 1.684E-03 0.000E+00 0.000E+00
                                         9.223E+02 8.740E-03 0.000E+00 0.000E+00
                                         2.612E+02 3.524E-02 0.000E+00 0.000E+00
                                         8.535E+01 1.115E-01 0.000E+00 0.000E+00
                                         3.104E+01 2.559E-01 0.000E+00 0.000E+00
                                 20 S  
                                         1.226E+01 3.977E-01 0.000E+00 0.000E+00
                                         4.999E+00 2.463E-01 0.000E+00 0.000E+00
                                 21 S  
                                         8.479E-01 1.000E+00 0.000E+00 0.000E+00
                                 22 S  
                                         1.851E-01 1.000E+00 0.000E+00 0.000E+00
                            23-  25 P  
                                         6.327E+01 0.000E+00 6.069E-03 0.000E+00
                                         1.463E+01 0.000E+00 4.191E-02 0.000E+00
                                         4.450E+00 0.000E+00 1.615E-01 0.000E+00
                                         1.528E+00 0.000E+00 3.571E-01 0.000E+00
                            26-  28 P  
                                         5.490E-01 0.000E+00 1.000E+00 0.000E+00
                            29-  31 P  
                                         1.824E-01 0.000E+00 1.000E+00 0.000E+00
                            32-  36 D  
                                         5.000E-01 0.000E+00 0.000E+00 1.000E+00
   3 O   -1.170  -1.170  -1.489
   4 C    5.320   0.213   5.213
   5 O    3.617  -1.277  -4.256
   6 O   -3.724   1.170   3.936
   7 C    5.213   5.213  -0.213
   8 O   -4.043   4.468  -1.489
   9 O    3.936  -3.936   0.958
  10 C   -0.213   5.320   5.213
  11 O   -1.277  -4.468   3.830
  12 O    1.277   4.043  -3.724

 *******************************************************************************
 FINISHED BASIS SET HANDLING 
 *******************************************************************************

 INFORMATION **** SET_MPP **** PCRYSTAL CALCULATION
 INFORMATION **** READM2 **** NEW DEFAULT: FOCK/KS MATRIX MIXING SET TO 30 %
 INFORMATION **** READM2 **** NEW DEFAULT: FULL DIRECT SCF MODE
 INFORMATION **** READM2 **** NEW DEFAULT: COULOMB BIPOLAR BUFFER SET TO 32 Mb
 INFORMATION **** READM2 **** NEW DEFAULT: EXCHANGE BIPOLAR BUFFER SET TO 32 Mb

 *******************************************************************************
 NEW DEFAULT: DFT INTEGRATION GRID INCREASED TO XLGRID
 NEW DEFAULT: LEVEL SHIFTER 6 0
 IF THE SYSTEM IS A METAL USE KEYWORD NOSHIFT
 *******************************************************************************

 *******************************************************************************
 N. OF ATOMS PER CELL        12  COULOMB OVERLAP TOL         (T1) 10**   -6
 NUMBER OF SHELLS            96  COULOMB PENETRATION TOL     (T2) 10**   -6
 NUMBER OF AO               216  EXCHANGE OVERLAP TOL        (T3) 10**   -6
 N. OF ELECTRONS PER CELL    88  EXCHANGE PSEUDO OVP (F(G))  (T4) 10**   -6
 CORE ELECTRONS PER CELL     24  EXCHANGE PSEUDO OVP (P(G))  (T5) 10**  -12
 N. OF SYMMETRY OPERATORS     1  POLE ORDER IN MONO ZONE                  4
 *******************************************************************************
 TYPE OF CALCULATION :  RESTRICTED CLOSED SHELL
 KOHN-SHAM HAMILTONIAN

 (EXCHANGE)[CORRELATION] FUNCTIONAL:(BECKE 88)[LEE-YANG-PARR]

 NON-LOCAL WEIGHTING FACTOR (EXCHANGE) =           0.9000
 NON-LOCAL WEIGHTING FACTOR [CORRELATION] =        0.8100

 HYBRID EXCHANGE - PERCENTAGE OF FOCK EXCHANGE    20.0000
 EIGENVALUE LEVEL SHIFTING OF  0.600 HARTREE

 CAPPA:IS1  8;IS2  8;IS3  8; K PTS MONK NET 260; SYMMOPS:K SPACE   2;G SPACE   1

 *******************************************************************************
 MAX NUMBER OF SCF CYCLES      50  CONVERGENCE ON DELTAP        10**-16
 WEIGHT OF F(I) IN F(I+1)      30% CONVERGENCE ON ENERGY        10**- 6
 EIGENVALUE LEVEL SHIFTING OF  0.600 HARTREE
 SHRINK. FACT.(MONKH.)    8  8  8  NUMBER OF K POINTS IN THE IBZ    260
 SHRINKING FACTOR(GILAT NET)    8  NUMBER OF K POINTS(GILAT NET)    260
 *******************************************************************************
 *** K POINTS COORDINATES (OBLIQUE COORDINATES IN UNITS OF IS =  8)
   1-R(  0  0  0)   2-C(  1  0  0)   3-C(  2  0  0)   4-C(  3  0  0)
   5-R(  4  0  0)   6-C(  0  1  0)   7-C(  1  1  0)   8-C(  2  1  0)
   9-C(  3  1  0)  10-C(  4  1  0)  11-C(  5  1  0)  12-C(  6  1  0)
  13-C(  7  1  0)  14-C(  0  2  0)  15-C(  1  2  0)  16-C(  2  2  0)
  17-C(  3  2  0)  18-C(  4  2  0)  19-C(  5  2  0)  20-C(  6  2  0)
  21-C(  7  2  0)  22-C(  0  3  0)  23-C(  1  3  0)  24-C(  2  3  0)
  25-C(  3  3  0)  26-C(  4  3  0)  27-C(  5  3  0)  28-C(  6  3  0)
  29-C(  7  3  0)  30-R(  0  4  0)  31-C(  1  4  0)  32-C(  2  4  0)
  33-C(  3  4  0)  34-R(  4  4  0)  35-C(  0  0  1)  36-C(  1  0  1)
  37-C(  2  0  1)  38-C(  3  0  1)  39-C(  4  0  1)  40-C(  5  0  1)
  41-C(  6  0  1)  42-C(  7  0  1)  43-C(  0  1  1)  44-C(  1  1  1)
  45-C(  2  1  1)  46-C(  3  1  1)  47-C(  4  1  1)  48-C(  5  1  1)
  49-C(  6  1  1)  50-C(  7  1  1)  51-C(  0  2  1)  52-C(  1  2  1)
  53-C(  2  2  1)  54-C(  3  2  1)  55-C(  4  2  1)  56-C(  5  2  1)
  57-C(  6  2  1)  58-C(  7  2  1)  59-C(  0  3  1)  60-C(  1  3  1)
  61-C(  2  3  1)  62-C(  3  3  1)  63-C(  4  3  1)  64-C(  5  3  1)
  65-C(  6  3  1)  66-C(  7  3  1)  67-C(  0  4  1)  68-C(  1  4  1)
  69-C(  2  4  1)  70-C(  3  4  1)  71-C(  4  4  1)  72-C(  5  4  1)
  73-C(  6  4  1)  74-C(  7  4  1)  75-C(  0  5  1)  76-C(  1  5  1)
  77-C(  2  5  1)  78-C(  3  5  1)  79-C(  4  5  1)  80-C(  5  5  1)
  81-C(  6  5  1)  82-C(  7  5  1)  83-C(  0  6  1)  84-C(  1  6  1)
  85-C(  2  6  1)  86-C(  3  6  1)  87-C(  4  6  1)  88-C(  5  6  1)
  89-C(  6  6  1)  90-C(  7  6  1)  91-C(  0  7  1)  92-C(  1  7  1)
  93-C(  2  7  1)  94-C(  3  7  1)  95-C(  4  7  1)  96-C(  5  7  1)
  97-C(  6  7  1)  98-C(  7  7  1)  99-C(  0  0  2) 100-C(  1  0  2)
 101-C(  2  0  2) 102-C(  3  0  2) 103-C(  4  0  2) 104-C(  5  0  2)
 105-C(  6  0  2) 106-C(  7  0  2) 107-C(  0  1  2) 108-C(  1  1  2)
 109-C(  2  1  2) 110-C(  3  1  2) 111-C(  4  1  2) 112-C(  5  1  2)
 113-C(  6  1  2) 114-C(  7  1  2) 115-C(  0  2  2) 116-C(  1  2  2)
 117-C(  2  2  2) 118-C(  3  2  2) 119-C(  4  2  2) 120-C(  5  2  2)
 121-C(  6  2  2) 122-C(  7  2  2) 123-C(  0  3  2) 124-C(  1  3  2)
 125-C(  2  3  2) 126-C(  3  3  2) 127-C(  4  3  2) 128-C(  5  3  2)
 129-C(  6  3  2) 130-C(  7  3  2) 131-C(  0  4  2) 132-C(  1  4  2)
 133-C(  2  4  2) 134-C(  3  4  2) 135-C(  4  4  2) 136-C(  5  4  2)
 137-C(  6  4  2) 138-C(  7  4  2) 139-C(  0  5  2) 140-C(  1  5  2)
 141-C(  2  5  2) 142-C(  3  5  2) 143-C(  4  5  2) 144-C(  5  5  2)
 145-C(  6  5  2) 146-C(  7  5  2) 147-C(  0  6  2) 148-C(  1  6  2)
 149-C(  2  6  2) 150-C(  3  6  2) 151-C(  4  6  2) 152-C(  5  6  2)
 153-C(  6  6  2) 154-C(  7  6  2) 155-C(  0  7  2) 156-C(  1  7  2)
 157-C(  2  7  2) 158-C(  3  7  2) 159-C(  4  7  2) 160-C(  5  7  2)
 161-C(  6  7  2) 162-C(  7  7  2) 163-C(  0  0  3) 164-C(  1  0  3)
 165-C(  2  0  3) 166-C(  3  0  3) 167-C(  4  0  3) 168-C(  5  0  3)
 169-C(  6  0  3) 170-C(  7  0  3) 171-C(  0  1  3) 172-C(  1  1  3)
 173-C(  2  1  3) 174-C(  3  1  3) 175-C(  4  1  3) 176-C(  5  1  3)
 177-C(  6  1  3) 178-C(  7  1  3) 179-C(  0  2  3) 180-C(  1  2  3)
 181-C(  2  2  3) 182-C(  3  2  3) 183-C(  4  2  3) 184-C(  5  2  3)
 185-C(  6  2  3) 186-C(  7  2  3) 187-C(  0  3  3) 188-C(  1  3  3)
 189-C(  2  3  3) 190-C(  3  3  3) 191-C(  4  3  3) 192-C(  5  3  3)
 193-C(  6  3  3) 194-C(  7  3  3) 195-C(  0  4  3) 196-C(  1  4  3)
 197-C(  2  4  3) 198-C(  3  4  3) 199-C(  4  4  3) 200-C(  5  4  3)
 201-C(  6  4  3) 202-C(  7  4  3) 203-C(  0  5  3) 204-C(  1  5  3)
 205-C(  2  5  3) 206-C(  3  5  3) 207-C(  4  5  3) 208-C(  5  5  3)
 209-C(  6  5  3) 210-C(  7  5  3) 211-C(  0  6  3) 212-C(  1  6  3)
 213-C(  2  6  3) 214-C(  3  6  3) 215-C(  4  6  3) 216-C(  5  6  3)
 217-C(  6  6  3) 218-C(  7  6  3) 219-C(  0  7  3) 220-C(  1  7  3)
 221-C(  2  7  3) 222-C(  3  7  3) 223-C(  4  7  3) 224-C(  5  7  3)
 225-C(  6  7  3) 226-C(  7  7  3) 227-R(  0  0  4) 228-C(  1  0  4)
 229-C(  2  0  4) 230-C(  3  0  4) 231-R(  4  0  4) 232-C(  0  1  4)
 233-C(  1  1  4) 234-C(  2  1  4) 235-C(  3  1  4) 236-C(  4  1  4)
 237-C(  5  1  4) 238-C(  6  1  4) 239-C(  7  1  4) 240-C(  0  2  4)
 241-C(  1  2  4) 242-C(  2  2  4) 243-C(  3  2  4) 244-C(  4  2  4)
 245-C(  5  2  4) 246-C(  6  2  4) 247-C(  7  2  4) 248-C(  0  3  4)
 249-C(  1  3  4) 250-C(  2  3  4) 251-C(  3  3  4) 252-C(  4  3  4)
 253-C(  5  3  4) 254-C(  6  3  4) 255-C(  7  3  4) 256-R(  0  4  4)
 257-C(  1  4  4) 258-C(  2  4  4) 259-C(  3  4  4) 260-R(  4  4  4)

 DIRECT LATTICE VECTORS COMPON. (A.U.)     RECIP. LATTICE VECTORS COMPON. (A.U.) 
        X            Y            Z              X            Y            Z
   10.6391581    0.0000000    0.0000000      0.5905717    0.0000000   -0.0000000
    0.0000000   10.6391581    0.0000000     -0.0000000    0.5905717   -0.0000000
    0.0000000    0.0000000   10.6391581      0.0000000    0.0000000    0.5905717

 DISK SPACE FOR EIGENVECTORS (FTN 10)    23887872 REALS

 SYMMETRY ADAPTION OF THE BLOCH FUNCTIONS DISABLED
 TTTTTTTTTTTTTTTTTTTTTTTTTTTTTT gordsh1     TELAPSE        0.67 TCPU        0.18

 MATRIX SIZE: P(G)  229262, F(G)   40714, P(G) IRR  115831, F(G) IRR   41086
 MAX G-VECTOR INDEX FOR 1- AND 2-ELECTRON INTEGRALS  81

 TTTTTTTTTTTTTTTTTTTTTTTTTTTTTT INPUT       TELAPSE        0.68 TCPU        0.19

 NEIGHBORS OF THE NON-EQUIVALENT ATOMS

 N = NUMBER OF NEIGHBORS AT DISTANCE R
    ATOM  N     R/ANG      R/AU   NEIGHBORS (ATOM LABELS AND CELL INDICES)
   1 C    1     1.1783     2.2266    3 O    0 0 0
   1 C    1     1.1810     2.2317    2 O    0 0 0
   1 C    1     2.9335     5.5436    6 O    0 0 0
   1 C    1     2.9860     5.6428   12 O    0 0 0
   1 C    1     2.9892     5.6488    9 O    0 0 0
   1 C    1     3.0318     5.7294    5 O    0 0 0

   2 O    1     1.1810     2.2317    1 C    0 0 0
   2 O    1     2.3498     4.4405    3 O    0 0 0
   2 O    1     2.9031     5.4861    6 O    0 0 0
   2 O    1     2.9733     5.6186   12 O    0 0 0
   2 O    1     2.9839     5.6388   10 C    0 0 0
   2 O    1     3.0537     5.7707    7 C    0 0 0

   3 O    1     1.1783     2.2266    1 C    0 0 0
   3 O    1     2.3498     4.4405    2 O    0 0 0
   3 O    1     2.9265     5.5303    5 O    0 0 0
   3 O    1     3.0516     5.7668    8 O    0-1 0
   3 O    1     3.0687     5.7991   10 C    0-1-1
   3 O    1     3.1139     5.8843    4 C   -1 0-1

   4 C    1     1.1943     2.2569    6 O    1 0 0
   4 C    1     1.3477     2.5467    5 O    0 0 1
   4 C    1     3.0816     5.8234   12 O    0 0 1
   4 C    1     3.1139     5.8843    3 O    1 0 1
   4 C    2     3.1412     5.9360    2 O    0 0 0    8 O    1 0 1
   4 C    1     3.2293     6.1025    9 O    0 0 0

   5 O    1     1.3477     2.5467    4 C    0 0-1
   5 O    1     2.5297     4.7805    6 O    1 0-1
   5 O    1     2.9265     5.5303    3 O    0 0 0
   5 O    1     3.0114     5.6907   10 C    0-1-1
   5 O    1     3.0318     5.7294    1 C    0 0 0
   5 O    2     3.0883     5.8360   12 O    0 0 0   12 O    0-1 0

   6 O    1     1.1943     2.2569    4 C   -1 0 0
   6 O    1     2.5297     4.7805    5 O   -1 0 1
   6 O    1     2.9031     5.4861    2 O    0 0 0
   6 O    1     2.9335     5.5436    1 C    0 0 0
   6 O    1     2.9465     5.5681   11 O    0 1 0
   6 O    1     2.9545     5.5833   10 C    0 0 0

   7 C    1     1.0712     2.0242    8 O    1 0 0
   7 C    1     1.2088     2.2843    9 O    0 1 0
   7 C    1     2.8591     5.4030   12 O    0 0 0
   7 C    1     3.0537     5.7707    2 O    0 0 0
   7 C    1     3.1072     5.8718   11 O    1 1 0
   7 C    1     3.1798     6.0090    5 O    0 1 0

   8 O    1     1.0712     2.0242    7 C   -1 0 0
   8 O    1     2.2485     4.2490    9 O   -1 1 0
   8 O    1     2.9411     5.5579   10 C    0 0-1
   8 O    1     3.0516     5.7668    3 O    0 1 0
   8 O    2     3.0615     5.7854   12 O    0 0 0   12 O   -1 0 0
   8 O    1     3.1412     5.9360    4 C   -1 0-1

   9 O    1     1.2088     2.2843    7 C    0-1 0
   9 O    1     2.2485     4.2490    8 O    1-1 0
   9 O    1     2.9892     5.6488    1 C    0 0 0
   9 O    1     3.1016     5.8612    5 O    0 0 0
   9 O    1     3.1543     5.9608    2 O    0-1 0
   9 O    1     3.1623     5.9759   11 O    0 0 0

  10 C    1     1.0274     1.9415   11 O    0 1 0
  10 C    1     1.3745     2.5973   12 O    0 0 1
  10 C    1     2.9411     5.5579    8 O    0 0 1
  10 C    1     2.9545     5.5833    6 O    0 0 0
  10 C    1     2.9839     5.6388    2 O    0 0 0
  10 C    1     3.0114     5.6907    5 O    0 1 1

  11 O    1     1.0274     1.9415   10 C    0-1 0
  11 O    1     2.3999     4.5351   12 O    0-1 1
  11 O    1     2.9465     5.5681    6 O    0-1 0
  11 O    1     3.0816     5.8234    2 O    0-1 0
  11 O    1     3.1072     5.8718    7 C   -1-1 0
  11 O    1     3.1623     5.9759    9 O    0 0 0

  12 O    1     1.3745     2.5973   10 C    0 0-1
  12 O    1     2.3999     4.5351   11 O    0 1-1
  12 O    1     2.8591     5.4030    7 C    0 0 0
  12 O    1     2.9733     5.6186    2 O    0 0 0
  12 O    1     2.9860     5.6428    1 C    0 0 0
  12 O    2     3.0615     5.7854    8 O    0 0 0    8 O    1 0 0


 SYMMETRY ALLOWED INTERNAL DEGREE(S) OF FREEDOM:  33
 TTTTTTTTTTTTTTTTTTTTTTTTTTTTTT SYMM        TELAPSE        0.68 TCPU        0.19
 TTTTTTTTTTTTTTTTTTTTTTTTTTTTTT INT_SCREEN  TELAPSE        0.68 TCPU        0.19
 INFORMATION **** EXCBUF **** EXCH. BIPO BUFFER: WORDS USED =      774216

 DFT PARAMETERS

     ATOM       ELECTRONS   NET CHARGE   R(ANGSTROM)
   1   6  C       6.0000      0.0000     0.77000000
   2   8  O       8.0000      0.0000     0.74000000

 SIZE OF GRID=     423064
 TTTTTTTTTTTTTTTTTTTTTTTTTTTTTT MAKE_GRID2  TELAPSE        1.17 TCPU        0.67
 BECKE WEIGHT FUNCTION
 RADSAFE =     2.00
 TOLERANCES - DENSITY:10**- 6; POTENTIAL:10**- 9; GRID WGT:10**-14

 RADIAL INTEGRATION  - INTERVALS (POINTS,UPPER LIMIT):            1( 75,  4.0*R)

 ANGULAR INTEGRATION - INTERVALS (ACCURACY LEVEL [N. POINTS] UPPER LIMIT):
  1(  4[  86]   0.2)  2(  8[ 194]   0.5)  3( 12[ 350]   0.9)  4( 16[ 974]   3.5)
  5( 12[ 350]9999.0)
 TTTTTTTTTTTTTTTTTTTTTTTTTTTTTT INT_CALC    TELAPSE        1.20 TCPU        0.71
 EEEEEEEEEE INT_CALC TERMINATION  DATE 18 05 2022 TIME 11:02:29.9

 *******************************************************************************
 DRY-ICE                                                                         
 CRYSTAL - SCF - TYPE OF CALCULATION :  RESTRICTED CLOSED SHELL
 *******************************************************************************

 CAPPA:IS1  8;IS2  8;IS3  8; K PTS MONK NET 260; SYMMOPS:K SPACE   2;G SPACE   1

 TTTTTTTTTTTTTTTTTTTTTTTTTTTTTT SDIK        TELAPSE        1.60 TCPU        1.03

 AAAAAAAAAAAAAAAAAAAAAAAAAAAAAAAAAAAAAAAAAAAAAAAAAAAAAAAAAAAAAAAAAAAAAAAAAAAAAAA
         ATOMIC WAVEFUNCTION(S)


 NUCLEAR CHARGE  6.0  SYMMETRY SPECIES            S    P
 N. ELECTRONS    6.0  NUMBER OF PRIMITIVE GTOS   10    6
                      NUMBER OF CONTRACTED GTOS   4    3
                      NUMBER OF CLOSED SHELLS     2    0
                      OPEN SHELL OCCUPATION       0    2

  ZNUC SCFIT  TOTAL HF ENERGY   KINETIC ENERGY   VIRIAL THEOREM ACCURACY
   6.0  10   -3.766702350E+01  3.783137943E+01 -1.995655566E+00  1.6E-06

 NUCLEAR CHARGE  8.0  SYMMETRY SPECIES            S    P
 N. ELECTRONS    8.0  NUMBER OF PRIMITIVE GTOS   10    6
                      NUMBER OF CONTRACTED GTOS   4    3
                      NUMBER OF CLOSED SHELLS     2    0
                      OPEN SHELL OCCUPATION       0    4

  ZNUC SCFIT  TOTAL HF ENERGY   KINETIC ENERGY   VIRIAL THEOREM ACCURACY
   8.0  13   -7.479377997E+01  7.483473100E+01 -1.999452780E+00  5.0E-06

 AAAAAAAAAAAAAAAAAAAAAAAAAAAAAAAAAAAAAAAAAAAAAAAAAAAAAAAAAAAAAAAAAAAAAAAAAAAAAAA

 CHARGE NORMALIZATION FACTOR   1.00000000
 TOTAL ATOMIC CHARGES:
   6.0000000   8.0000000   8.0000000   6.0000000   8.0000000   8.0000000
   6.0000000   8.0000000   8.0000000   6.0000000   8.0000000   8.0000000
 TTTTTTTTTTTTTTTTTTTTTTTTTTTTTT MOQGAD      TELAPSE        1.66 TCPU        1.09
 TTTTTTTTTTTTTTTTTTTTTTTTTTTTTT SHELLX2     TELAPSE       20.67 TCPU       20.04
 TTTTTTTTTTTTTTTTTTTTTTTTTTTTTT MONMO3      TELAPSE       22.03 TCPU       21.40
 NUMERICALLY INTEGRATED DENSITY     87.9999986737
 TTTTTTTTTTTTTTTTTTTTTTTTTTTTTT NUMDFT      TELAPSE       23.15 TCPU       22.52
 CYC   0 ETOT(AU) -7.559641593440E+02 DETOT -7.56E+02 tst  0.00E+00 PX  1.00E+00
 TTTTTTTTTTTTTTTTTTTTTTTTTTTTTT FDIK        TELAPSE       28.60 TCPU       27.93
 INSULATING STATE
 TOP OF VALENCE BANDS -    BAND     44; K    1; EIG -3.6853582E-01 AU
 BOTTOM OF VIRTUAL BANDS - BAND     45; K    1; EIG -8.1740792E-02 AU
 TTTTTTTTTTTTTTTTTTTTTTTTTTTTTT PDIG        TELAPSE       28.87 TCPU       28.20
 CHARGE NORMALIZATION FACTOR   1.00000000
 TOTAL ATOMIC CHARGES:
   4.5378253   8.7380124   8.7265303   4.4015447   8.9095700   8.6823334
   4.6234925   8.5624360   8.8190428   4.6010015   8.4301178   8.9680933
 TTTTTTTTTTTTTTTTTTTTTTTTTTTTTT MOQGAD      TELAPSE       28.88 TCPU       28.21
 TTTTTTTTTTTTTTTTTTTTTTTTTTTTTT SHELLX2     TELAPSE       49.08 TCPU       48.35
 TTTTTTTTTTTTTTTTTTTTTTTTTTTTTT MONMO3      TELAPSE       50.41 TCPU       49.68
 NUMERICALLY INTEGRATED DENSITY     88.0000009127
 TTTTTTTTTTTTTTTTTTTTTTTTTTTTTT NUMDFT      TELAPSE       53.82 TCPU       53.08
 CYC   1 ETOT(AU) -7.536096282061E+02 DETOT  2.35E+00 tst  0.00E+00 PX  1.00E+00
 TTTTTTTTTTTTTTTTTTTTTTTTTTTTTT FDIK        TELAPSE       56.18 TCPU       55.44
 INSULATING STATE
 TOP OF VALENCE BANDS -    BAND     44; K    1; EIG -2.4343956E-01 AU
 BOTTOM OF VIRTUAL BANDS - BAND     45; K    5; EIG -8.1362236E-02 AU
 BOTTOM OF VIRTUAL BANDS - BAND     45; K    1; EIG -8.1124445E-02 AU
 TTTTTTTTTTTTTTTTTTTTTTTTTTTTTT PDIG        TELAPSE       56.44 TCPU       55.68
 CHARGE NORMALIZATION FACTOR   1.00000000
 TOTAL ATOMIC CHARGES:
   5.0302877   8.4987316   8.4748330   5.0307051   8.5565817   8.4087829
   5.0784602   8.3425716   8.5839440   5.1025225   8.1861237   8.7064559
 TTTTTTTTTTTTTTTTTTTTTTTTTTTTTT MOQGAD      TELAPSE       56.45 TCPU       55.69
 TTTTTTTTTTTTTTTTTTTTTTTTTTTTTT SHELLX2     TELAPSE       76.65 TCPU       75.84
 TTTTTTTTTTTTTTTTTTTTTTTTTTTTTT MONMO3      TELAPSE       77.98 TCPU       77.16
 NUMERICALLY INTEGRATED DENSITY     88.0000020389
 TTTTTTTTTTTTTTTTTTTTTTTTTTTTTT NUMDFT      TELAPSE       81.38 TCPU       80.55
 CYC   2 ETOT(AU) -7.540101149750E+02 DETOT -4.00E-01 tst  1.97E-02 PX  1.61E-01
 TTTTTTTTTTTTTTTTTTTTTTTTTTTTTT FDIK        TELAPSE       83.62 TCPU       82.79
 INSULATING STATE
 TOP OF VALENCE BANDS -    BAND     44; K    1; EIG -3.0788700E-01 AU
 BOTTOM OF VIRTUAL BANDS - BAND     45; K    1; EIG -6.3282891E-02 AU
 TTTTTTTTTTTTTTTTTTTTTTTTTTTTTT PDIG        TELAPSE       83.87 TCPU       83.03
 CHARGE NORMALIZATION FACTOR   1.00000000
 TOTAL ATOMIC CHARGES:
   5.0355285   8.4948698   8.4731956   5.0384995   8.5440995   8.4163172
   5.0783357   8.3500078   8.5755728   5.1123150   8.2019864   8.6792722
 TTTTTTTTTTTTTTTTTTTTTTTTTTTTTT MOQGAD      TELAPSE       83.88 TCPU       83.04
 TTTTTTTTTTTTTTTTTTTTTTTTTTTTTT SHELLX2     TELAPSE      104.09 TCPU      103.19
 TTTTTTTTTTTTTTTTTTTTTTTTTTTTTT MONMO3      TELAPSE      105.39 TCPU      104.49
 NUMERICALLY INTEGRATED DENSITY     88.0000022131
 TTTTTTTTTTTTTTTTTTTTTTTTTTTTTT NUMDFT      TELAPSE      108.80 TCPU      107.89
 CYC   3 ETOT(AU) -7.540274289556E+02 DETOT -1.73E-02 tst  1.51E-04 PX  4.39E-02
 TTTTTTTTTTTTTTTTTTTTTTTTTTTTTT FDIK        TELAPSE      110.99 TCPU      110.06
 INSULATING STATE
 TOP OF VALENCE BANDS -    BAND     44; K    1; EIG -3.2087421E-01 AU
 BOTTOM OF VIRTUAL BANDS - BAND     45; K    1; EIG -5.5388483E-02 AU
 TTTTTTTTTTTTTTTTTTTTTTTTTTTTTT PDIG        TELAPSE      111.24 TCPU      110.32
 CHARGE NORMALIZATION FACTOR   1.00000000
 TOTAL ATOMIC CHARGES:
   4.9870943   8.5183850   8.4978359   4.9828656   8.5732595   8.4439746
   5.0312834   8.3758927   8.5960832   5.0657459   8.2313626   8.6962171
 TTTTTTTTTTTTTTTTTTTTTTTTTTTTTT MOQGAD      TELAPSE      111.25 TCPU      110.32
 TTTTTTTTTTTTTTTTTTTTTTTTTTTTTT SHELLX2     TELAPSE      131.45 TCPU      130.47
 TTTTTTTTTTTTTTTTTTTTTTTTTTTTTT MONMO3      TELAPSE      132.78 TCPU      131.79
 NUMERICALLY INTEGRATED DENSITY     88.0000021557
 TTTTTTTTTTTTTTTTTTTTTTTTTTTTTT NUMDFT      TELAPSE      136.18 TCPU      135.19
 CYC   4 ETOT(AU) -7.540325695155E+02 DETOT -5.14E-03 tst  5.12E-05 PX  2.79E-02
 TTTTTTTTTTTTTTTTTTTTTTTTTTTTTT FDIK        TELAPSE      138.28 TCPU      137.28
 INSULATING STATE
 TOP OF VALENCE BANDS -    BAND     44; K    1; EIG -3.1395389E-01 AU
 BOTTOM OF VIRTUAL BANDS - BAND     45; K    1; EIG -5.2478380E-02 AU
 TTTTTTTTTTTTTTTTTTTTTTTTTTTTTT PDIG        TELAPSE      138.53 TCPU      137.53
 CHARGE NORMALIZATION FACTOR   1.00000000
 TOTAL ATOMIC CHARGES:
   4.9891771   8.5176790   8.4964853   4.9926946   8.5658229   8.4419102
   5.0319776   8.3774546   8.5936426   5.0696104   8.2324805   8.6910653
 TTTTTTTTTTTTTTTTTTTTTTTTTTTTTT MOQGAD      TELAPSE      138.54 TCPU      137.54
 TTTTTTTTTTTTTTTTTTTTTTTTTTTTTT SHELLX2     TELAPSE      158.75 TCPU      157.70
 TTTTTTTTTTTTTTTTTTTTTTTTTTTTTT MONMO3      TELAPSE      160.05 TCPU      158.99
 NUMERICALLY INTEGRATED DENSITY     88.0000021694
 TTTTTTTTTTTTTTTTTTTTTTTTTTTTTT NUMDFT      TELAPSE      163.46 TCPU      162.39
 CYC   5 ETOT(AU) -7.540329673753E+02 DETOT -3.98E-04 tst  1.47E-05 PX  5.88E-03
 TTTTTTTTTTTTTTTTTTTTTTTTTTTTTT FDIK        TELAPSE      165.49 TCPU      164.41
 INSULATING STATE
 TOP OF VALENCE BANDS -    BAND     44; K    1; EIG -3.1379939E-01 AU
 BOTTOM OF VIRTUAL BANDS - BAND     45; K    1; EIG -5.2324809E-02 AU
 TTTTTTTTTTTTTTTTTTTTTTTTTTTTTT PDIG        TELAPSE      165.74 TCPU      164.66
 CHARGE NORMALIZATION FACTOR   1.00000000
 TOTAL ATOMIC CHARGES:
   4.9942428   8.5151676   8.4939554   4.9994413   8.5617036   8.4394191
   5.0367365   8.3756931   8.5905720   5.0755788   8.2309139   8.6865760
 TTTTTTTTTTTTTTTTTTTTTTTTTTTTTT MOQGAD      TELAPSE      165.75 TCPU      164.67
 TTTTTTTTTTTTTTTTTTTTTTTTTTTTTT SHELLX2     TELAPSE      185.96 TCPU      184.82
 TTTTTTTTTTTTTTTTTTTTTTTTTTTTTT MONMO3      TELAPSE      187.26 TCPU      186.12
 NUMERICALLY INTEGRATED DENSITY     88.0000021866
 TTTTTTTTTTTTTTTTTTTTTTTTTTTTTT NUMDFT      TELAPSE      190.67 TCPU      189.52
 CYC   6 ETOT(AU) -7.540330486115E+02 DETOT -8.12E-05 tst  7.04E-06 PX  1.76E-03
 TTTTTTTTTTTTTTTTTTTTTTTTTTTTTT FDIK        TELAPSE      192.71 TCPU      191.55
 INSULATING STATE
 TOP OF VALENCE BANDS -    BAND     44; K    1; EIG -3.1502250E-01 AU
 BOTTOM OF VIRTUAL BANDS - BAND     45; K    1; EIG -5.2470918E-02 AU
 TTTTTTTTTTTTTTTTTTTTTTTTTTTTTT PDIG        TELAPSE      192.96 TCPU      191.81
 CHARGE NORMALIZATION FACTOR   1.00000000
 TOTAL ATOMIC CHARGES:
   4.9939658   8.5152352   8.4941607   4.9983551   8.5624787   8.4398043
   5.0367070   8.3758401   8.5903981   5.0754993   8.2313310   8.6862248
 TTTTTTTTTTTTTTTTTTTTTTTTTTTTTT MOQGAD      TELAPSE      192.97 TCPU      191.81
 TTTTTTTTTTTTTTTTTTTTTTTTTTTTTT SHELLX2     TELAPSE      213.15 TCPU      211.94
 TTTTTTTTTTTTTTTTTTTTTTTTTTTTTT MONMO3      TELAPSE      214.49 TCPU      213.27
 NUMERICALLY INTEGRATED DENSITY     88.0000021885
 TTTTTTTTTTTTTTTTTTTTTTTTTTTTTT NUMDFT      TELAPSE      217.92 TCPU      216.70
 CYC   7 ETOT(AU) -7.540330784749E+02 DETOT -2.99E-05 tst  1.12E-06 PX  1.66E-03
 TTTTTTTTTTTTTTTTTTTTTTTTTTTTTT FDIK        TELAPSE      219.88 TCPU      218.64
 INSULATING STATE
 TOP OF VALENCE BANDS -    BAND     44; K    1; EIG -3.1516633E-01 AU
 BOTTOM OF VIRTUAL BANDS - BAND     45; K    1; EIG -5.2487599E-02 AU
 TTTTTTTTTTTTTTTTTTTTTTTTTTTTTT PDIG        TELAPSE      220.13 TCPU      218.90
 CHARGE NORMALIZATION FACTOR   1.00000000
 TOTAL ATOMIC CHARGES:
   4.9935345   8.5154466   8.4943814   4.9980606   8.5625768   8.4400334
   5.0363304   8.3761659   8.5904151   5.0751617   8.2317252   8.6861685
 TTTTTTTTTTTTTTTTTTTTTTTTTTTTTT MOQGAD      TELAPSE      220.14 TCPU      218.90
 TTTTTTTTTTTTTTTTTTTTTTTTTTTTTT SHELLX2     TELAPSE      240.32 TCPU      239.03
 TTTTTTTTTTTTTTTTTTTTTTTTTTTTTT MONMO3      TELAPSE      241.65 TCPU      240.35
 NUMERICALLY INTEGRATED DENSITY     88.0000021884
 TTTTTTTTTTTTTTTTTTTTTTTTTTTTTT NUMDFT      TELAPSE      245.07 TCPU      243.76
 CYC   8 ETOT(AU) -7.540330866655E+02 DETOT -8.19E-06 tst  6.36E-07 PX  7.36E-04
 TTTTTTTTTTTTTTTTTTTTTTTTTTTTTT FDIK        TELAPSE      246.94 TCPU      245.63
 INSULATING STATE
 TOP OF VALENCE BANDS -    BAND     44; K    1; EIG -3.1513865E-01 AU
 BOTTOM OF VIRTUAL BANDS - BAND     45; K    1; EIG -5.2486896E-02 AU
 TTTTTTTTTTTTTTTTTTTTTTTTTTTTTT PDIG        TELAPSE      247.19 TCPU      245.88
 CHARGE NORMALIZATION FACTOR   1.00000000
 TOTAL ATOMIC CHARGES:
   4.9936009   8.5154143   8.4943510   4.9983518   8.5623432   8.4399896
   5.0363853   8.3762288   8.5902787   5.0753042   8.2318178   8.6859345
 TTTTTTTTTTTTTTTTTTTTTTTTTTTTTT MOQGAD      TELAPSE      247.20 TCPU      245.89
 TTTTTTTTTTTTTTTTTTTTTTTTTTTTTT SHELLX2     TELAPSE      267.39 TCPU      266.02
 TTTTTTTTTTTTTTTTTTTTTTTTTTTTTT MONMO3      TELAPSE      268.71 TCPU      267.34
 NUMERICALLY INTEGRATED DENSITY     88.0000021891
 TTTTTTTTTTTTTTTTTTTTTTTTTTTTTT NUMDFT      TELAPSE      272.13 TCPU      270.76
 CYC   9 ETOT(AU) -7.540330891039E+02 DETOT -2.44E-06 tst  3.60E-07 PX  4.03E-04
 TTTTTTTTTTTTTTTTTTTTTTTTTTTTTT FDIK        TELAPSE      274.07 TCPU      272.68
 INSULATING STATE
 TOP OF VALENCE BANDS -    BAND     44; K    1; EIG -3.1518934E-01 AU
 BOTTOM OF VIRTUAL BANDS - BAND     45; K    1; EIG -5.2492525E-02 AU
 TTTTTTTTTTTTTTTTTTTTTTTTTTTTTT PDIG        TELAPSE      274.32 TCPU      272.93
 CHARGE NORMALIZATION FACTOR   1.00000000
 TOTAL ATOMIC CHARGES:
   4.9936395   8.5153921   8.4943364   4.9984023   8.5623086   8.4399807
   5.0364298   8.3762503   8.5902005   5.0753698   8.2318746   8.6858154
 TTTTTTTTTTTTTTTTTTTTTTTTTTTTTT MOQGAD      TELAPSE      274.33 TCPU      272.94
 TTTTTTTTTTTTTTTTTTTTTTTTTTTTTT SHELLX2     TELAPSE      294.51 TCPU      293.07
 TTTTTTTTTTTTTTTTTTTTTTTTTTTTTT MONMO3      TELAPSE      295.85 TCPU      294.40
 NUMERICALLY INTEGRATED DENSITY     88.0000021896
 TTTTTTTTTTTTTTTTTTTTTTTTTTTTTT NUMDFT      TELAPSE      299.28 TCPU      297.82
 CYC  10 ETOT(AU) -7.540330900711E+02 DETOT -9.67E-07 tst  1.77E-07 PX  2.98E-04
 TTTTTTTTTTTTTTTTTTTTTTTTTTTTTT FDIK        TELAPSE      303.03 TCPU      299.71
 INSULATING STATE
 TOP OF VALENCE BANDS -    BAND     44; K    1; EIG -3.1522390E-01 AU
 BOTTOM OF VIRTUAL BANDS - BAND     45; K    1; EIG -5.2497516E-02 AU
 TTTTTTTTTTTTTTTTTTTTTTTTTTTTTT PDIG        TELAPSE      303.28 TCPU      299.96
 CHARGE NORMALIZATION FACTOR   1.00000000
 TOTAL ATOMIC CHARGES:
   4.9936248   8.5153977   8.4943466   4.9983723   8.5623120   8.4400101
   5.0364241   8.3762807   8.5901682   5.0753609   8.2319288   8.6857737
 TTTTTTTTTTTTTTTTTTTTTTTTTTTTTT MOQGAD      TELAPSE      303.29 TCPU      299.97
 TTTTTTTTTTTTTTTTTTTTTTTTTTTTTT SHELLX2     TELAPSE      323.44 TCPU      320.07
 +++ ENERGIES IN A.U. +++
 ::: EXT EL-POLE                                  -8.0785719856306E+02
 ::: EXT EL-SPHEROPOLE                             9.9247891214582E+00
 ::: BIELET ZONE E-E                               1.0149756265765E+03
 ::: TOTAL E-E                                     2.1704321713488E+02
 ::: TOTAL E-N + N-E                              -1.5024151361419E+03
 ::: TOTAL N-N                                    -1.4716774862302E+02
 ::: KINETIC ENERGY                                7.5108198081934E+02
 ::: PSEUDO TOTAL   ENERGY                        -6.8145768681068E+02
 ::: VIRIAL COEFFICIENT                            1.0486020007557E+00
 TTTTTTTTTTTTTTTTTTTTTTTTTTTTTT MONMO3      TELAPSE      324.79 TCPU      321.41
 NUMERICALLY INTEGRATED DENSITY     88.0000021899
 TTTTTTTTTTTTTTTTTTTTTTTTTTTTTT NUMDFT      TELAPSE      328.22 TCPU      324.84
 CYC  11 ETOT(AU) -7.540330904639E+02 DETOT -3.93E-07 tst  9.00E-08 PX  2.98E-04

 == SCF ENDED - CONVERGENCE ON ENERGY      E(AU) -7.5403309046388E+02 CYCLES  11


 ENERGY EXPRESSION=HARTREE+FOCK EXCH*0.20000+(BECKE      EXCH)*0.80000+LYP        CORR


 TOTAL ENERGY(DFT)(AU)( 11) -7.5403309046388E+02 DE-3.9E-07 tester 9.0E-08
 TTTTTTTTTTTTTTTTTTTTTTTTTTTTTT EDFT        TELAPSE      328.22 TCPU      324.84
 EIGENVECTORS IN FORTRAN UNIT 10
 TTTTTTTTTTTTTTTTTTTTTTTTTTTTTT END         TELAPSE      328.49 TCPU      325.08
 EEEEEEEEEE TERMINATION  DATE 18 05 2022 TIME 11:07:57.2
NODE    0 CPU TIME =       325.083
NODE    1 CPU TIME =       325.010
NODE    2 CPU TIME =       325.107
NODE    3 CPU TIME =       325.069
NODE    4 CPU TIME =       325.196
NODE    5 CPU TIME =       325.122
NODE    6 CPU TIME =       325.148
NODE    7 CPU TIME =       325.153
NODE    8 CPU TIME =       325.127
NODE    9 CPU TIME =       325.100
    TOTAL CPU TIME =      3251.116
