          10 PROCESSORS WORKING

         
 *******************************************************************************
 *                                                                             *
 *                               CRYSTAL14                                     *
 *                      public : 1.0.4 - Feb 23rd, 2016                        *
 *                       HTTP://WWW.CRYSTAL.UNITO.IT                           *
 *                                                                             *
 *                              MAIN AUTHORS                                   *
 *                                                                             *
 *  R. DOVESI(1,11), V.R. SAUNDERS(2), C. ROETTI(1,11), R. ORLANDO(1,11),      *
 *  C.M. ZICOVICH-WILSON(1,3), F. PASCALE(4), B. CIVALLERI(1,11),              *
 *  K. DOLL(5), N.M. HARRISON(2,6), I. J. BUSH(7), Ph. D'ARCO(8),              *
 *  M. LLUNELL(9), M. CAUSA'(10), Y. NOEL(8)                                   *
 *                                                                             *
 *        CONTRIBUTIONS TO THE CURRENT RELEASE HAVE BEEN GIVEN BY              *
 *                                                                             *
 *  L. MASCHIO(1,11), S. CASASSA(1,11), A. ERBA(1,11), M. FERRABONE(1,11),     *
 *  M. DE LA PIERRE(1,11), M. FERRERO(1,11), V. LACIVITA(1,11),                *
 *  J. BAIMA(1,11), E. ALBANESE(1,11), M.F. PEINTINGER(12), R. BAST(13),       *
 *  M. RERAT(14), B. KIRTMAN(15), R. DEMICHELIS(1,16)                          *
 *                                                                             *
 * (1) THEORETICAL CHEMISTRY GROUP - UNIVERSITA' DI TORINO - TORINO (ITALY)    *
 *     http://www.crystal.unito.it                                             *
 * (2) COMPUTATIONAL SCIENCE & ENGINEERING DEPARTMENT - STFC DARESBURY (UK)    *
 *     http://www.stfc.ac.uk/CSE/randd/cmg/CRYSTAL/25806.aspx                  *
 * (3) UNIVERSIDAD AUTONOMA DEL ESTADO DE MORELOS - CUERNAVACA (MEXICO)        *
 * (4) UNIVERSITE' DE LORRAINE - NANCY (FRANCE)                                *
 * (5) UNIVERSITAET ULM - ULM (GERMANY); (6) IMPERIAL COLLEGE - LONDON (UK)    *
 * (7) NAG - OXFORD (UK); (8) UPMC - SORBONNE UNIVERSITES - PARIS (FRANCE)     *
 * (9) UNIVERSIDAD DE BARCELONA - BARCELONA (SPAIN)                            *
 *(10) UNIVERSITA' DI NAPOLI "FEDERICO II" - NAPOLI (ITALY)                    *
 *(11) NIS - NANOSTRUCTURED INTERFACES AND SURFACES - TORINO (ITALY)           *
 *(12) MPI FUER CHEMISCHE ENERGIEKONVERSION - MUELHEIM AN DER RUHR (GERMANY)   *
 *(13) UNIVERSITY OF STOCKHOLM - STOCKHOLM (SWEDEN)                            *
 *(14) UNIVERSITE' DE PAU ET DES PAYS DE L'ADOUR - PAU (FRANCE)                *
 *(15) UNIVERSITY OF CALIFORNIA SANTA BARBARA - SANTA BARBARA (USA)            *
 *(16) CURTIN UNIVERSITY - PERTH (AUSTRALIA)                                   *
 *                                                                             *
 ********************************************************************************
 EEEEEEEEEE STARTING  DATE 18 05 2022 TIME 15:14:01.0
 DRY-ICE                                                                         

 CRYSTAL CALCULATION
 (INPUT ACCORDING TO THE INTERNATIONAL TABLES FOR X-RAY CRYSTALLOGRAPHY)
 CRYSTAL FAMILY                       :  TRICLINIC   
 CRYSTAL CLASS  (GROTH - 1921)        :  TRICLINIC PEDIAL                     

 SPACE GROUP (NONCENTROSYMMETRIC)     :  P 1             

 LATTICE PARAMETERS  (ANGSTROMS AND DEGREES) - CONVENTIONAL CELL
        A           B           C        ALPHA        BETA       GAMMA
     5.63000     5.63000     5.63000    90.00000    90.00000    90.00000


 NUMBER OF IRREDUCIBLE ATOMS IN THE CONVENTIONAL CELL:   12

 INPUT COORDINATES

 ATOM AT. N.              COORDINATES
   1   6     1.000000000000E-02 -1.000000000000E-02  0.000000000000E+00
   2   8     1.200000000000E-01  1.200000000000E-01  1.200000000000E-01
   3   8    -1.100000000000E-01 -1.100000000000E-01 -1.400000000000E-01
   4   6     4.900000000000E-01  1.000000000000E-02  5.000000000000E-01
   5   8     4.200000000000E-01 -1.200000000000E-01 -3.600000000000E-01
   6   8    -3.900000000000E-01  1.100000000000E-01  3.600000000000E-01
   7   6     4.900000000000E-01  4.900000000000E-01  0.000000000000E+00
   8   8    -3.600000000000E-01  4.000000000000E-01 -1.200000000000E-01
   9   8     4.100000000000E-01 -3.700000000000E-01  1.400000000000E-01
  10   6    -1.000000000000E-02  4.900000000000E-01  5.000000000000E-01
  11   8    -1.100000000000E-01 -3.500000000000E-01  3.700000000000E-01
  12   8     1.500000000000E-01  3.900000000000E-01 -4.100000000000E-01

 *******************************************************************************

 << INFORMATION >>: FROM NOW ON, ALL COORDINATES REFER TO THE PRIMITIVE CELL

 *******************************************************************************

 LATTICE PARAMETERS  (ANGSTROMS AND DEGREES) - PRIMITIVE CELL
       A          B          C        ALPHA      BETA     GAMMA        VOLUME
    5.63000    5.63000    5.63000    90.00000  90.00000  90.00000    178.453547

 COORDINATES OF THE EQUIVALENT ATOMS (FRACTIONAL UNITS)

 N. ATOM EQUIV AT. N.          X                  Y                  Z

   1   1   1    6 C     1.00000000000E-02 -1.00000000000E-02  0.00000000000E+00

   2   2   1    8 O     1.20000000000E-01  1.20000000000E-01  1.20000000000E-01

   3   3   1    8 O    -1.10000000000E-01 -1.10000000000E-01 -1.40000000000E-01

   4   4   1    6 C     4.90000000000E-01  1.00000000000E-02 -5.00000000000E-01

   5   5   1    8 O     4.20000000000E-01 -1.20000000000E-01 -3.60000000000E-01

   6   6   1    8 O    -3.90000000000E-01  1.10000000000E-01  3.60000000000E-01

   7   7   1    6 C     4.90000000000E-01  4.90000000000E-01  0.00000000000E+00

   8   8   1    8 O    -3.60000000000E-01  4.00000000000E-01 -1.20000000000E-01

   9   9   1    8 O     4.10000000000E-01 -3.70000000000E-01  1.40000000000E-01

  10  10   1    6 C    -1.00000000000E-02  4.90000000000E-01 -5.00000000000E-01

  11  11   1    8 O    -1.10000000000E-01 -3.50000000000E-01  3.70000000000E-01

  12  12   1    8 O     1.50000000000E-01  3.90000000000E-01 -4.10000000000E-01

 NUMBER OF SYMMETRY OPERATORS         :    1
 *******************************************************************************
 * GEOMETRY EDITING - INPUT COORDINATES ARE GIVEN IN ANGSTROM         
 *******************************************************************************

 GCALCO - MAX INDICES DIRECT LATTICE VECTOR    14    14    14
 NO.OF VECTORS CREATED 6999 STARS  120 RMAX   126.33300 BOHR

 GEOMETRY FOR WAVE FUNCTION - DIMENSIONALITY OF THE SYSTEM    3
 (NON PERIODIC DIRECTION: LATTICE PARAMETER FORMALLY SET TO 500)
 *******************************************************************************
 LATTICE PARAMETERS (ANGSTROMS AND DEGREES) - BOHR = 0.5291772083 ANGSTROM
 PRIMITIVE CELL - CENTRING CODE 1/0 VOLUME=   178.453547 - DENSITY  1.637 g/cm^3
         A              B              C           ALPHA      BETA       GAMMA 
     5.63000000     5.63000000     5.63000000    90.000000  90.000000  90.000000
 *******************************************************************************
 ATOMS IN THE ASYMMETRIC UNIT   12 - ATOMS IN THE UNIT CELL:   12
     ATOM              X/A                 Y/B                 Z/C    
 *******************************************************************************
   1 T   6 C     1.000000000000E-02 -1.000000000000E-02  0.000000000000E+00
   2 T   8 O     1.200000000000E-01  1.200000000000E-01  1.200000000000E-01
   3 T   8 O    -1.100000000000E-01 -1.100000000000E-01 -1.400000000000E-01
   4 T   6 C     4.900000000000E-01  1.000000000000E-02 -5.000000000000E-01
   5 T   8 O     4.200000000000E-01 -1.200000000000E-01 -3.600000000000E-01
   6 T   8 O    -3.900000000000E-01  1.100000000000E-01  3.600000000000E-01
   7 T   6 C     4.900000000000E-01  4.900000000000E-01  0.000000000000E+00
   8 T   8 O    -3.600000000000E-01  4.000000000000E-01 -1.200000000000E-01
   9 T   8 O     4.100000000000E-01 -3.700000000000E-01  1.400000000000E-01
  10 T   6 C    -1.000000000000E-02  4.900000000000E-01 -5.000000000000E-01
  11 T   8 O    -1.100000000000E-01 -3.500000000000E-01  3.700000000000E-01
  12 T   8 O     1.500000000000E-01  3.900000000000E-01 -4.100000000000E-01

 T = ATOM BELONGING TO THE ASYMMETRIC UNIT

 ****    1 SYMMOPS - TRANSLATORS IN FRACTIONAL UNITS
 **** MATRICES AND TRANSLATORS IN THE CRYSTALLOGRAPHIC REFERENCE FRAME
   V INV                    ROTATION MATRICES                   TRANSLATORS
   1   1  1.00  0.00  0.00  0.00  1.00  0.00  0.00  0.00  1.00  0.00  0.00  0.00

 DIRECT LATTICE VECTORS CARTESIAN COMPONENTS (ANGSTROM)
          X                    Y                    Z
   0.563000000000E+01   0.344738073960E-15   0.000000000000E+00
   0.000000000000E+00   0.563000000000E+01   0.000000000000E+00
   0.344738073960E-15   0.344738073960E-15   0.563000000000E+01


 CARTESIAN COORDINATES - PRIMITIVE CELL
 *******************************************************************************
 *      ATOM          X(ANGSTROM)         Y(ANGSTROM)         Z(ANGSTROM)
 *******************************************************************************
    1     6 C     5.630000000000E-02 -5.630000000000E-02  0.000000000000E+00
    2     8 O     6.756000000000E-01  6.756000000000E-01  6.756000000000E-01
    3     8 O    -6.193000000000E-01 -6.193000000000E-01 -7.882000000000E-01
    4     6 C     2.758700000000E+00  5.630000000000E-02  2.815000000000E+00
    5     8 O     2.364600000000E+00 -6.756000000000E-01 -2.026800000000E+00
    6     8 O    -2.195700000000E+00  6.193000000000E-01  2.026800000000E+00
    7     6 C     2.758700000000E+00  2.758700000000E+00  0.000000000000E+00
    8     8 O    -2.026800000000E+00  2.252000000000E+00 -6.756000000000E-01
    9     8 O     2.308300000000E+00 -2.083100000000E+00  7.882000000000E-01
   10     6 C    -5.630000000000E-02  2.758700000000E+00  2.815000000000E+00
   11     8 O    -6.193000000000E-01 -1.970500000000E+00  2.083100000000E+00
   12     8 O     8.445000000000E-01  2.195700000000E+00 -2.308300000000E+00

 *******************************************************************************
 STARTING BASIS SET HANDLING 
 *******************************************************************************

 Loading internal basis set: POB-TZVP            

 Please cite in your publication:
 Peintinger, M. F., Oliveira, D. V. and Bredow, T. (2013), Consistent Gaussian b
 asis sets of triple-zeta valence with polarization quality for solid-state calc
 ulations. J. Comput. Chem., 34: 451–459. doi: 10.1002/jcc.23153              
                    

 *******************************************************************************
 LOCAL ATOMIC FUNCTIONS BASIS SET
 *******************************************************************************
   ATOM   X(AU)   Y(AU)   Z(AU)  N. TYPE  EXPONENT  S COEF   P COEF   D/F/G COEF
 *******************************************************************************
   1 C    0.106  -0.106   0.000
                                  1 S  
                                         1.358E+04 2.225E-04 0.000E+00 0.000E+00
                                         2.035E+03 1.723E-03 0.000E+00 0.000E+00
                                         4.632E+02 8.926E-03 0.000E+00 0.000E+00
                                         1.312E+02 3.573E-02 0.000E+00 0.000E+00
                                         4.285E+01 1.108E-01 0.000E+00 0.000E+00
                                         1.558E+01 2.430E-01 0.000E+00 0.000E+00
                                  2 S  
                                         6.207E+00 4.144E-01 0.000E+00 0.000E+00
                                         2.576E+00 2.374E-01 0.000E+00 0.000E+00
                                  3 S  
                                         4.941E-01 1.000E+00 0.000E+00 0.000E+00
                                  4 S  
                                         1.644E-01 1.000E+00 0.000E+00 0.000E+00
                             5-   7 P  
                                         3.470E+01 0.000E+00 5.333E-03 0.000E+00
                                         7.958E+00 0.000E+00 3.586E-02 0.000E+00
                                         2.378E+00 0.000E+00 1.422E-01 0.000E+00
                                         8.143E-01 0.000E+00 3.427E-01 0.000E+00
                             8-  10 P  
                                         5.662E-01 0.000E+00 1.000E+00 0.000E+00
                            11-  13 P  
                                         2.674E-01 0.000E+00 1.000E+00 0.000E+00
                            14-  18 D  
                                         8.792E-01 0.000E+00 0.000E+00 1.000E+00
   2 O    1.277   1.277   1.277
                                 19 S  
                                         2.703E+04 2.173E-04 0.000E+00 0.000E+00
                                         4.052E+03 1.684E-03 0.000E+00 0.000E+00
                                         9.223E+02 8.740E-03 0.000E+00 0.000E+00
                                         2.612E+02 3.524E-02 0.000E+00 0.000E+00
                                         8.535E+01 1.115E-01 0.000E+00 0.000E+00
                                         3.104E+01 2.559E-01 0.000E+00 0.000E+00
                                 20 S  
                                         1.226E+01 3.977E-01 0.000E+00 0.000E+00
                                         4.999E+00 2.463E-01 0.000E+00 0.000E+00
                                 21 S  
                                         8.479E-01 1.000E+00 0.000E+00 0.000E+00
                                 22 S  
                                         1.851E-01 1.000E+00 0.000E+00 0.000E+00
                            23-  25 P  
                                         6.327E+01 0.000E+00 6.069E-03 0.000E+00
                                         1.463E+01 0.000E+00 4.191E-02 0.000E+00
                                         4.450E+00 0.000E+00 1.615E-01 0.000E+00
                                         1.528E+00 0.000E+00 3.571E-01 0.000E+00
                            26-  28 P  
                                         5.490E-01 0.000E+00 1.000E+00 0.000E+00
                            29-  31 P  
                                         1.824E-01 0.000E+00 1.000E+00 0.000E+00
                            32-  36 D  
                                         5.000E-01 0.000E+00 0.000E+00 1.000E+00
   3 O   -1.170  -1.170  -1.489
   4 C    5.213   0.106   5.320
   5 O    4.468  -1.277  -3.830
   6 O   -4.149   1.170   3.830
   7 C    5.213   5.213   0.000
   8 O   -3.830   4.256  -1.277
   9 O    4.362  -3.936   1.489
  10 C   -0.106   5.213   5.320
  11 O   -1.170  -3.724   3.936
  12 O    1.596   4.149  -4.362

 *******************************************************************************
 FINISHED BASIS SET HANDLING 
 *******************************************************************************

 INFORMATION **** SET_MPP **** PCRYSTAL CALCULATION
 INFORMATION **** READM2 **** NEW DEFAULT: FOCK/KS MATRIX MIXING SET TO 30 %
 INFORMATION **** READM2 **** NEW DEFAULT: FULL DIRECT SCF MODE
 INFORMATION **** READM2 **** NEW DEFAULT: COULOMB BIPOLAR BUFFER SET TO 32 Mb
 INFORMATION **** READM2 **** NEW DEFAULT: EXCHANGE BIPOLAR BUFFER SET TO 32 Mb

 *******************************************************************************
 NEW DEFAULT: DFT INTEGRATION GRID INCREASED TO XLGRID
 NEW DEFAULT: LEVEL SHIFTER 6 0
 IF THE SYSTEM IS A METAL USE KEYWORD NOSHIFT
 *******************************************************************************

 *******************************************************************************
 N. OF ATOMS PER CELL        12  COULOMB OVERLAP TOL         (T1) 10**   -6
 NUMBER OF SHELLS            96  COULOMB PENETRATION TOL     (T2) 10**   -6
 NUMBER OF AO               216  EXCHANGE OVERLAP TOL        (T3) 10**   -6
 N. OF ELECTRONS PER CELL    88  EXCHANGE PSEUDO OVP (F(G))  (T4) 10**   -6
 CORE ELECTRONS PER CELL     24  EXCHANGE PSEUDO OVP (P(G))  (T5) 10**  -12
 N. OF SYMMETRY OPERATORS     1  POLE ORDER IN MONO ZONE                  4
 *******************************************************************************
 TYPE OF CALCULATION :  RESTRICTED CLOSED SHELL
 KOHN-SHAM HAMILTONIAN

 (EXCHANGE)[CORRELATION] FUNCTIONAL:(BECKE 88)[LEE-YANG-PARR]

 NON-LOCAL WEIGHTING FACTOR (EXCHANGE) =           0.9000
 NON-LOCAL WEIGHTING FACTOR [CORRELATION] =        0.8100

 HYBRID EXCHANGE - PERCENTAGE OF FOCK EXCHANGE    20.0000
 EIGENVALUE LEVEL SHIFTING OF  0.600 HARTREE

 CAPPA:IS1  8;IS2  8;IS3  8; K PTS MONK NET 260; SYMMOPS:K SPACE   2;G SPACE   1

 *******************************************************************************
 MAX NUMBER OF SCF CYCLES      50  CONVERGENCE ON DELTAP        10**-16
 WEIGHT OF F(I) IN F(I+1)      30% CONVERGENCE ON ENERGY        10**- 6
 EIGENVALUE LEVEL SHIFTING OF  0.600 HARTREE
 SHRINK. FACT.(MONKH.)    8  8  8  NUMBER OF K POINTS IN THE IBZ    260
 SHRINKING FACTOR(GILAT NET)    8  NUMBER OF K POINTS(GILAT NET)    260
 *******************************************************************************
 *** K POINTS COORDINATES (OBLIQUE COORDINATES IN UNITS OF IS =  8)
   1-R(  0  0  0)   2-C(  1  0  0)   3-C(  2  0  0)   4-C(  3  0  0)
   5-R(  4  0  0)   6-C(  0  1  0)   7-C(  1  1  0)   8-C(  2  1  0)
   9-C(  3  1  0)  10-C(  4  1  0)  11-C(  5  1  0)  12-C(  6  1  0)
  13-C(  7  1  0)  14-C(  0  2  0)  15-C(  1  2  0)  16-C(  2  2  0)
  17-C(  3  2  0)  18-C(  4  2  0)  19-C(  5  2  0)  20-C(  6  2  0)
  21-C(  7  2  0)  22-C(  0  3  0)  23-C(  1  3  0)  24-C(  2  3  0)
  25-C(  3  3  0)  26-C(  4  3  0)  27-C(  5  3  0)  28-C(  6  3  0)
  29-C(  7  3  0)  30-R(  0  4  0)  31-C(  1  4  0)  32-C(  2  4  0)
  33-C(  3  4  0)  34-R(  4  4  0)  35-C(  0  0  1)  36-C(  1  0  1)
  37-C(  2  0  1)  38-C(  3  0  1)  39-C(  4  0  1)  40-C(  5  0  1)
  41-C(  6  0  1)  42-C(  7  0  1)  43-C(  0  1  1)  44-C(  1  1  1)
  45-C(  2  1  1)  46-C(  3  1  1)  47-C(  4  1  1)  48-C(  5  1  1)
  49-C(  6  1  1)  50-C(  7  1  1)  51-C(  0  2  1)  52-C(  1  2  1)
  53-C(  2  2  1)  54-C(  3  2  1)  55-C(  4  2  1)  56-C(  5  2  1)
  57-C(  6  2  1)  58-C(  7  2  1)  59-C(  0  3  1)  60-C(  1  3  1)
  61-C(  2  3  1)  62-C(  3  3  1)  63-C(  4  3  1)  64-C(  5  3  1)
  65-C(  6  3  1)  66-C(  7  3  1)  67-C(  0  4  1)  68-C(  1  4  1)
  69-C(  2  4  1)  70-C(  3  4  1)  71-C(  4  4  1)  72-C(  5  4  1)
  73-C(  6  4  1)  74-C(  7  4  1)  75-C(  0  5  1)  76-C(  1  5  1)
  77-C(  2  5  1)  78-C(  3  5  1)  79-C(  4  5  1)  80-C(  5  5  1)
  81-C(  6  5  1)  82-C(  7  5  1)  83-C(  0  6  1)  84-C(  1  6  1)
  85-C(  2  6  1)  86-C(  3  6  1)  87-C(  4  6  1)  88-C(  5  6  1)
  89-C(  6  6  1)  90-C(  7  6  1)  91-C(  0  7  1)  92-C(  1  7  1)
  93-C(  2  7  1)  94-C(  3  7  1)  95-C(  4  7  1)  96-C(  5  7  1)
  97-C(  6  7  1)  98-C(  7  7  1)  99-C(  0  0  2) 100-C(  1  0  2)
 101-C(  2  0  2) 102-C(  3  0  2) 103-C(  4  0  2) 104-C(  5  0  2)
 105-C(  6  0  2) 106-C(  7  0  2) 107-C(  0  1  2) 108-C(  1  1  2)
 109-C(  2  1  2) 110-C(  3  1  2) 111-C(  4  1  2) 112-C(  5  1  2)
 113-C(  6  1  2) 114-C(  7  1  2) 115-C(  0  2  2) 116-C(  1  2  2)
 117-C(  2  2  2) 118-C(  3  2  2) 119-C(  4  2  2) 120-C(  5  2  2)
 121-C(  6  2  2) 122-C(  7  2  2) 123-C(  0  3  2) 124-C(  1  3  2)
 125-C(  2  3  2) 126-C(  3  3  2) 127-C(  4  3  2) 128-C(  5  3  2)
 129-C(  6  3  2) 130-C(  7  3  2) 131-C(  0  4  2) 132-C(  1  4  2)
 133-C(  2  4  2) 134-C(  3  4  2) 135-C(  4  4  2) 136-C(  5  4  2)
 137-C(  6  4  2) 138-C(  7  4  2) 139-C(  0  5  2) 140-C(  1  5  2)
 141-C(  2  5  2) 142-C(  3  5  2) 143-C(  4  5  2) 144-C(  5  5  2)
 145-C(  6  5  2) 146-C(  7  5  2) 147-C(  0  6  2) 148-C(  1  6  2)
 149-C(  2  6  2) 150-C(  3  6  2) 151-C(  4  6  2) 152-C(  5  6  2)
 153-C(  6  6  2) 154-C(  7  6  2) 155-C(  0  7  2) 156-C(  1  7  2)
 157-C(  2  7  2) 158-C(  3  7  2) 159-C(  4  7  2) 160-C(  5  7  2)
 161-C(  6  7  2) 162-C(  7  7  2) 163-C(  0  0  3) 164-C(  1  0  3)
 165-C(  2  0  3) 166-C(  3  0  3) 167-C(  4  0  3) 168-C(  5  0  3)
 169-C(  6  0  3) 170-C(  7  0  3) 171-C(  0  1  3) 172-C(  1  1  3)
 173-C(  2  1  3) 174-C(  3  1  3) 175-C(  4  1  3) 176-C(  5  1  3)
 177-C(  6  1  3) 178-C(  7  1  3) 179-C(  0  2  3) 180-C(  1  2  3)
 181-C(  2  2  3) 182-C(  3  2  3) 183-C(  4  2  3) 184-C(  5  2  3)
 185-C(  6  2  3) 186-C(  7  2  3) 187-C(  0  3  3) 188-C(  1  3  3)
 189-C(  2  3  3) 190-C(  3  3  3) 191-C(  4  3  3) 192-C(  5  3  3)
 193-C(  6  3  3) 194-C(  7  3  3) 195-C(  0  4  3) 196-C(  1  4  3)
 197-C(  2  4  3) 198-C(  3  4  3) 199-C(  4  4  3) 200-C(  5  4  3)
 201-C(  6  4  3) 202-C(  7  4  3) 203-C(  0  5  3) 204-C(  1  5  3)
 205-C(  2  5  3) 206-C(  3  5  3) 207-C(  4  5  3) 208-C(  5  5  3)
 209-C(  6  5  3) 210-C(  7  5  3) 211-C(  0  6  3) 212-C(  1  6  3)
 213-C(  2  6  3) 214-C(  3  6  3) 215-C(  4  6  3) 216-C(  5  6  3)
 217-C(  6  6  3) 218-C(  7  6  3) 219-C(  0  7  3) 220-C(  1  7  3)
 221-C(  2  7  3) 222-C(  3  7  3) 223-C(  4  7  3) 224-C(  5  7  3)
 225-C(  6  7  3) 226-C(  7  7  3) 227-R(  0  0  4) 228-C(  1  0  4)
 229-C(  2  0  4) 230-C(  3  0  4) 231-R(  4  0  4) 232-C(  0  1  4)
 233-C(  1  1  4) 234-C(  2  1  4) 235-C(  3  1  4) 236-C(  4  1  4)
 237-C(  5  1  4) 238-C(  6  1  4) 239-C(  7  1  4) 240-C(  0  2  4)
 241-C(  1  2  4) 242-C(  2  2  4) 243-C(  3  2  4) 244-C(  4  2  4)
 245-C(  5  2  4) 246-C(  6  2  4) 247-C(  7  2  4) 248-C(  0  3  4)
 249-C(  1  3  4) 250-C(  2  3  4) 251-C(  3  3  4) 252-C(  4  3  4)
 253-C(  5  3  4) 254-C(  6  3  4) 255-C(  7  3  4) 256-R(  0  4  4)
 257-C(  1  4  4) 258-C(  2  4  4) 259-C(  3  4  4) 260-R(  4  4  4)

 DIRECT LATTICE VECTORS COMPON. (A.U.)     RECIP. LATTICE VECTORS COMPON. (A.U.) 
        X            Y            Z              X            Y            Z
   10.6391581    0.0000000    0.0000000      0.5905717    0.0000000   -0.0000000
    0.0000000   10.6391581    0.0000000     -0.0000000    0.5905717   -0.0000000
    0.0000000    0.0000000   10.6391581      0.0000000    0.0000000    0.5905717

 DISK SPACE FOR EIGENVECTORS (FTN 10)    23887872 REALS

 SYMMETRY ADAPTION OF THE BLOCH FUNCTIONS DISABLED
 TTTTTTTTTTTTTTTTTTTTTTTTTTTTTT gordsh1     TELAPSE        0.59 TCPU        0.12

 MATRIX SIZE: P(G)  228080, F(G)   40561, P(G) IRR  115240, F(G) IRR   40933
 MAX G-VECTOR INDEX FOR 1- AND 2-ELECTRON INTEGRALS  81

 TTTTTTTTTTTTTTTTTTTTTTTTTTTTTT INPUT       TELAPSE        0.60 TCPU        0.13

 NEIGHBORS OF THE NON-EQUIVALENT ATOMS

 N = NUMBER OF NEIGHBORS AT DISTANCE R
    ATOM  N     R/ANG      R/AU   NEIGHBORS (ATOM LABELS AND CELL INDICES)
   1 C    1     1.1729     2.2164    2 O    0 0 0
   1 C    1     1.1810     2.2317    3 O    0 0 0
   1 C    1     2.9086     5.4964   11 O    0 0 0
   1 C    1     3.1042     5.8660    6 O    0 0 0
   1 C    1     3.1306     5.9160    9 O    0 0 0
   1 C    1     3.1336     5.9217    5 O    0 0 0

   2 O    1     1.1729     2.2164    1 C    0 0 0
   2 O    1     2.3444     4.4303    3 O    0 0 0
   2 O    1     3.0224     5.7116    7 C    0 0 0
   2 O    1     3.0496     5.7629    4 C    0 0 0
   2 O    1     3.0563     5.7756   12 O    0 0 1
   2 O    1     3.0724     5.8059    6 O    1 0 0

   3 O    1     1.1810     2.2317    1 C    0 0 0
   3 O    1     2.3444     4.4303    2 O    0 0 0
   3 O    1     2.9222     5.5221    5 O   -1 0 0
   3 O    1     3.0718     5.8049   11 O    0 0-1
   3 O    1     3.0816     5.8234   10 C    0-1-1
   3 O    1     3.0991     5.8564    8 O    0-1 0

   4 C    1     1.1455     2.1647    5 O    0 0 1
   4 C    1     1.1810     2.2317    6 O    1 0 0
   4 C    1     2.9151     5.5088   12 O    0 0 1
   4 C    1     2.9812     5.6337    9 O    0 0 0
   4 C    1     3.0496     5.7629    2 O    0 0 0
   4 C    1     3.1042     5.8660    3 O    1 0 1

   5 O    1     1.1455     2.1647    4 C    0 0-1
   5 O    1     2.3035     4.3530    6 O    1 0-1
   5 O    1     2.9222     5.5221    3 O    1 0 0
   5 O    1     3.0140     5.6957    7 C    0-1 0
   5 O    1     3.1336     5.9217    1 C    0 0 0
   5 O    2     3.1478     5.9484    9 O    0 0 0    9 O    0 0-1

   6 O    1     1.1810     2.2317    4 C   -1 0 0
   6 O    1     2.3035     4.3530    5 O   -1 0 1
   6 O    1     3.0235     5.7135    7 C   -1 0 0
   6 O    1     3.0324     5.7303   11 O    0 0 0
   6 O    1     3.0724     5.8059    2 O   -1 0 0
   6 O    1     3.1042     5.8660    1 C    0 0 0

   7 C    1     1.1943     2.2569    8 O    1 0 0
   7 C    1     1.2022     2.2719    9 O    0 1 0
   7 C    1     3.0140     5.6957    5 O    0 1 0
   7 C    1     3.0224     5.7116    2 O    0 0 0
   7 C    1     3.0235     5.7135    6 O    1 0 0
   7 C    1     3.0511     5.7658   12 O    0 0 0

   8 O    1     1.1943     2.2569    7 C   -1 0 0
   8 O    1     2.3444     4.4303    9 O   -1 1 0
   8 O    1     2.9524     5.5792   10 C    0 0-1
   8 O    1     3.0991     5.8564    3 O    0 1 0
   8 O    1     3.1618     5.9750    6 O    0 0 0
   8 O    1     3.1798     6.0090    4 C   -1 0-1

   9 O    1     1.2022     2.2719    7 C    0-1 0
   9 O    1     2.3444     4.4303    8 O    1-1 0
   9 O    1     2.9812     5.6337    4 C    0 0 0
   9 O    1     2.9987     5.6668   11 O    1 0 0
   9 O    1     3.1306     5.9160    1 C    0 0 0
   9 O    2     3.1478     5.9484    5 O    0 0 0    5 O    0 0 1

  10 C    1     1.1769     2.2241   12 O    0 0 1
  10 C    1     1.2900     2.4377   11 O    0 1 0
  10 C    1     2.9524     5.5792    8 O    0 0 1
  10 C    1     3.0744     5.8098    2 O    0 0 0
  10 C    1     3.0816     5.8234    3 O    0 1 1
  10 C    1     3.1266     5.9083    6 O    0 0 0

  11 O    1     1.2900     2.4377   10 C    0-1 0
  11 O    1     2.4124     4.5587   12 O    0-1 1
  11 O    1     2.9086     5.4964    1 C    0 0 0
  11 O    1     2.9987     5.6668    9 O   -1 0 0
  11 O    1     3.0324     5.7303    6 O    0 0 0
  11 O    1     3.0718     5.8049    3 O    0 0 1

  12 O    1     1.1769     2.2241   10 C    0 0-1
  12 O    1     2.4124     4.5587   11 O    0 1-1
  12 O    1     2.9151     5.5088    4 C    0 0-1
  12 O    1     3.0511     5.7658    7 C    0 0 0
  12 O    1     3.0563     5.7756    2 O    0 0-1
  12 O    1     3.1623     5.9759    5 O    0 1 0


 SYMMETRY ALLOWED INTERNAL DEGREE(S) OF FREEDOM:  33
 TTTTTTTTTTTTTTTTTTTTTTTTTTTTTT SYMM        TELAPSE        0.61 TCPU        0.13
 TTTTTTTTTTTTTTTTTTTTTTTTTTTTTT INT_SCREEN  TELAPSE        0.61 TCPU        0.14
 INFORMATION **** EXCBUF **** EXCH. BIPO BUFFER: WORDS USED =      771948

 DFT PARAMETERS

     ATOM       ELECTRONS   NET CHARGE   R(ANGSTROM)
   1   6  C       6.0000      0.0000     0.77000000
   2   8  O       8.0000      0.0000     0.74000000

 SIZE OF GRID=     423122
 TTTTTTTTTTTTTTTTTTTTTTTTTTTTTT MAKE_GRID2  TELAPSE        1.09 TCPU        0.62
 BECKE WEIGHT FUNCTION
 RADSAFE =     2.00
 TOLERANCES - DENSITY:10**- 6; POTENTIAL:10**- 9; GRID WGT:10**-14

 RADIAL INTEGRATION  - INTERVALS (POINTS,UPPER LIMIT):            1( 75,  4.0*R)

 ANGULAR INTEGRATION - INTERVALS (ACCURACY LEVEL [N. POINTS] UPPER LIMIT):
  1(  4[  86]   0.2)  2(  8[ 194]   0.5)  3( 12[ 350]   0.9)  4( 16[ 974]   3.5)
  5( 12[ 350]9999.0)
 TTTTTTTTTTTTTTTTTTTTTTTTTTTTTT INT_CALC    TELAPSE        1.12 TCPU        0.65
 EEEEEEEEEE INT_CALC TERMINATION  DATE 18 05 2022 TIME 15:14:01.6

 *******************************************************************************
 DRY-ICE                                                                         
 CRYSTAL - SCF - TYPE OF CALCULATION :  RESTRICTED CLOSED SHELL
 *******************************************************************************

 CAPPA:IS1  8;IS2  8;IS3  8; K PTS MONK NET 260; SYMMOPS:K SPACE   2;G SPACE   1

 TTTTTTTTTTTTTTTTTTTTTTTTTTTTTT SDIK        TELAPSE        1.46 TCPU        0.97

 AAAAAAAAAAAAAAAAAAAAAAAAAAAAAAAAAAAAAAAAAAAAAAAAAAAAAAAAAAAAAAAAAAAAAAAAAAAAAAA
         ATOMIC WAVEFUNCTION(S)


 NUCLEAR CHARGE  6.0  SYMMETRY SPECIES            S    P
 N. ELECTRONS    6.0  NUMBER OF PRIMITIVE GTOS   10    6
                      NUMBER OF CONTRACTED GTOS   4    3
                      NUMBER OF CLOSED SHELLS     2    0
                      OPEN SHELL OCCUPATION       0    2

  ZNUC SCFIT  TOTAL HF ENERGY   KINETIC ENERGY   VIRIAL THEOREM ACCURACY
   6.0  10   -3.766702350E+01  3.783137943E+01 -1.995655566E+00  1.6E-06

 NUCLEAR CHARGE  8.0  SYMMETRY SPECIES            S    P
 N. ELECTRONS    8.0  NUMBER OF PRIMITIVE GTOS   10    6
                      NUMBER OF CONTRACTED GTOS   4    3
                      NUMBER OF CLOSED SHELLS     2    0
                      OPEN SHELL OCCUPATION       0    4

  ZNUC SCFIT  TOTAL HF ENERGY   KINETIC ENERGY   VIRIAL THEOREM ACCURACY
   8.0  13   -7.479377997E+01  7.483473100E+01 -1.999452780E+00  5.0E-06

 AAAAAAAAAAAAAAAAAAAAAAAAAAAAAAAAAAAAAAAAAAAAAAAAAAAAAAAAAAAAAAAAAAAAAAAAAAAAAAA

 CHARGE NORMALIZATION FACTOR   1.00000000
 TOTAL ATOMIC CHARGES:
   6.0000000   8.0000000   8.0000000   6.0000000   8.0000000   8.0000000
   6.0000000   8.0000000   8.0000000   6.0000000   8.0000000   8.0000000
 TTTTTTTTTTTTTTTTTTTTTTTTTTTTTT MOQGAD      TELAPSE        1.58 TCPU        1.08
 TTTTTTTTTTTTTTTTTTTTTTTTTTTTTT SHELLX2     TELAPSE       19.07 TCPU       18.52
 TTTTTTTTTTTTTTTTTTTTTTTTTTTTTT MONMO3      TELAPSE       21.25 TCPU       20.69
 NUMERICALLY INTEGRATED DENSITY     87.9999836563
 TTTTTTTTTTTTTTTTTTTTTTTTTTTTTT NUMDFT      TELAPSE       22.36 TCPU       21.80
 CYC   0 ETOT(AU) -7.559175161084E+02 DETOT -7.56E+02 tst  0.00E+00 PX  1.00E+00
 TTTTTTTTTTTTTTTTTTTTTTTTTTTTTT FDIK        TELAPSE       27.92 TCPU       27.29
 INSULATING STATE
 TOP OF VALENCE BANDS -    BAND     44; K   30; EIG -3.7997507E-01 AU
 TOP OF VALENCE BANDS -    BAND     44; K    1; EIG -3.8005462E-01 AU
 BOTTOM OF VIRTUAL BANDS - BAND     45; K    1; EIG -1.0674504E-01 AU
 TTTTTTTTTTTTTTTTTTTTTTTTTTTTTT PDIG        TELAPSE       28.19 TCPU       27.56
 CHARGE NORMALIZATION FACTOR   1.00000000
 TOTAL ATOMIC CHARGES:
   4.5715434   8.7082313   8.7188294   4.5679536   8.6859146   8.7489026
   4.4627075   8.7616427   8.7771000   4.4100554   8.8824657   8.7046536
 TTTTTTTTTTTTTTTTTTTTTTTTTTTTTT MOQGAD      TELAPSE       28.20 TCPU       27.57
 TTTTTTTTTTTTTTTTTTTTTTTTTTTTTT SHELLX2     TELAPSE       46.72 TCPU       46.04
 TTTTTTTTTTTTTTTTTTTTTTTTTTTTTT MONMO3      TELAPSE       49.05 TCPU       48.36
 NUMERICALLY INTEGRATED DENSITY     87.9999902342
 TTTTTTTTTTTTTTTTTTTTTTTTTTTTTT NUMDFT      TELAPSE       52.45 TCPU       51.76
 CYC   1 ETOT(AU) -7.537202303464E+02 DETOT  2.20E+00 tst  0.00E+00 PX  1.00E+00
 TTTTTTTTTTTTTTTTTTTTTTTTTTTTTT FDIK        TELAPSE       60.13 TCPU       59.41
 INSULATING STATE
 TOP OF VALENCE BANDS -    BAND     44; K    1; EIG -2.7703348E-01 AU
 BOTTOM OF VIRTUAL BANDS - BAND     45; K    1; EIG -1.0040540E-01 AU
 TTTTTTTTTTTTTTTTTTTTTTTTTTTTTT PDIG        TELAPSE       66.15 TCPU       65.42
 CHARGE NORMALIZATION FACTOR   1.00000000
 TOTAL ATOMIC CHARGES:
   5.0632453   8.4804128   8.4546775   5.0465675   8.4413654   8.5137412
   5.0016021   8.5033631   8.4965613   4.9896145   8.5646540   8.4441954
 TTTTTTTTTTTTTTTTTTTTTTTTTTTTTT MOQGAD      TELAPSE       66.16 TCPU       65.43
 TTTTTTTTTTTTTTTTTTTTTTTTTTTTTT SHELLX2     TELAPSE       84.68 TCPU       83.90
 TTTTTTTTTTTTTTTTTTTTTTTTTTTTTT MONMO3      TELAPSE       86.99 TCPU       86.20
 NUMERICALLY INTEGRATED DENSITY     87.9999893383
 TTTTTTTTTTTTTTTTTTTTTTTTTTTTTT NUMDFT      TELAPSE       90.41 TCPU       89.62
 CYC   2 ETOT(AU) -7.541179394593E+02 DETOT -3.98E-01 tst  1.73E-02 PX  1.49E-01
 TTTTTTTTTTTTTTTTTTTTTTTTTTTTTT FDIK        TELAPSE       92.69 TCPU       91.89
 INSULATING STATE
 TOP OF VALENCE BANDS -    BAND     44; K    1; EIG -3.3482776E-01 AU
 BOTTOM OF VIRTUAL BANDS - BAND     45; K    1; EIG -8.7640609E-02 AU
 TTTTTTTTTTTTTTTTTTTTTTTTTTTTTT PDIG        TELAPSE       92.94 TCPU       92.14
 CHARGE NORMALIZATION FACTOR   1.00000000
 TOTAL ATOMIC CHARGES:
   5.0641830   8.4785676   8.4553925   5.0468813   8.4424305   8.5111994
   5.0086836   8.4988332   8.4938944   5.0027973   8.5546881   8.4424492
 TTTTTTTTTTTTTTTTTTTTTTTTTTTTTT MOQGAD      TELAPSE       92.95 TCPU       92.15
 TTTTTTTTTTTTTTTTTTTTTTTTTTTTTT SHELLX2     TELAPSE      111.48 TCPU      110.63
 TTTTTTTTTTTTTTTTTTTTTTTTTTTTTT MONMO3      TELAPSE      113.78 TCPU      112.92
 NUMERICALLY INTEGRATED DENSITY     87.9999891262
 TTTTTTTTTTTTTTTTTTTTTTTTTTTTTT NUMDFT      TELAPSE      117.21 TCPU      116.34
 CYC   3 ETOT(AU) -7.541345174763E+02 DETOT -1.66E-02 tst  3.39E-04 PX  3.55E-02
 TTTTTTTTTTTTTTTTTTTTTTTTTTTTTT FDIK        TELAPSE      119.43 TCPU      118.55
 INSULATING STATE
 TOP OF VALENCE BANDS -    BAND     44; K    1; EIG -3.4354762E-01 AU
 BOTTOM OF VIRTUAL BANDS - BAND     45; K    1; EIG -8.0791589E-02 AU
 TTTTTTTTTTTTTTTTTTTTTTTTTTTTTT PDIG        TELAPSE      119.68 TCPU      118.80
 CHARGE NORMALIZATION FACTOR   1.00000000
 TOTAL ATOMIC CHARGES:
   5.0152715   8.5012575   8.4814291   4.9981380   8.4674051   8.5344718
   4.9574093   8.5235407   8.5204193   4.9502153   8.5822594   8.4681831
 TTTTTTTTTTTTTTTTTTTTTTTTTTTTTT MOQGAD      TELAPSE      119.69 TCPU      118.81
 TTTTTTTTTTTTTTTTTTTTTTTTTTTTTT SHELLX2     TELAPSE      138.21 TCPU      137.28
 TTTTTTTTTTTTTTTTTTTTTTTTTTTTTT MONMO3      TELAPSE      140.53 TCPU      139.60
 NUMERICALLY INTEGRATED DENSITY     87.9999891204
 TTTTTTTTTTTTTTTTTTTTTTTTTTTTTT NUMDFT      TELAPSE      143.96 TCPU      143.02
 CYC   4 ETOT(AU) -7.541397405467E+02 DETOT -5.22E-03 tst  6.07E-05 PX  2.66E-02
 TTTTTTTTTTTTTTTTTTTTTTTTTTTTTT FDIK        TELAPSE      146.06 TCPU      145.11
 INSULATING STATE
 TOP OF VALENCE BANDS -    BAND     44; K    1; EIG -3.3666225E-01 AU
 BOTTOM OF VIRTUAL BANDS - BAND     45; K    1; EIG -7.7813144E-02 AU
 TTTTTTTTTTTTTTTTTTTTTTTTTTTTTT PDIG        TELAPSE      146.31 TCPU      145.36
 CHARGE NORMALIZATION FACTOR   1.00000000
 TOTAL ATOMIC CHARGES:
   5.0174900   8.5007450   8.4796304   4.9994022   8.4670139   8.5334538
   4.9613852   8.5220476   8.5179361   4.9560445   8.5773635   8.4674878
 TTTTTTTTTTTTTTTTTTTTTTTTTTTTTT MOQGAD      TELAPSE      146.32 TCPU      145.37
 TTTTTTTTTTTTTTTTTTTTTTTTTTTTTT SHELLX2     TELAPSE      164.85 TCPU      163.85
 TTTTTTTTTTTTTTTTTTTTTTTTTTTTTT MONMO3      TELAPSE      167.15 TCPU      166.14
 NUMERICALLY INTEGRATED DENSITY     87.9999891027
 TTTTTTTTTTTTTTTTTTTTTTTTTTTTTT NUMDFT      TELAPSE      170.57 TCPU      169.55
 CYC   5 ETOT(AU) -7.541401227282E+02 DETOT -3.82E-04 tst  2.58E-05 PX  4.64E-03
 TTTTTTTTTTTTTTTTTTTTTTTTTTTTTT FDIK        TELAPSE      172.55 TCPU      171.53
 INSULATING STATE
 TOP OF VALENCE BANDS -    BAND     44; K    1; EIG -3.3646894E-01 AU
 BOTTOM OF VIRTUAL BANDS - BAND     45; K    1; EIG -7.7508117E-02 AU
 TTTTTTTTTTTTTTTTTTTTTTTTTTTTTT PDIG        TELAPSE      172.81 TCPU      171.78
 CHARGE NORMALIZATION FACTOR   1.00000000
 TOTAL ATOMIC CHARGES:
   5.0224434   8.4981823   8.4771930   5.0041186   8.4648742   8.5308195
   4.9669348   8.5191918   8.5152454   4.9622301   8.5738625   8.4649043
 TTTTTTTTTTTTTTTTTTTTTTTTTTTTTT MOQGAD      TELAPSE      172.81 TCPU      171.79
 TTTTTTTTTTTTTTTTTTTTTTTTTTTTTT SHELLX2     TELAPSE      191.33 TCPU      190.26
 TTTTTTTTTTTTTTTTTTTTTTTTTTTTTT MONMO3      TELAPSE      193.66 TCPU      192.58
 NUMERICALLY INTEGRATED DENSITY     87.9999890818
 TTTTTTTTTTTTTTTTTTTTTTTTTTTTTT NUMDFT      TELAPSE      197.08 TCPU      195.99
 CYC   6 ETOT(AU) -7.541402094558E+02 DETOT -8.67E-05 tst  1.36E-05 PX  1.88E-03
 TTTTTTTTTTTTTTTTTTTTTTTTTTTTTT FDIK        TELAPSE      199.58 TCPU      197.99
 INSULATING STATE
 TOP OF VALENCE BANDS -    BAND     44; K    1; EIG -3.3745937E-01 AU
 BOTTOM OF VIRTUAL BANDS - BAND     45; K    1; EIG -7.7598771E-02 AU
 TTTTTTTTTTTTTTTTTTTTTTTTTTTTTT PDIG        TELAPSE      199.83 TCPU      198.24
 CHARGE NORMALIZATION FACTOR   1.00000000
 TOTAL ATOMIC CHARGES:
   5.0221420   8.4980436   8.4776050   5.0038253   8.4651644   8.5307916
   4.9664869   8.5192145   8.5156734   4.9616197   8.5743891   8.4650445
 TTTTTTTTTTTTTTTTTTTTTTTTTTTTTT MOQGAD      TELAPSE      199.84 TCPU      198.25
 TTTTTTTTTTTTTTTTTTTTTTTTTTTTTT SHELLX2     TELAPSE      218.37 TCPU      216.73
 TTTTTTTTTTTTTTTTTTTTTTTTTTTTTT MONMO3      TELAPSE      220.61 TCPU      218.97
 NUMERICALLY INTEGRATED DENSITY     87.9999890728
 TTTTTTTTTTTTTTTTTTTTTTTTTTTTTT NUMDFT      TELAPSE      224.03 TCPU      222.37
 CYC   7 ETOT(AU) -7.541402412769E+02 DETOT -3.18E-05 tst  2.80E-06 PX  1.41E-03
 TTTTTTTTTTTTTTTTTTTTTTTTTTTTTT FDIK        TELAPSE      226.00 TCPU      224.33
 INSULATING STATE
 TOP OF VALENCE BANDS -    BAND     44; K    1; EIG -3.3755728E-01 AU
 BOTTOM OF VIRTUAL BANDS - BAND     45; K    1; EIG -7.7594722E-02 AU
 TTTTTTTTTTTTTTTTTTTTTTTTTTTTTT PDIG        TELAPSE      226.25 TCPU      224.59
 CHARGE NORMALIZATION FACTOR   1.00000000
 TOTAL ATOMIC CHARGES:
   5.0217048   8.4981782   8.4778922   5.0033790   8.4654729   8.5309151
   4.9661364   8.5193386   8.5159018   4.9612825   8.5745019   8.4652965
 TTTTTTTTTTTTTTTTTTTTTTTTTTTTTT MOQGAD      TELAPSE      226.26 TCPU      224.59
 TTTTTTTTTTTTTTTTTTTTTTTTTTTTTT SHELLX2     TELAPSE      244.78 TCPU      243.07
 TTTTTTTTTTTTTTTTTTTTTTTTTTTTTT MONMO3      TELAPSE      247.01 TCPU      245.29
 NUMERICALLY INTEGRATED DENSITY     87.9999890694
 TTTTTTTTTTTTTTTTTTTTTTTTTTTTTT NUMDFT      TELAPSE      250.44 TCPU      248.71
 CYC   8 ETOT(AU) -7.541402506626E+02 DETOT -9.39E-06 tst  1.05E-06 PX  9.52E-04
 TTTTTTTTTTTTTTTTTTTTTTTTTTTTTT FDIK        TELAPSE      253.04 TCPU      250.49
 INSULATING STATE
 TOP OF VALENCE BANDS -    BAND     44; K    1; EIG -3.3752505E-01 AU
 BOTTOM OF VIRTUAL BANDS - BAND     45; K    1; EIG -7.7580974E-02 AU
 TTTTTTTTTTTTTTTTTTTTTTTTTTTTTT PDIG        TELAPSE      258.47 TCPU      255.91
 CHARGE NORMALIZATION FACTOR   1.00000000
 TOTAL ATOMIC CHARGES:
   5.0217826   8.4981018   8.4778826   5.0034238   8.4655068   8.5308310
   4.9663017   8.5192283   8.5158483   4.9615135   8.5743073   8.4652723
 TTTTTTTTTTTTTTTTTTTTTTTTTTTTTT MOQGAD      TELAPSE      258.48 TCPU      255.91
 TTTTTTTTTTTTTTTTTTTTTTTTTTTTTT SHELLX2     TELAPSE      277.00 TCPU      274.38
 TTTTTTTTTTTTTTTTTTTTTTTTTTTTTT MONMO3      TELAPSE      279.23 TCPU      276.61
 NUMERICALLY INTEGRATED DENSITY     87.9999890671
 TTTTTTTTTTTTTTTTTTTTTTTTTTTTTT NUMDFT      TELAPSE      282.67 TCPU      280.04
 CYC   9 ETOT(AU) -7.541402533821E+02 DETOT -2.72E-06 tst  5.08E-07 PX  6.38E-04
 TTTTTTTTTTTTTTTTTTTTTTTTTTTTTT FDIK        TELAPSE      284.51 TCPU      281.87
 INSULATING STATE
 TOP OF VALENCE BANDS -    BAND     44; K    1; EIG -3.3755681E-01 AU
 BOTTOM OF VIRTUAL BANDS - BAND     45; K    1; EIG -7.7579771E-02 AU
 TTTTTTTTTTTTTTTTTTTTTTTTTTTTTT PDIG        TELAPSE      284.77 TCPU      282.13
 CHARGE NORMALIZATION FACTOR   1.00000000
 TOTAL ATOMIC CHARGES:
   5.0218191   8.4980479   8.4778951   5.0034601   8.4655244   8.5307749
   4.9663685   8.5191646   8.5158459   4.9615875   8.5742470   8.4652650
 TTTTTTTTTTTTTTTTTTTTTTTTTTTTTT MOQGAD      TELAPSE      284.77 TCPU      282.13
 TTTTTTTTTTTTTTTTTTTTTTTTTTTTTT SHELLX2     TELAPSE      303.30 TCPU      300.61
 TTTTTTTTTTTTTTTTTTTTTTTTTTTTTT MONMO3      TELAPSE      305.53 TCPU      302.83
 NUMERICALLY INTEGRATED DENSITY     87.9999890654
 TTTTTTTTTTTTTTTTTTTTTTTTTTTTTT NUMDFT      TELAPSE      308.96 TCPU      306.25
 CYC  10 ETOT(AU) -7.541402544937E+02 DETOT -1.11E-06 tst  2.00E-07 PX  4.39E-04
 TTTTTTTTTTTTTTTTTTTTTTTTTTTTTT FDIK        TELAPSE      310.83 TCPU      308.12
 INSULATING STATE
 TOP OF VALENCE BANDS -    BAND     44; K    1; EIG -3.3757915E-01 AU
 BOTTOM OF VIRTUAL BANDS - BAND     45; K    1; EIG -7.7581413E-02 AU
 TTTTTTTTTTTTTTTTTTTTTTTTTTTTTT PDIG        TELAPSE      311.09 TCPU      308.37
 CHARGE NORMALIZATION FACTOR   1.00000000
 TOTAL ATOMIC CHARGES:
   5.0218076   8.4980299   8.4779217   5.0034491   8.4655536   8.5307559
   4.9663634   8.5191476   8.5158683   4.9615773   8.5742306   8.4652949
 TTTTTTTTTTTTTTTTTTTTTTTTTTTTTT MOQGAD      TELAPSE      311.09 TCPU      308.38
 TTTTTTTTTTTTTTTTTTTTTTTTTTTTTT SHELLX2     TELAPSE      329.61 TCPU      326.85
 TTTTTTTTTTTTTTTTTTTTTTTTTTTTTT MONMO3      TELAPSE      331.85 TCPU      329.08
 NUMERICALLY INTEGRATED DENSITY     87.9999890645
 TTTTTTTTTTTTTTTTTTTTTTTTTTTTTT NUMDFT      TELAPSE      335.29 TCPU      332.51
 CYC  11 ETOT(AU) -7.541402549774E+02 DETOT -4.84E-07 tst  8.43E-08 PX  3.02E-04
 TTTTTTTTTTTTTTTTTTTTTTTTTTTTTT FDIK        TELAPSE      340.42 TCPU      337.63
 INSULATING STATE
 TOP OF VALENCE BANDS -    BAND     44; K    1; EIG -3.3758711E-01 AU
 BOTTOM OF VIRTUAL BANDS - BAND     45; K    1; EIG -7.7582601E-02 AU
 TTTTTTTTTTTTTTTTTTTTTTTTTTTTTT PDIG        TELAPSE      340.67 TCPU      337.88
 CHARGE NORMALIZATION FACTOR   1.00000000
 TOTAL ATOMIC CHARGES:
   5.0217977   8.4980225   8.4779371   5.0034418   8.4655720   8.5307449
   4.9663627   8.5191374   8.5158796   4.9615758   8.5742104   8.4653182
 TTTTTTTTTTTTTTTTTTTTTTTTTTTTTT MOQGAD      TELAPSE      340.68 TCPU      337.89
 TTTTTTTTTTTTTTTTTTTTTTTTTTTTTT SHELLX2     TELAPSE      359.20 TCPU      356.36
 +++ ENERGIES IN A.U. +++
 ::: EXT EL-POLE                                  -8.0403369141576E+02
 ::: EXT EL-SPHEROPOLE                             9.8899415343834E+00
 ::: BIELET ZONE E-E                               1.0103868235614E+03
 ::: TOTAL E-E                                     2.1624307368007E+02
 ::: TOTAL E-N + N-E                              -1.5002026120799E+03
 ::: TOTAL N-N                                    -1.4819358941052E+02
 ::: KINETIC ENERGY                                7.5053747810423E+02
 ::: PSEUDO TOTAL   ENERGY                        -6.8161564970616E+02
 ::: VIRIAL COEFFICIENT                            1.0481246223324E+00
 TTTTTTTTTTTTTTTTTTTTTTTTTTTTTT MONMO3      TELAPSE      361.43 TCPU      358.58
 NUMERICALLY INTEGRATED DENSITY     87.9999890639
 TTTTTTTTTTTTTTTTTTTTTTTTTTTTTT NUMDFT      TELAPSE      364.85 TCPU      361.99
 CYC  12 ETOT(AU) -7.541402551545E+02 DETOT -1.77E-07 tst  4.56E-08 PX  3.02E-04

 == SCF ENDED - CONVERGENCE ON ENERGY      E(AU) -7.5414025515450E+02 CYCLES  12


 ENERGY EXPRESSION=HARTREE+FOCK EXCH*0.20000+(BECKE      EXCH)*0.80000+LYP        CORR


 TOTAL ENERGY(DFT)(AU)( 12) -7.5414025515450E+02 DE-1.8E-07 tester 4.6E-08
 TTTTTTTTTTTTTTTTTTTTTTTTTTTTTT EDFT        TELAPSE      364.85 TCPU      361.99
 EIGENVECTORS IN FORTRAN UNIT  8
 TTTTTTTTTTTTTTTTTTTTTTTTTTTTTT END         TELAPSE      365.12 TCPU      362.24
 EEEEEEEEEE TERMINATION  DATE 18 05 2022 TIME 15:20:05.6
NODE    0 CPU TIME =       362.244
NODE    1 CPU TIME =       351.408
NODE    2 CPU TIME =       357.023
NODE    3 CPU TIME =       362.195
NODE    4 CPU TIME =       356.988
NODE    5 CPU TIME =       353.257
NODE    6 CPU TIME =       362.238
NODE    7 CPU TIME =       351.327
NODE    8 CPU TIME =       356.923
NODE    9 CPU TIME =       357.032
    TOTAL CPU TIME =      3570.635
