          10 PROCESSORS WORKING

         
 *******************************************************************************
 *                                                                             *
 *                               CRYSTAL14                                     *
 *                      public : 1.0.4 - Feb 23rd, 2016                        *
 *                       HTTP://WWW.CRYSTAL.UNITO.IT                           *
 *                                                                             *
 *                              MAIN AUTHORS                                   *
 *                                                                             *
 *  R. DOVESI(1,11), V.R. SAUNDERS(2), C. ROETTI(1,11), R. ORLANDO(1,11),      *
 *  C.M. ZICOVICH-WILSON(1,3), F. PASCALE(4), B. CIVALLERI(1,11),              *
 *  K. DOLL(5), N.M. HARRISON(2,6), I. J. BUSH(7), Ph. D'ARCO(8),              *
 *  M. LLUNELL(9), M. CAUSA'(10), Y. NOEL(8)                                   *
 *                                                                             *
 *        CONTRIBUTIONS TO THE CURRENT RELEASE HAVE BEEN GIVEN BY              *
 *                                                                             *
 *  L. MASCHIO(1,11), S. CASASSA(1,11), A. ERBA(1,11), M. FERRABONE(1,11),     *
 *  M. DE LA PIERRE(1,11), M. FERRERO(1,11), V. LACIVITA(1,11),                *
 *  J. BAIMA(1,11), E. ALBANESE(1,11), M.F. PEINTINGER(12), R. BAST(13),       *
 *  M. RERAT(14), B. KIRTMAN(15), R. DEMICHELIS(1,16)                          *
 *                                                                             *
 * (1) THEORETICAL CHEMISTRY GROUP - UNIVERSITA' DI TORINO - TORINO (ITALY)    *
 *     http://www.crystal.unito.it                                             *
 * (2) COMPUTATIONAL SCIENCE & ENGINEERING DEPARTMENT - STFC DARESBURY (UK)    *
 *     http://www.stfc.ac.uk/CSE/randd/cmg/CRYSTAL/25806.aspx                  *
 * (3) UNIVERSIDAD AUTONOMA DEL ESTADO DE MORELOS - CUERNAVACA (MEXICO)        *
 * (4) UNIVERSITE' DE LORRAINE - NANCY (FRANCE)                                *
 * (5) UNIVERSITAET ULM - ULM (GERMANY); (6) IMPERIAL COLLEGE - LONDON (UK)    *
 * (7) NAG - OXFORD (UK); (8) UPMC - SORBONNE UNIVERSITES - PARIS (FRANCE)     *
 * (9) UNIVERSIDAD DE BARCELONA - BARCELONA (SPAIN)                            *
 *(10) UNIVERSITA' DI NAPOLI "FEDERICO II" - NAPOLI (ITALY)                    *
 *(11) NIS - NANOSTRUCTURED INTERFACES AND SURFACES - TORINO (ITALY)           *
 *(12) MPI FUER CHEMISCHE ENERGIEKONVERSION - MUELHEIM AN DER RUHR (GERMANY)   *
 *(13) UNIVERSITY OF STOCKHOLM - STOCKHOLM (SWEDEN)                            *
 *(14) UNIVERSITE' DE PAU ET DES PAYS DE L'ADOUR - PAU (FRANCE)                *
 *(15) UNIVERSITY OF CALIFORNIA SANTA BARBARA - SANTA BARBARA (USA)            *
 *(16) CURTIN UNIVERSITY - PERTH (AUSTRALIA)                                   *
 *                                                                             *
 ********************************************************************************
 EEEEEEEEEE STARTING  DATE 18 05 2022 TIME 12:08:58.1
 DRY-ICE                                                                         

 CRYSTAL CALCULATION
 (INPUT ACCORDING TO THE INTERNATIONAL TABLES FOR X-RAY CRYSTALLOGRAPHY)
 CRYSTAL FAMILY                       :  TRICLINIC   
 CRYSTAL CLASS  (GROTH - 1921)        :  TRICLINIC PEDIAL                     

 SPACE GROUP (NONCENTROSYMMETRIC)     :  P 1             

 LATTICE PARAMETERS  (ANGSTROMS AND DEGREES) - CONVENTIONAL CELL
        A           B           C        ALPHA        BETA       GAMMA
     5.63000     5.63000     5.63000    90.00000    90.00000    90.00000


 NUMBER OF IRREDUCIBLE ATOMS IN THE CONVENTIONAL CELL:   12

 INPUT COORDINATES

 ATOM AT. N.              COORDINATES
   1   6     0.000000000000E+00  0.000000000000E+00  0.000000000000E+00
   2   8     1.200000000000E-01  1.200000000000E-01  1.200000000000E-01
   3   8    -1.500000000000E-01 -1.100000000000E-01 -9.000000000000E-02
   4   6     5.000000000000E-01  2.000000000000E-02  4.900000000000E-01
   5   8     3.600000000000E-01 -1.000000000000E-01 -3.800000000000E-01
   6   8    -3.500000000000E-01  1.100000000000E-01  3.700000000000E-01
   7   6     4.900000000000E-01  4.900000000000E-01 -2.000000000000E-02
   8   8    -3.700000000000E-01  4.100000000000E-01 -1.100000000000E-01
   9   8     3.700000000000E-01 -3.700000000000E-01  9.000000000000E-02
  10   6    -2.000000000000E-02  5.000000000000E-01  4.900000000000E-01
  11   8    -1.400000000000E-01 -4.000000000000E-01  3.800000000000E-01
  12   8     1.200000000000E-01  3.800000000000E-01 -3.800000000000E-01

 *******************************************************************************

 << INFORMATION >>: FROM NOW ON, ALL COORDINATES REFER TO THE PRIMITIVE CELL

 *******************************************************************************

 LATTICE PARAMETERS  (ANGSTROMS AND DEGREES) - PRIMITIVE CELL
       A          B          C        ALPHA      BETA     GAMMA        VOLUME
    5.63000    5.63000    5.63000    90.00000  90.00000  90.00000    178.453547

 COORDINATES OF THE EQUIVALENT ATOMS (FRACTIONAL UNITS)

 N. ATOM EQUIV AT. N.          X                  Y                  Z

   1   1   1    6 C     0.00000000000E+00  0.00000000000E+00  0.00000000000E+00

   2   2   1    8 O     1.20000000000E-01  1.20000000000E-01  1.20000000000E-01

   3   3   1    8 O    -1.50000000000E-01 -1.10000000000E-01 -9.00000000000E-02

   4   4   1    6 C    -5.00000000000E-01  2.00000000000E-02  4.90000000000E-01

   5   5   1    8 O     3.60000000000E-01 -1.00000000000E-01 -3.80000000000E-01

   6   6   1    8 O    -3.50000000000E-01  1.10000000000E-01  3.70000000000E-01

   7   7   1    6 C     4.90000000000E-01  4.90000000000E-01 -2.00000000000E-02

   8   8   1    8 O    -3.70000000000E-01  4.10000000000E-01 -1.10000000000E-01

   9   9   1    8 O     3.70000000000E-01 -3.70000000000E-01  9.00000000000E-02

  10  10   1    6 C    -2.00000000000E-02 -5.00000000000E-01  4.90000000000E-01

  11  11   1    8 O    -1.40000000000E-01 -4.00000000000E-01  3.80000000000E-01

  12  12   1    8 O     1.20000000000E-01  3.80000000000E-01 -3.80000000000E-01

 NUMBER OF SYMMETRY OPERATORS         :    1
 *******************************************************************************
 * GEOMETRY EDITING - INPUT COORDINATES ARE GIVEN IN ANGSTROM         
 *******************************************************************************

 GCALCO - MAX INDICES DIRECT LATTICE VECTOR    14    14    14
 NO.OF VECTORS CREATED 6999 STARS  120 RMAX   126.33300 BOHR

 GEOMETRY FOR WAVE FUNCTION - DIMENSIONALITY OF THE SYSTEM    3
 (NON PERIODIC DIRECTION: LATTICE PARAMETER FORMALLY SET TO 500)
 *******************************************************************************
 LATTICE PARAMETERS (ANGSTROMS AND DEGREES) - BOHR = 0.5291772083 ANGSTROM
 PRIMITIVE CELL - CENTRING CODE 1/0 VOLUME=   178.453547 - DENSITY  1.637 g/cm^3
         A              B              C           ALPHA      BETA       GAMMA 
     5.63000000     5.63000000     5.63000000    90.000000  90.000000  90.000000
 *******************************************************************************
 ATOMS IN THE ASYMMETRIC UNIT   12 - ATOMS IN THE UNIT CELL:   12
     ATOM              X/A                 Y/B                 Z/C    
 *******************************************************************************
   1 T   6 C     0.000000000000E+00  0.000000000000E+00  0.000000000000E+00
   2 T   8 O     1.200000000000E-01  1.200000000000E-01  1.200000000000E-01
   3 T   8 O    -1.500000000000E-01 -1.100000000000E-01 -9.000000000000E-02
   4 T   6 C     5.000000000000E-01  2.000000000000E-02  4.900000000000E-01
   5 T   8 O     3.600000000000E-01 -1.000000000000E-01 -3.800000000000E-01
   6 T   8 O    -3.500000000000E-01  1.100000000000E-01  3.700000000000E-01
   7 T   6 C     4.900000000000E-01  4.900000000000E-01 -2.000000000000E-02
   8 T   8 O    -3.700000000000E-01  4.100000000000E-01 -1.100000000000E-01
   9 T   8 O     3.700000000000E-01 -3.700000000000E-01  9.000000000000E-02
  10 T   6 C    -2.000000000000E-02  5.000000000000E-01  4.900000000000E-01
  11 T   8 O    -1.400000000000E-01 -4.000000000000E-01  3.800000000000E-01
  12 T   8 O     1.200000000000E-01  3.800000000000E-01 -3.800000000000E-01

 T = ATOM BELONGING TO THE ASYMMETRIC UNIT

 ****    1 SYMMOPS - TRANSLATORS IN FRACTIONAL UNITS
 **** MATRICES AND TRANSLATORS IN THE CRYSTALLOGRAPHIC REFERENCE FRAME
   V INV                    ROTATION MATRICES                   TRANSLATORS
   1   1  1.00  0.00  0.00  0.00  1.00  0.00  0.00  0.00  1.00  0.00  0.00  0.00

 DIRECT LATTICE VECTORS CARTESIAN COMPONENTS (ANGSTROM)
          X                    Y                    Z
   0.563000000000E+01   0.344738073960E-15   0.000000000000E+00
   0.000000000000E+00   0.563000000000E+01   0.000000000000E+00
   0.344738073960E-15   0.344738073960E-15   0.563000000000E+01


 CARTESIAN COORDINATES - PRIMITIVE CELL
 *******************************************************************************
 *      ATOM          X(ANGSTROM)         Y(ANGSTROM)         Z(ANGSTROM)
 *******************************************************************************
    1     6 C     0.000000000000E+00  0.000000000000E+00  0.000000000000E+00
    2     8 O     6.756000000000E-01  6.756000000000E-01  6.756000000000E-01
    3     8 O    -8.445000000000E-01 -6.193000000000E-01 -5.067000000000E-01
    4     6 C     2.815000000000E+00  1.126000000000E-01  2.758700000000E+00
    5     8 O     2.026800000000E+00 -5.630000000000E-01 -2.139400000000E+00
    6     8 O    -1.970500000000E+00  6.193000000000E-01  2.083100000000E+00
    7     6 C     2.758700000000E+00  2.758700000000E+00 -1.126000000000E-01
    8     8 O    -2.083100000000E+00  2.308300000000E+00 -6.193000000000E-01
    9     8 O     2.083100000000E+00 -2.083100000000E+00  5.067000000000E-01
   10     6 C    -1.126000000000E-01  2.815000000000E+00  2.758700000000E+00
   11     8 O    -7.882000000000E-01 -2.252000000000E+00  2.139400000000E+00
   12     8 O     6.756000000000E-01  2.139400000000E+00 -2.139400000000E+00

 *******************************************************************************
 STARTING BASIS SET HANDLING 
 *******************************************************************************

 Loading internal basis set: POB-TZVP            

 Please cite in your publication:
 Peintinger, M. F., Oliveira, D. V. and Bredow, T. (2013), Consistent Gaussian b
 asis sets of triple-zeta valence with polarization quality for solid-state calc
 ulations. J. Comput. Chem., 34: 451–459. doi: 10.1002/jcc.23153              
                    

 *******************************************************************************
 LOCAL ATOMIC FUNCTIONS BASIS SET
 *******************************************************************************
   ATOM   X(AU)   Y(AU)   Z(AU)  N. TYPE  EXPONENT  S COEF   P COEF   D/F/G COEF
 *******************************************************************************
   1 C    0.000   0.000   0.000
                                  1 S  
                                         1.358E+04 2.225E-04 0.000E+00 0.000E+00
                                         2.035E+03 1.723E-03 0.000E+00 0.000E+00
                                         4.632E+02 8.926E-03 0.000E+00 0.000E+00
                                         1.312E+02 3.573E-02 0.000E+00 0.000E+00
                                         4.285E+01 1.108E-01 0.000E+00 0.000E+00
                                         1.558E+01 2.430E-01 0.000E+00 0.000E+00
                                  2 S  
                                         6.207E+00 4.144E-01 0.000E+00 0.000E+00
                                         2.576E+00 2.374E-01 0.000E+00 0.000E+00
                                  3 S  
                                         4.941E-01 1.000E+00 0.000E+00 0.000E+00
                                  4 S  
                                         1.644E-01 1.000E+00 0.000E+00 0.000E+00
                             5-   7 P  
                                         3.470E+01 0.000E+00 5.333E-03 0.000E+00
                                         7.958E+00 0.000E+00 3.586E-02 0.000E+00
                                         2.378E+00 0.000E+00 1.422E-01 0.000E+00
                                         8.143E-01 0.000E+00 3.427E-01 0.000E+00
                             8-  10 P  
                                         5.662E-01 0.000E+00 1.000E+00 0.000E+00
                            11-  13 P  
                                         2.674E-01 0.000E+00 1.000E+00 0.000E+00
                            14-  18 D  
                                         8.792E-01 0.000E+00 0.000E+00 1.000E+00
   2 O    1.277   1.277   1.277
                                 19 S  
                                         2.703E+04 2.173E-04 0.000E+00 0.000E+00
                                         4.052E+03 1.684E-03 0.000E+00 0.000E+00
                                         9.223E+02 8.740E-03 0.000E+00 0.000E+00
                                         2.612E+02 3.524E-02 0.000E+00 0.000E+00
                                         8.535E+01 1.115E-01 0.000E+00 0.000E+00
                                         3.104E+01 2.559E-01 0.000E+00 0.000E+00
                                 20 S  
                                         1.226E+01 3.977E-01 0.000E+00 0.000E+00
                                         4.999E+00 2.463E-01 0.000E+00 0.000E+00
                                 21 S  
                                         8.479E-01 1.000E+00 0.000E+00 0.000E+00
                                 22 S  
                                         1.851E-01 1.000E+00 0.000E+00 0.000E+00
                            23-  25 P  
                                         6.327E+01 0.000E+00 6.069E-03 0.000E+00
                                         1.463E+01 0.000E+00 4.191E-02 0.000E+00
                                         4.450E+00 0.000E+00 1.615E-01 0.000E+00
                                         1.528E+00 0.000E+00 3.571E-01 0.000E+00
                            26-  28 P  
                                         5.490E-01 0.000E+00 1.000E+00 0.000E+00
                            29-  31 P  
                                         1.824E-01 0.000E+00 1.000E+00 0.000E+00
                            32-  36 D  
                                         5.000E-01 0.000E+00 0.000E+00 1.000E+00
   3 O   -1.596  -1.170  -0.958
   4 C    5.320   0.213   5.213
   5 O    3.830  -1.064  -4.043
   6 O   -3.724   1.170   3.936
   7 C    5.213   5.213  -0.213
   8 O   -3.936   4.362  -1.170
   9 O    3.936  -3.936   0.958
  10 C   -0.213   5.320   5.213
  11 O   -1.489  -4.256   4.043
  12 O    1.277   4.043  -4.043

 *******************************************************************************
 FINISHED BASIS SET HANDLING 
 *******************************************************************************

 INFORMATION **** SET_MPP **** PCRYSTAL CALCULATION
 INFORMATION **** READM2 **** NEW DEFAULT: FOCK/KS MATRIX MIXING SET TO 30 %
 INFORMATION **** READM2 **** NEW DEFAULT: FULL DIRECT SCF MODE
 INFORMATION **** READM2 **** NEW DEFAULT: COULOMB BIPOLAR BUFFER SET TO 32 Mb
 INFORMATION **** READM2 **** NEW DEFAULT: EXCHANGE BIPOLAR BUFFER SET TO 32 Mb

 *******************************************************************************
 NEW DEFAULT: DFT INTEGRATION GRID INCREASED TO XLGRID
 NEW DEFAULT: LEVEL SHIFTER 6 0
 IF THE SYSTEM IS A METAL USE KEYWORD NOSHIFT
 *******************************************************************************

 *******************************************************************************
 N. OF ATOMS PER CELL        12  COULOMB OVERLAP TOL         (T1) 10**   -6
 NUMBER OF SHELLS            96  COULOMB PENETRATION TOL     (T2) 10**   -6
 NUMBER OF AO               216  EXCHANGE OVERLAP TOL        (T3) 10**   -6
 N. OF ELECTRONS PER CELL    88  EXCHANGE PSEUDO OVP (F(G))  (T4) 10**   -6
 CORE ELECTRONS PER CELL     24  EXCHANGE PSEUDO OVP (P(G))  (T5) 10**  -12
 N. OF SYMMETRY OPERATORS     1  POLE ORDER IN MONO ZONE                  4
 *******************************************************************************
 TYPE OF CALCULATION :  RESTRICTED CLOSED SHELL
 KOHN-SHAM HAMILTONIAN

 (EXCHANGE)[CORRELATION] FUNCTIONAL:(BECKE 88)[LEE-YANG-PARR]

 NON-LOCAL WEIGHTING FACTOR (EXCHANGE) =           0.9000
 NON-LOCAL WEIGHTING FACTOR [CORRELATION] =        0.8100

 HYBRID EXCHANGE - PERCENTAGE OF FOCK EXCHANGE    20.0000
 EIGENVALUE LEVEL SHIFTING OF  0.600 HARTREE

 CAPPA:IS1  8;IS2  8;IS3  8; K PTS MONK NET 260; SYMMOPS:K SPACE   2;G SPACE   1

 *******************************************************************************
 MAX NUMBER OF SCF CYCLES      50  CONVERGENCE ON DELTAP        10**-16
 WEIGHT OF F(I) IN F(I+1)      30% CONVERGENCE ON ENERGY        10**- 6
 EIGENVALUE LEVEL SHIFTING OF  0.600 HARTREE
 SHRINK. FACT.(MONKH.)    8  8  8  NUMBER OF K POINTS IN THE IBZ    260
 SHRINKING FACTOR(GILAT NET)    8  NUMBER OF K POINTS(GILAT NET)    260
 *******************************************************************************
 *** K POINTS COORDINATES (OBLIQUE COORDINATES IN UNITS OF IS =  8)
   1-R(  0  0  0)   2-C(  1  0  0)   3-C(  2  0  0)   4-C(  3  0  0)
   5-R(  4  0  0)   6-C(  0  1  0)   7-C(  1  1  0)   8-C(  2  1  0)
   9-C(  3  1  0)  10-C(  4  1  0)  11-C(  5  1  0)  12-C(  6  1  0)
  13-C(  7  1  0)  14-C(  0  2  0)  15-C(  1  2  0)  16-C(  2  2  0)
  17-C(  3  2  0)  18-C(  4  2  0)  19-C(  5  2  0)  20-C(  6  2  0)
  21-C(  7  2  0)  22-C(  0  3  0)  23-C(  1  3  0)  24-C(  2  3  0)
  25-C(  3  3  0)  26-C(  4  3  0)  27-C(  5  3  0)  28-C(  6  3  0)
  29-C(  7  3  0)  30-R(  0  4  0)  31-C(  1  4  0)  32-C(  2  4  0)
  33-C(  3  4  0)  34-R(  4  4  0)  35-C(  0  0  1)  36-C(  1  0  1)
  37-C(  2  0  1)  38-C(  3  0  1)  39-C(  4  0  1)  40-C(  5  0  1)
  41-C(  6  0  1)  42-C(  7  0  1)  43-C(  0  1  1)  44-C(  1  1  1)
  45-C(  2  1  1)  46-C(  3  1  1)  47-C(  4  1  1)  48-C(  5  1  1)
  49-C(  6  1  1)  50-C(  7  1  1)  51-C(  0  2  1)  52-C(  1  2  1)
  53-C(  2  2  1)  54-C(  3  2  1)  55-C(  4  2  1)  56-C(  5  2  1)
  57-C(  6  2  1)  58-C(  7  2  1)  59-C(  0  3  1)  60-C(  1  3  1)
  61-C(  2  3  1)  62-C(  3  3  1)  63-C(  4  3  1)  64-C(  5  3  1)
  65-C(  6  3  1)  66-C(  7  3  1)  67-C(  0  4  1)  68-C(  1  4  1)
  69-C(  2  4  1)  70-C(  3  4  1)  71-C(  4  4  1)  72-C(  5  4  1)
  73-C(  6  4  1)  74-C(  7  4  1)  75-C(  0  5  1)  76-C(  1  5  1)
  77-C(  2  5  1)  78-C(  3  5  1)  79-C(  4  5  1)  80-C(  5  5  1)
  81-C(  6  5  1)  82-C(  7  5  1)  83-C(  0  6  1)  84-C(  1  6  1)
  85-C(  2  6  1)  86-C(  3  6  1)  87-C(  4  6  1)  88-C(  5  6  1)
  89-C(  6  6  1)  90-C(  7  6  1)  91-C(  0  7  1)  92-C(  1  7  1)
  93-C(  2  7  1)  94-C(  3  7  1)  95-C(  4  7  1)  96-C(  5  7  1)
  97-C(  6  7  1)  98-C(  7  7  1)  99-C(  0  0  2) 100-C(  1  0  2)
 101-C(  2  0  2) 102-C(  3  0  2) 103-C(  4  0  2) 104-C(  5  0  2)
 105-C(  6  0  2) 106-C(  7  0  2) 107-C(  0  1  2) 108-C(  1  1  2)
 109-C(  2  1  2) 110-C(  3  1  2) 111-C(  4  1  2) 112-C(  5  1  2)
 113-C(  6  1  2) 114-C(  7  1  2) 115-C(  0  2  2) 116-C(  1  2  2)
 117-C(  2  2  2) 118-C(  3  2  2) 119-C(  4  2  2) 120-C(  5  2  2)
 121-C(  6  2  2) 122-C(  7  2  2) 123-C(  0  3  2) 124-C(  1  3  2)
 125-C(  2  3  2) 126-C(  3  3  2) 127-C(  4  3  2) 128-C(  5  3  2)
 129-C(  6  3  2) 130-C(  7  3  2) 131-C(  0  4  2) 132-C(  1  4  2)
 133-C(  2  4  2) 134-C(  3  4  2) 135-C(  4  4  2) 136-C(  5  4  2)
 137-C(  6  4  2) 138-C(  7  4  2) 139-C(  0  5  2) 140-C(  1  5  2)
 141-C(  2  5  2) 142-C(  3  5  2) 143-C(  4  5  2) 144-C(  5  5  2)
 145-C(  6  5  2) 146-C(  7  5  2) 147-C(  0  6  2) 148-C(  1  6  2)
 149-C(  2  6  2) 150-C(  3  6  2) 151-C(  4  6  2) 152-C(  5  6  2)
 153-C(  6  6  2) 154-C(  7  6  2) 155-C(  0  7  2) 156-C(  1  7  2)
 157-C(  2  7  2) 158-C(  3  7  2) 159-C(  4  7  2) 160-C(  5  7  2)
 161-C(  6  7  2) 162-C(  7  7  2) 163-C(  0  0  3) 164-C(  1  0  3)
 165-C(  2  0  3) 166-C(  3  0  3) 167-C(  4  0  3) 168-C(  5  0  3)
 169-C(  6  0  3) 170-C(  7  0  3) 171-C(  0  1  3) 172-C(  1  1  3)
 173-C(  2  1  3) 174-C(  3  1  3) 175-C(  4  1  3) 176-C(  5  1  3)
 177-C(  6  1  3) 178-C(  7  1  3) 179-C(  0  2  3) 180-C(  1  2  3)
 181-C(  2  2  3) 182-C(  3  2  3) 183-C(  4  2  3) 184-C(  5  2  3)
 185-C(  6  2  3) 186-C(  7  2  3) 187-C(  0  3  3) 188-C(  1  3  3)
 189-C(  2  3  3) 190-C(  3  3  3) 191-C(  4  3  3) 192-C(  5  3  3)
 193-C(  6  3  3) 194-C(  7  3  3) 195-C(  0  4  3) 196-C(  1  4  3)
 197-C(  2  4  3) 198-C(  3  4  3) 199-C(  4  4  3) 200-C(  5  4  3)
 201-C(  6  4  3) 202-C(  7  4  3) 203-C(  0  5  3) 204-C(  1  5  3)
 205-C(  2  5  3) 206-C(  3  5  3) 207-C(  4  5  3) 208-C(  5  5  3)
 209-C(  6  5  3) 210-C(  7  5  3) 211-C(  0  6  3) 212-C(  1  6  3)
 213-C(  2  6  3) 214-C(  3  6  3) 215-C(  4  6  3) 216-C(  5  6  3)
 217-C(  6  6  3) 218-C(  7  6  3) 219-C(  0  7  3) 220-C(  1  7  3)
 221-C(  2  7  3) 222-C(  3  7  3) 223-C(  4  7  3) 224-C(  5  7  3)
 225-C(  6  7  3) 226-C(  7  7  3) 227-R(  0  0  4) 228-C(  1  0  4)
 229-C(  2  0  4) 230-C(  3  0  4) 231-R(  4  0  4) 232-C(  0  1  4)
 233-C(  1  1  4) 234-C(  2  1  4) 235-C(  3  1  4) 236-C(  4  1  4)
 237-C(  5  1  4) 238-C(  6  1  4) 239-C(  7  1  4) 240-C(  0  2  4)
 241-C(  1  2  4) 242-C(  2  2  4) 243-C(  3  2  4) 244-C(  4  2  4)
 245-C(  5  2  4) 246-C(  6  2  4) 247-C(  7  2  4) 248-C(  0  3  4)
 249-C(  1  3  4) 250-C(  2  3  4) 251-C(  3  3  4) 252-C(  4  3  4)
 253-C(  5  3  4) 254-C(  6  3  4) 255-C(  7  3  4) 256-R(  0  4  4)
 257-C(  1  4  4) 258-C(  2  4  4) 259-C(  3  4  4) 260-R(  4  4  4)

 DIRECT LATTICE VECTORS COMPON. (A.U.)     RECIP. LATTICE VECTORS COMPON. (A.U.) 
        X            Y            Z              X            Y            Z
   10.6391581    0.0000000    0.0000000      0.5905717    0.0000000   -0.0000000
    0.0000000   10.6391581    0.0000000     -0.0000000    0.5905717   -0.0000000
    0.0000000    0.0000000   10.6391581      0.0000000    0.0000000    0.5905717

 DISK SPACE FOR EIGENVECTORS (FTN 10)    23887872 REALS

 SYMMETRY ADAPTION OF THE BLOCH FUNCTIONS DISABLED
 TTTTTTTTTTTTTTTTTTTTTTTTTTTTTT gordsh1     TELAPSE        0.57 TCPU        0.13

 MATRIX SIZE: P(G)  229084, F(G)   40647, P(G) IRR  115742, F(G) IRR   41019
 MAX G-VECTOR INDEX FOR 1- AND 2-ELECTRON INTEGRALS  81

 TTTTTTTTTTTTTTTTTTTTTTTTTTTTTT INPUT       TELAPSE        7.44 TCPU        6.99

 NEIGHBORS OF THE NON-EQUIVALENT ATOMS

 N = NUMBER OF NEIGHBORS AT DISTANCE R
    ATOM  N     R/ANG      R/AU   NEIGHBORS (ATOM LABELS AND CELL INDICES)
   1 C    1     1.1634     2.1985    3 O    0 0 0
   1 C    1     1.1702     2.2113    2 O    0 0 0
   1 C    1     2.9335     5.5436    6 O    0 0 0
   1 C    1     2.9892     5.6488    9 O    0 0 0
   1 C    1     3.0003     5.6698    5 O    0 0 0
   1 C    1     3.1001     5.8583   12 O    0 0 0

   2 O    1     1.1702     2.2113    1 C    0 0 0
   2 O    1     2.3206     4.3853    3 O    0 0 0
   2 O    1     2.9977     5.6648    6 O    0 0 0
   2 O    1     3.0386     5.7422    4 C    0 0 0
   2 O    1     3.0496     5.7629    7 C    0 0 0
   2 O    1     3.0883     5.8360   10 C    0 0 0

   3 O    1     1.1634     2.1985    1 C    0 0 0
   3 O    1     2.3206     4.3853    2 O    0 0 0
   3 O    1     2.9749     5.6217    8 O    0-1 0
   3 O    1     3.0553     5.7736    7 C   -1-1 0
   3 O    1     3.0837     5.8273    6 O    0 0 0
   3 O    1     3.1098     5.8766   11 O    0 0 0

   4 C    1     1.1943     2.2569    6 O    1 0 0
   4 C    1     1.2702     2.4003    5 O    0 0 1
   4 C    1     3.0365     5.7382   12 O    0 0 1
   4 C    1     3.0386     5.7422    2 O    0 0 0
   4 C    1     3.1638     5.9788    3 O    1 0 1
   4 C    1     3.1753     6.0005   11 O    1 0 0

   5 O    1     1.2702     2.4003    4 C    0 0-1
   5 O    1     2.4586     4.6460    6 O    1 0-1
   5 O    1     3.0003     5.6698    1 C    0 0 0
   5 O    1     3.0214     5.7096   12 O    0 0 0
   5 O    1     3.0522     5.7678    9 O    0 0 0
   5 O    1     3.1578     5.9674    7 C    0-1 0

   6 O    1     1.1943     2.2569    4 C   -1 0 0
   6 O    1     2.4586     4.6460    5 O   -1 0 1
   6 O    1     2.9335     5.5436    1 C    0 0 0
   6 O    1     2.9545     5.5833   10 C    0 0 0
   6 O    1     2.9977     5.6648    2 O    0 0 0
   6 O    1     3.0019     5.6728   11 O    0 1 0

   7 C    1     1.0396     1.9646    8 O    1 0 0
   7 C    1     1.2088     2.2843    9 O    0 1 0
   7 C    1     2.9717     5.6156   12 O    0 0 0
   7 C    1     3.0496     5.7629    2 O    0 0 0
   7 C    1     3.0553     5.7736    3 O    1 1 0
   7 C    1     3.1296     5.9141   11 O    1 1 0

   8 O    1     1.0396     1.9646    7 C   -1 0 0
   8 O    1     2.2237     4.2021    9 O   -1 1 0
   8 O    1     2.9749     5.6217    3 O    0 1 0
   8 O    1     3.0350     5.7353   10 C    0 0-1
   8 O    1     3.1543     5.9608   12 O    0 0 0
   8 O    1     3.1703     5.9911    1 C    0 0 0

   9 O    1     1.2088     2.2843    7 C    0-1 0
   9 O    1     2.2237     4.2021    8 O    1-1 0
   9 O    1     2.9892     5.6488    1 C    0 0 0
   9 O    1     3.0522     5.7678    5 O    0 0 0
   9 O    1     3.1016     5.8612    2 O    0 0 0
   9 O    1     3.2022     6.0512    2 O    0-1 0

  10 C    1     1.0756     2.0326   11 O    0 1 0
  10 C    1     1.2702     2.4003   12 O    0 0 1
  10 C    1     2.9545     5.5833    6 O    0 0 0
  10 C    1     3.0350     5.7353    8 O    0 0 1
  10 C    1     3.0883     5.8360    2 O    0 0 0
  10 C    1     3.1913     6.0306    5 O    0 1 1

  11 O    1     1.0756     2.0326   10 C    0-1 0
  11 O    1     2.3458     4.4328   12 O    0-1 1
  11 O    1     3.0019     5.6728    6 O    0-1 0
  11 O    1     3.1057     5.8689    6 O    0 0 0
  11 O    1     3.1098     5.8766    3 O    0 0 0
  11 O    1     3.1296     5.9141    7 C   -1-1 0

  12 O    1     1.2702     2.4003   10 C    0 0-1
  12 O    1     2.3458     4.4328   11 O    0 1-1
  12 O    1     2.9717     5.6156    7 C    0 0 0
  12 O    1     3.0214     5.7096    5 O    0 0 0
  12 O    1     3.0365     5.7382    4 C    0 0-1
  12 O    1     3.1001     5.8583    1 C    0 0 0


 SYMMETRY ALLOWED INTERNAL DEGREE(S) OF FREEDOM:  33
 TTTTTTTTTTTTTTTTTTTTTTTTTTTTTT SYMM        TELAPSE        7.44 TCPU        6.99
 TTTTTTTTTTTTTTTTTTTTTTTTTTTTTT INT_SCREEN  TELAPSE        7.45 TCPU        6.99
 INFORMATION **** EXCBUF **** EXCH. BIPO BUFFER: WORDS USED =      773442

 DFT PARAMETERS

     ATOM       ELECTRONS   NET CHARGE   R(ANGSTROM)
   1   6  C       6.0000      0.0000     0.77000000
   2   8  O       8.0000      0.0000     0.74000000

 SIZE OF GRID=     422978
 TTTTTTTTTTTTTTTTTTTTTTTTTTTTTT MAKE_GRID2  TELAPSE        7.93 TCPU        7.48
 BECKE WEIGHT FUNCTION
 RADSAFE =     2.00
 TOLERANCES - DENSITY:10**- 6; POTENTIAL:10**- 9; GRID WGT:10**-14

 RADIAL INTEGRATION  - INTERVALS (POINTS,UPPER LIMIT):            1( 75,  4.0*R)

 ANGULAR INTEGRATION - INTERVALS (ACCURACY LEVEL [N. POINTS] UPPER LIMIT):
  1(  4[  86]   0.2)  2(  8[ 194]   0.5)  3( 12[ 350]   0.9)  4( 16[ 974]   3.5)
  5( 12[ 350]9999.0)
 TTTTTTTTTTTTTTTTTTTTTTTTTTTTTT INT_CALC    TELAPSE        7.97 TCPU        7.51
 EEEEEEEEEE INT_CALC TERMINATION  DATE 18 05 2022 TIME 12:09:05.5

 *******************************************************************************
 DRY-ICE                                                                         
 CRYSTAL - SCF - TYPE OF CALCULATION :  RESTRICTED CLOSED SHELL
 *******************************************************************************

 CAPPA:IS1  8;IS2  8;IS3  8; K PTS MONK NET 260; SYMMOPS:K SPACE   2;G SPACE   1

 TTTTTTTTTTTTTTTTTTTTTTTTTTTTTT SDIK        TELAPSE        8.33 TCPU        7.83

 AAAAAAAAAAAAAAAAAAAAAAAAAAAAAAAAAAAAAAAAAAAAAAAAAAAAAAAAAAAAAAAAAAAAAAAAAAAAAAA
         ATOMIC WAVEFUNCTION(S)


 NUCLEAR CHARGE  6.0  SYMMETRY SPECIES            S    P
 N. ELECTRONS    6.0  NUMBER OF PRIMITIVE GTOS   10    6
                      NUMBER OF CONTRACTED GTOS   4    3
                      NUMBER OF CLOSED SHELLS     2    0
                      OPEN SHELL OCCUPATION       0    2

  ZNUC SCFIT  TOTAL HF ENERGY   KINETIC ENERGY   VIRIAL THEOREM ACCURACY
   6.0  10   -3.766702350E+01  3.783137943E+01 -1.995655566E+00  1.6E-06

 NUCLEAR CHARGE  8.0  SYMMETRY SPECIES            S    P
 N. ELECTRONS    8.0  NUMBER OF PRIMITIVE GTOS   10    6
                      NUMBER OF CONTRACTED GTOS   4    3
                      NUMBER OF CLOSED SHELLS     2    0
                      OPEN SHELL OCCUPATION       0    4

  ZNUC SCFIT  TOTAL HF ENERGY   KINETIC ENERGY   VIRIAL THEOREM ACCURACY
   8.0  13   -7.479377997E+01  7.483473100E+01 -1.999452780E+00  5.0E-06

 AAAAAAAAAAAAAAAAAAAAAAAAAAAAAAAAAAAAAAAAAAAAAAAAAAAAAAAAAAAAAAAAAAAAAAAAAAAAAAA

 CHARGE NORMALIZATION FACTOR   1.00000000
 TOTAL ATOMIC CHARGES:
   6.0000000   8.0000000   8.0000000   6.0000000   8.0000000   8.0000000
   6.0000000   8.0000000   8.0000000   6.0000000   8.0000000   8.0000000
 TTTTTTTTTTTTTTTTTTTTTTTTTTTTTT MOQGAD      TELAPSE        8.40 TCPU        7.90
 TTTTTTTTTTTTTTTTTTTTTTTTTTTTTT SHELLX2     TELAPSE       27.40 TCPU       26.85
 TTTTTTTTTTTTTTTTTTTTTTTTTTTTTT MONMO3      TELAPSE       28.67 TCPU       28.11
 NUMERICALLY INTEGRATED DENSITY     88.0000019133
 TTTTTTTTTTTTTTTTTTTTTTTTTTTTTT NUMDFT      TELAPSE       29.78 TCPU       29.22
 CYC   0 ETOT(AU) -7.562388697729E+02 DETOT -7.56E+02 tst  0.00E+00 PX  1.00E+00
 TTTTTTTTTTTTTTTTTTTTTTTTTTTTTT FDIK        TELAPSE       35.94 TCPU       35.29
 INSULATING STATE
 TOP OF VALENCE BANDS -    BAND     44; K  227; EIG -3.8291449E-01 AU
 TOP OF VALENCE BANDS -    BAND     44; K    1; EIG -3.8352248E-01 AU
 BOTTOM OF VIRTUAL BANDS - BAND     45; K    1; EIG -6.3548991E-02 AU
 TTTTTTTTTTTTTTTTTTTTTTTTTTTTTT PDIG        TELAPSE       36.21 TCPU       35.56
 CHARGE NORMALIZATION FACTOR   1.00000000
 TOTAL ATOMIC CHARGES:
   4.5749221   8.7189480   8.7074320   4.4523647   8.8338213   8.7092490
   4.6608527   8.5136651   8.8298914   4.6072845   8.5237072   8.8678619
 TTTTTTTTTTTTTTTTTTTTTTTTTTTTTT MOQGAD      TELAPSE       36.21 TCPU       35.57
 TTTTTTTTTTTTTTTTTTTTTTTTTTTTTT SHELLX2     TELAPSE       56.34 TCPU       55.63
 TTTTTTTTTTTTTTTTTTTTTTTTTTTTTT MONMO3      TELAPSE       57.63 TCPU       56.93
 NUMERICALLY INTEGRATED DENSITY     88.0000030075
 TTTTTTTTTTTTTTTTTTTTTTTTTTTTTT NUMDFT      TELAPSE       61.06 TCPU       60.34
 CYC   1 ETOT(AU) -7.537146407208E+02 DETOT  2.52E+00 tst  0.00E+00 PX  1.00E+00
 TTTTTTTTTTTTTTTTTTTTTTTTTTTTTT FDIK        TELAPSE       63.46 TCPU       62.74
 INSULATING STATE
 TOP OF VALENCE BANDS -    BAND     44; K    7; EIG -2.8017486E-01 AU
 TOP OF VALENCE BANDS -    BAND     44; K    1; EIG -2.8063362E-01 AU
 BOTTOM OF VIRTUAL BANDS - BAND     45; K   34; EIG -4.5972604E-02 AU
 BOTTOM OF VIRTUAL BANDS - BAND     45; K    1; EIG -4.4434874E-02 AU
 TTTTTTTTTTTTTTTTTTTTTTTTTTTTTT PDIG        TELAPSE       63.72 TCPU       62.99
 CHARGE NORMALIZATION FACTOR   1.00000000
 TOTAL ATOMIC CHARGES:
   5.0483041   8.4887058   8.4644123   5.0229616   8.5347586   8.4398086
   5.0905027   8.3026420   8.6098757   5.0872642   8.2792359   8.6315286
 TTTTTTTTTTTTTTTTTTTTTTTTTTTTTT MOQGAD      TELAPSE       63.72 TCPU       63.00
 TTTTTTTTTTTTTTTTTTTTTTTTTTTTTT SHELLX2     TELAPSE       83.84 TCPU       83.06
 TTTTTTTTTTTTTTTTTTTTTTTTTTTTTT MONMO3      TELAPSE       85.12 TCPU       84.34
 NUMERICALLY INTEGRATED DENSITY     88.0000043690
 TTTTTTTTTTTTTTTTTTTTTTTTTTTTTT NUMDFT      TELAPSE       88.54 TCPU       87.75
 CYC   2 ETOT(AU) -7.540856100029E+02 DETOT -3.71E-01 tst  1.92E-02 PX  1.46E-01
 TTTTTTTTTTTTTTTTTTTTTTTTTTTTTT FDIK        TELAPSE       93.47 TCPU       90.03
 INSULATING STATE
 TOP OF VALENCE BANDS -    BAND     44; K   98; EIG -3.2965728E-01 AU
 TOP OF VALENCE BANDS -    BAND     44; K    1; EIG -3.2988172E-01 AU
 BOTTOM OF VIRTUAL BANDS - BAND     45; K    1; EIG -3.1736705E-02 AU
 TTTTTTTTTTTTTTTTTTTTTTTTTTTTTT PDIG        TELAPSE       93.73 TCPU       90.28
 CHARGE NORMALIZATION FACTOR   1.00000000
 TOTAL ATOMIC CHARGES:
   5.0485746   8.4863788   8.4660887   5.0280311   8.5269683   8.4444500
   5.0852713   8.3148906   8.6014775   5.0859135   8.2937671   8.6181884
 TTTTTTTTTTTTTTTTTTTTTTTTTTTTTT MOQGAD      TELAPSE       93.74 TCPU       90.29
 TTTTTTTTTTTTTTTTTTTTTTTTTTTTTT SHELLX2     TELAPSE      113.85 TCPU      110.35
 TTTTTTTTTTTTTTTTTTTTTTTTTTTTTT MONMO3      TELAPSE      115.14 TCPU      111.63
 NUMERICALLY INTEGRATED DENSITY     88.0000044694
 TTTTTTTTTTTTTTTTTTTTTTTTTTTTTT NUMDFT      TELAPSE      118.55 TCPU      115.04
 CYC   3 ETOT(AU) -7.540994496410E+02 DETOT -1.38E-02 tst  1.52E-04 PX  3.19E-02
 TTTTTTTTTTTTTTTTTTTTTTTTTTTTTT FDIK        TELAPSE      120.71 TCPU      117.19
 INSULATING STATE
 TOP OF VALENCE BANDS -    BAND     44; K    7; EIG -3.4072905E-01 AU
 TOP OF VALENCE BANDS -    BAND     44; K    1; EIG -3.4089262E-01 AU
 BOTTOM OF VIRTUAL BANDS - BAND     45; K    1; EIG -2.6725028E-02 AU
 TTTTTTTTTTTTTTTTTTTTTTTTTTTTTT PDIG        TELAPSE      120.96 TCPU      117.44
 CHARGE NORMALIZATION FACTOR   1.00000000
 TOTAL ATOMIC CHARGES:
   5.0003456   8.5093474   8.4910914   4.9750847   8.5532867   8.4719227
   5.0379008   8.3423348   8.6208015   5.0373893   8.3227870   8.6377081
 TTTTTTTTTTTTTTTTTTTTTTTTTTTTTT MOQGAD      TELAPSE      120.97 TCPU      117.45
 TTTTTTTTTTTTTTTTTTTTTTTTTTTTTT SHELLX2     TELAPSE      141.08 TCPU      137.50
 TTTTTTTTTTTTTTTTTTTTTTTTTTTTTT MONMO3      TELAPSE      142.36 TCPU      138.78
 NUMERICALLY INTEGRATED DENSITY     88.0000043599
 TTTTTTTTTTTTTTTTTTTTTTTTTTTTTT NUMDFT      TELAPSE      145.78 TCPU      142.19
 CYC   4 ETOT(AU) -7.541041261918E+02 DETOT -4.68E-03 tst  6.08E-05 PX  2.63E-02
 TTTTTTTTTTTTTTTTTTTTTTTTTTTTTT FDIK        TELAPSE      147.88 TCPU      144.28
 INSULATING STATE
 TOP OF VALENCE BANDS -    BAND     44; K    7; EIG -3.3569802E-01 AU
 TOP OF VALENCE BANDS -    BAND     44; K    1; EIG -3.3584922E-01 AU
 BOTTOM OF VIRTUAL BANDS - BAND     45; K    1; EIG -2.4559287E-02 AU
 TTTTTTTTTTTTTTTTTTTTTTTTTTTTTT PDIG        TELAPSE      148.14 TCPU      144.54
 CHARGE NORMALIZATION FACTOR   1.00000000
 TOTAL ATOMIC CHARGES:
   5.0017248   8.5088122   8.4901842   4.9812715   8.5490013   8.4702744
   5.0377868   8.3445138   8.6185415   5.0396450   8.3234834   8.6347609
 TTTTTTTTTTTTTTTTTTTTTTTTTTTTTT MOQGAD      TELAPSE      148.14 TCPU      144.54
 TTTTTTTTTTTTTTTTTTTTTTTTTTTTTT SHELLX2     TELAPSE      168.26 TCPU      164.60
 TTTTTTTTTTTTTTTTTTTTTTTTTTTTTT MONMO3      TELAPSE      169.56 TCPU      165.90
 NUMERICALLY INTEGRATED DENSITY     88.0000043759
 TTTTTTTTTTTTTTTTTTTTTTTTTTTTTT NUMDFT      TELAPSE      172.98 TCPU      169.31
 CYC   5 ETOT(AU) -7.541044189138E+02 DETOT -2.93E-04 tst  1.28E-05 PX  3.43E-03
 TTTTTTTTTTTTTTTTTTTTTTTTTTTTTT FDIK        TELAPSE      174.98 TCPU      171.31
 INSULATING STATE
 TOP OF VALENCE BANDS -    BAND     44; K    7; EIG -3.3541942E-01 AU
 TOP OF VALENCE BANDS -    BAND     44; K    1; EIG -3.3555900E-01 AU
 BOTTOM OF VIRTUAL BANDS - BAND     45; K    1; EIG -2.4499112E-02 AU
 TTTTTTTTTTTTTTTTTTTTTTTTTTTTTT PDIG        TELAPSE      175.24 TCPU      171.56
 CHARGE NORMALIZATION FACTOR   1.00000000
 TOTAL ATOMIC CHARGES:
   5.0064409   8.5063874   8.4878593   4.9870793   8.5456526   8.4679056
   5.0421934   8.3431230   8.6154502   5.0445875   8.3219959   8.6313249
 TTTTTTTTTTTTTTTTTTTTTTTTTTTTTT MOQGAD      TELAPSE      175.24 TCPU      171.57
 TTTTTTTTTTTTTTTTTTTTTTTTTTTTTT SHELLX2     TELAPSE      195.35 TCPU      191.63
 TTTTTTTTTTTTTTTTTTTTTTTTTTTTTT MONMO3      TELAPSE      196.63 TCPU      192.89
 NUMERICALLY INTEGRATED DENSITY     88.0000043957
 TTTTTTTTTTTTTTTTTTTTTTTTTTTTTT NUMDFT      TELAPSE      200.03 TCPU      196.29
 CYC   6 ETOT(AU) -7.541044860235E+02 DETOT -6.71E-05 tst  7.25E-06 PX  1.38E-03
 TTTTTTTTTTTTTTTTTTTTTTTTTTTTTT FDIK        TELAPSE      202.07 TCPU      198.32
 INSULATING STATE
 TOP OF VALENCE BANDS -    BAND     44; K    7; EIG -3.3629399E-01 AU
 TOP OF VALENCE BANDS -    BAND     44; K    1; EIG -3.3642953E-01 AU
 BOTTOM OF VIRTUAL BANDS - BAND     45; K    1; EIG -2.4692330E-02 AU
 TTTTTTTTTTTTTTTTTTTTTTTTTTTTTT PDIG        TELAPSE      202.33 TCPU      198.58
 CHARGE NORMALIZATION FACTOR   1.00000000
 TOTAL ATOMIC CHARGES:
   5.0061743   8.5064129   8.4880730   4.9862857   8.5460599   8.4683378
   5.0421446   8.3433858   8.6151930   5.0442656   8.3225579   8.6311093
 TTTTTTTTTTTTTTTTTTTTTTTTTTTTTT MOQGAD      TELAPSE      202.33 TCPU      198.58
 TTTTTTTTTTTTTTTTTTTTTTTTTTTTTT SHELLX2     TELAPSE      222.41 TCPU      218.60
 TTTTTTTTTTTTTTTTTTTTTTTTTTTTTT MONMO3      TELAPSE      223.73 TCPU      219.92
 NUMERICALLY INTEGRATED DENSITY     88.0000043957
 TTTTTTTTTTTTTTTTTTTTTTTTTTTTTT NUMDFT      TELAPSE      227.16 TCPU      223.34
 CYC   7 ETOT(AU) -7.541045081645E+02 DETOT -2.21E-05 tst  7.05E-07 PX  1.40E-03
 TTTTTTTTTTTTTTTTTTTTTTTTTTTTTT FDIK        TELAPSE      229.14 TCPU      225.31
 INSULATING STATE
 TOP OF VALENCE BANDS -    BAND     44; K    7; EIG -3.3644563E-01 AU
 TOP OF VALENCE BANDS -    BAND     44; K    1; EIG -3.3658059E-01 AU
 BOTTOM OF VIRTUAL BANDS - BAND     45; K    1; EIG -2.4740175E-02 AU
 TTTTTTTTTTTTTTTTTTTTTTTTTTTTTT PDIG        TELAPSE      229.40 TCPU      225.57
 CHARGE NORMALIZATION FACTOR   1.00000000
 TOTAL ATOMIC CHARGES:
   5.0057364   8.5066044   8.4883039   4.9859013   8.5461957   8.4686079
   5.0417428   8.3437631   8.6151932   5.0438494   8.3229828   8.6311192
 TTTTTTTTTTTTTTTTTTTTTTTTTTTTTT MOQGAD      TELAPSE      229.41 TCPU      225.57
 TTTTTTTTTTTTTTTTTTTTTTTTTTTTTT SHELLX2     TELAPSE      249.41 TCPU      245.53
 TTTTTTTTTTTTTTTTTTTTTTTTTTTTTT MONMO3      TELAPSE      250.80 TCPU      246.91
 NUMERICALLY INTEGRATED DENSITY     88.0000043941
 TTTTTTTTTTTTTTTTTTTTTTTTTTTTTT NUMDFT      TELAPSE      254.21 TCPU      250.31
 CYC   8 ETOT(AU) -7.541045141809E+02 DETOT -6.02E-06 tst  2.40E-07 PX  8.35E-04
 TTTTTTTTTTTTTTTTTTTTTTTTTTTTTT FDIK        TELAPSE      256.08 TCPU      252.18
 INSULATING STATE
 TOP OF VALENCE BANDS -    BAND     44; K    7; EIG -3.3643622E-01 AU
 TOP OF VALENCE BANDS -    BAND     44; K    1; EIG -3.3657029E-01 AU
 BOTTOM OF VIRTUAL BANDS - BAND     45; K    1; EIG -2.4753258E-02 AU
 TTTTTTTTTTTTTTTTTTTTTTTTTTTTTT PDIG        TELAPSE      256.34 TCPU      252.43
 CHARGE NORMALIZATION FACTOR   1.00000000
 TOTAL ATOMIC CHARGES:
   5.0057766   8.5065708   8.4882889   4.9860739   8.5460540   8.4685864
   5.0417713   8.3438628   8.6150510   5.0439132   8.3230899   8.6309612
 TTTTTTTTTTTTTTTTTTTTTTTTTTTTTT MOQGAD      TELAPSE      256.34 TCPU      252.44
 TTTTTTTTTTTTTTTTTTTTTTTTTTTTTT SHELLX2     TELAPSE      276.34 TCPU      272.38
 TTTTTTTTTTTTTTTTTTTTTTTTTTTTTT MONMO3      TELAPSE      277.75 TCPU      273.79
 NUMERICALLY INTEGRATED DENSITY     88.0000043941
 TTTTTTTTTTTTTTTTTTTTTTTTTTTTTT NUMDFT      TELAPSE      281.17 TCPU      277.21
 CYC   9 ETOT(AU) -7.541045156349E+02 DETOT -1.45E-06 tst  1.35E-07 PX  4.76E-04
 TTTTTTTTTTTTTTTTTTTTTTTTTTTTTT FDIK        TELAPSE      283.09 TCPU      279.11
 INSULATING STATE
 TOP OF VALENCE BANDS -    BAND     44; K    7; EIG -3.3646860E-01 AU
 TOP OF VALENCE BANDS -    BAND     44; K    1; EIG -3.3660194E-01 AU
 BOTTOM OF VIRTUAL BANDS - BAND     45; K    1; EIG -2.4767220E-02 AU
 TTTTTTTTTTTTTTTTTTTTTTTTTTTTTT PDIG        TELAPSE      283.34 TCPU      279.36
 CHARGE NORMALIZATION FACTOR   1.00000000
 TOTAL ATOMIC CHARGES:
   5.0058089   8.5065424   8.4882793   4.9861106   8.5460213   8.4685869
   5.0418028   8.3439085   8.6149655   5.0439486   8.3231491   8.6308761
 TTTTTTTTTTTTTTTTTTTTTTTTTTTTTT MOQGAD      TELAPSE      283.35 TCPU      279.37
 TTTTTTTTTTTTTTTTTTTTTTTTTTTTTT SHELLX2     TELAPSE      303.35 TCPU      299.32
 TTTTTTTTTTTTTTTTTTTTTTTTTTTTTT MONMO3      TELAPSE      304.74 TCPU      300.71
 NUMERICALLY INTEGRATED DENSITY     88.0000043941
 TTTTTTTTTTTTTTTTTTTTTTTTTTTTTT NUMDFT      TELAPSE      308.17 TCPU      304.13
 CYC  10 ETOT(AU) -7.541045161574E+02 DETOT -5.23E-07 tst  4.45E-08 PX  3.34E-04
 TTTTTTTTTTTTTTTTTTTTTTTTTTTTTT FDIK        TELAPSE      310.12 TCPU      306.07
 INSULATING STATE
 TOP OF VALENCE BANDS -    BAND     44; K    7; EIG -3.3649401E-01 AU
 TOP OF VALENCE BANDS -    BAND     44; K    1; EIG -3.3662702E-01 AU
 BOTTOM OF VIRTUAL BANDS - BAND     45; K    1; EIG -2.4777263E-02 AU
 TTTTTTTTTTTTTTTTTTTTTTTTTTTTTT PDIG        TELAPSE      310.38 TCPU      306.33
 CHARGE NORMALIZATION FACTOR   1.00000000
 TOTAL ATOMIC CHARGES:
   5.0057932   8.5065422   8.4882915   4.9860803   8.5460251   8.4686152
   5.0417953   8.3439477   8.6149289   5.0439305   8.3232034   8.6308466
 TTTTTTTTTTTTTTTTTTTTTTTTTTTTTT MOQGAD      TELAPSE      310.39 TCPU      306.33
 TTTTTTTTTTTTTTTTTTTTTTTTTTTTTT SHELLX2     TELAPSE      330.40 TCPU      326.30
 +++ ENERGIES IN A.U. +++
 ::: EXT EL-POLE                                  -8.0131632189877E+02
 ::: EXT EL-SPHEROPOLE                             9.8493506292756E+00
 ::: BIELET ZONE E-E                               1.0105558257856E+03
 ::: TOTAL E-E                                     2.1908885451610E+02
 ::: TOTAL E-N + N-E                              -1.5069692218217E+03
 ::: TOTAL N-N                                    -1.4498289809673E+02
 ::: KINETIC ENERGY                                7.5142981063916E+02
 ::: PSEUDO TOTAL   ENERGY                        -6.8143345476319E+02
 ::: VIRIAL COEFFICIENT                            1.0488506876867E+00
 TTTTTTTTTTTTTTTTTTTTTTTTTTTTTT MONMO3      TELAPSE      331.81 TCPU      327.71
 NUMERICALLY INTEGRATED DENSITY     88.0000043940
 TTTTTTTTTTTTTTTTTTTTTTTTTTTTTT NUMDFT      TELAPSE      335.25 TCPU      331.13
 CYC  11 ETOT(AU) -7.541045163652E+02 DETOT -2.08E-07 tst  1.82E-08 PX  3.34E-04

 == SCF ENDED - CONVERGENCE ON ENERGY      E(AU) -7.5410451636518E+02 CYCLES  11


 ENERGY EXPRESSION=HARTREE+FOCK EXCH*0.20000+(BECKE      EXCH)*0.80000+LYP        CORR


 TOTAL ENERGY(DFT)(AU)( 11) -7.5410451636518E+02 DE-2.1E-07 tester 1.8E-08
 TTTTTTTTTTTTTTTTTTTTTTTTTTTTTT EDFT        TELAPSE      335.25 TCPU      331.13
 EIGENVECTORS IN FORTRAN UNIT 10
 TTTTTTTTTTTTTTTTTTTTTTTTTTTTTT END         TELAPSE      343.64 TCPU      339.50
 EEEEEEEEEE TERMINATION  DATE 18 05 2022 TIME 12:14:41.2
NODE    0 CPU TIME =       339.499
NODE    1 CPU TIME =       339.475
NODE    2 CPU TIME =       338.789
NODE    3 CPU TIME =       338.851
NODE    4 CPU TIME =       338.875
NODE    5 CPU TIME =       338.763
NODE    6 CPU TIME =       338.976
NODE    7 CPU TIME =       325.341
NODE    8 CPU TIME =       323.762
NODE    9 CPU TIME =       324.335
    TOTAL CPU TIME =      3346.666
